%!PS-Adobe-3.0 EPSF-3.0
%%Title: /home/david/Documents/AlifeXVLatexTemplatetoDistribute/vis-NAND-far.eps
%%Creator: matplotlib version 1.3.1, http://matplotlib.org/
%%CreationDate: Tue Mar  1 16:07:23 2016
%%Orientation: portrait
%%BoundingBox: 13 175 598 616
%%EndComments
%%BeginProlog
/mpldict 8 dict def
mpldict begin
/m { moveto } bind def
/l { lineto } bind def
/r { rlineto } bind def
/c { curveto } bind def
/cl { closepath } bind def
/box {
m
1 index 0 r
0 exch r
neg 0 r
cl
} bind def
/clipbox {
box
clip
newpath
} bind def
%!PS-Adobe-3.0 Resource-Font
%%Title: DejaVu Sans
%%Copyright: Copyright (c) 2003 by Bitstream, Inc. All Rights Reserved. Copyright (c) 2006 by Tavmjong Bah. All Rights Reserved. DejaVu changes are in public domain 
%%Creator: Converted from TrueType to type 3 by PPR
25 dict begin
/_d{bind def}bind def
/_m{moveto}_d
/_l{lineto}_d
/_cl{closepath eofill}_d
/_c{curveto}_d
/_sc{7 -1 roll{setcachedevice}{pop pop pop pop pop pop}ifelse}_d
/_e{exec}_d
/FontName /DejaVuSans def
/PaintType 0 def
/FontMatrix[.001 0 0 .001 0 0]def
/FontBBox[-1021 -415 1681 1167]def
/FontType 3 def
/Encoding [ /zero /one /two /five /minus ] def
/FontInfo 10 dict dup begin
/FamilyName (DejaVu Sans) def
/FullName (DejaVu Sans) def
/Notice (Copyright (c) 2003 by Bitstream, Inc. All Rights Reserved. Copyright (c) 2006 by Tavmjong Bah. All Rights Reserved. DejaVu changes are in public domain ) def
/Weight (Book) def
/Version (Version 2.34) def
/ItalicAngle 0.0 def
/isFixedPitch false def
/UnderlinePosition -130 def
/UnderlineThickness 90 def
end readonly def
/CharStrings 5 dict dup begin
/zero{636 0 66 -13 570 742 _sc
318 664 _m
267 664 229 639 203 589 _c
177 539 165 464 165 364 _c
165 264 177 189 203 139 _c
229 89 267 64 318 64 _c
369 64 407 89 433 139 _c
458 189 471 264 471 364 _c
471 464 458 539 433 589 _c
407 639 369 664 318 664 _c
318 742 _m
399 742 461 709 505 645 _c
548 580 570 486 570 364 _c
570 241 548 147 505 83 _c
461 19 399 -13 318 -13 _c
236 -13 173 19 130 83 _c
87 147 66 241 66 364 _c
66 486 87 580 130 645 _c
173 709 236 742 318 742 _c
_cl}_d
/one{636 0 110 0 544 729 _sc
124 83 _m
285 83 _l
285 639 _l
110 604 _l
110 694 _l
284 729 _l
383 729 _l
383 83 _l
544 83 _l
544 0 _l
124 0 _l
124 83 _l
_cl}_d
/two{{636 0 73 0 536 742 _sc
192 83 _m
536 83 _l
536 0 _l
73 0 _l
73 83 _l
110 121 161 173 226 239 _c
290 304 331 346 348 365 _c
380 400 402 430 414 455 _c
426 479 433 504 433 528 _c
433 566 419 598 392 622 _c
365 646 330 659 286 659 _c
255 659 222 653 188 643 _c
154 632 117 616 78 594 _c
78 694 _l
118 710 155 722 189 730 _c
223 738 255 742 284 742 _c
}_e{359 742 419 723 464 685 _c
509 647 532 597 532 534 _c
532 504 526 475 515 449 _c
504 422 484 390 454 354 _c
446 344 420 317 376 272 _c
332 227 271 164 192 83 _c
_cl}_e}_d
/five{{636 0 77 -13 549 729 _sc
108 729 _m
495 729 _l
495 646 _l
198 646 _l
198 467 _l
212 472 227 476 241 478 _c
255 480 270 482 284 482 _c
365 482 429 459 477 415 _c
525 370 549 310 549 234 _c
549 155 524 94 475 51 _c
426 8 357 -13 269 -13 _c
238 -13 207 -10 175 -6 _c
143 -1 111 6 77 17 _c
77 116 _l
106 100 136 88 168 80 _c
199 72 232 69 267 69 _c
}_e{323 69 368 83 401 113 _c
433 143 450 183 450 234 _c
450 284 433 324 401 354 _c
368 384 323 399 267 399 _c
241 399 214 396 188 390 _c
162 384 135 375 108 363 _c
108 729 _l
_cl}_e}_d
/minus{838 0 106 272 732 355 _sc
106 355 _m
732 355 _l
732 272 _l
106 272 _l
106 355 _l
_cl}_d
end readonly def

/BuildGlyph
 {exch begin
 CharStrings exch
 2 copy known not{pop /.notdef}if
 true 3 1 roll get exec
 end}_d

/BuildChar {
 1 index /Encoding get exch get
 1 index /BuildGlyph get exec
}_d

FontName currentdict end definefont pop
end
%%EndProlog
mpldict begin
13.5 175.5 translate
585 441 0 0 clipbox
gsave
0 0 m
585 0 l
585 441 l
0 441 l
cl
1.000 setgray
fill
grestore
gsave
73.125 44.1 m
526.5 44.1 l
526.5 396.9 l
73.125 396.9 l
cl
1.000 setgray
fill
grestore
/p0_0 {
newpath
translate
0 -2.73861 m
0.726289 -2.73861 1.42293 -2.45006 1.93649 -1.93649 c
2.45006 -1.42293 2.73861 -0.726289 2.73861 0 c
2.73861 0.726289 2.45006 1.42293 1.93649 1.93649 c
1.42293 2.45006 0.726289 2.73861 0 2.73861 c
-0.726289 2.73861 -1.42293 2.45006 -1.93649 1.93649 c
-2.45006 1.42293 -2.73861 0.726289 -2.73861 0 c
-2.73861 -0.726289 -2.45006 -1.42293 -1.93649 -1.93649 c
-1.42293 -2.45006 -0.726289 -2.73861 0 -2.73861 c
cl
} bind def
1.000 setlinewidth
1 setlinejoin
0 setlinecap
[] 0 setdash
0.000 setgray
gsave
453.4 352.8 73.12 44.1 clipbox
163.929 228.069 p0_0
gsave
0.000 0.000 1.000 setrgbcolor
fill
grestore
stroke
grestore
gsave
453.4 352.8 73.12 44.1 clipbox
127.887 254.218 p0_0
gsave
0.000 0.000 1.000 setrgbcolor
fill
grestore
stroke
grestore
gsave
453.4 352.8 73.12 44.1 clipbox
160.997 286.356 p0_0
gsave
0.000 0.000 1.000 setrgbcolor
fill
grestore
stroke
grestore
gsave
453.4 352.8 73.12 44.1 clipbox
122.927 269.238 p0_0
gsave
0.000 0.000 1.000 setrgbcolor
fill
grestore
stroke
grestore
gsave
453.4 352.8 73.12 44.1 clipbox
228.142 307.919 p0_0
gsave
0.000 0.000 1.000 setrgbcolor
fill
grestore
stroke
grestore
gsave
453.4 352.8 73.12 44.1 clipbox
218.246 310.597 p0_0
gsave
0.000 0.000 1.000 setrgbcolor
fill
grestore
stroke
grestore
gsave
453.4 352.8 73.12 44.1 clipbox
200.585 329.438 p0_0
gsave
0.000 0.000 1.000 setrgbcolor
fill
grestore
stroke
grestore
gsave
453.4 352.8 73.12 44.1 clipbox
219.544 266.151 p0_0
gsave
0.000 0.000 1.000 setrgbcolor
fill
grestore
stroke
grestore
gsave
453.4 352.8 73.12 44.1 clipbox
227.926 201.91 p0_0
gsave
0.000 0.000 1.000 setrgbcolor
fill
grestore
stroke
grestore
gsave
453.4 352.8 73.12 44.1 clipbox
244.868 307.982 p0_0
gsave
0.000 0.000 1.000 setrgbcolor
fill
grestore
stroke
grestore
gsave
453.4 352.8 73.12 44.1 clipbox
196.023 321.641 p0_0
gsave
0.000 0.000 1.000 setrgbcolor
fill
grestore
stroke
grestore
gsave
453.4 352.8 73.12 44.1 clipbox
188.684 318.609 p0_0
gsave
0.000 0.000 1.000 setrgbcolor
fill
grestore
stroke
grestore
gsave
453.4 352.8 73.12 44.1 clipbox
250.492 325.592 p0_0
gsave
0.000 0.000 1.000 setrgbcolor
fill
grestore
stroke
grestore
gsave
453.4 352.8 73.12 44.1 clipbox
142.691 270.391 p0_0
gsave
0.000 0.000 1.000 setrgbcolor
fill
grestore
stroke
grestore
gsave
453.4 352.8 73.12 44.1 clipbox
169.492 233.17 p0_0
gsave
0.000 0.000 1.000 setrgbcolor
fill
grestore
stroke
grestore
gsave
453.4 352.8 73.12 44.1 clipbox
170.472 322.908 p0_0
gsave
0.000 0.000 1.000 setrgbcolor
fill
grestore
stroke
grestore
gsave
453.4 352.8 73.12 44.1 clipbox
215.998 282.605 p0_0
gsave
0.000 0.000 1.000 setrgbcolor
fill
grestore
stroke
grestore
gsave
453.4 352.8 73.12 44.1 clipbox
227.834 200.716 p0_0
gsave
0.000 0.000 1.000 setrgbcolor
fill
grestore
stroke
grestore
gsave
453.4 352.8 73.12 44.1 clipbox
222.547 285.029 p0_0
gsave
0.000 0.000 1.000 setrgbcolor
fill
grestore
stroke
grestore
gsave
453.4 352.8 73.12 44.1 clipbox
197.586 239.042 p0_0
gsave
0.000 0.000 1.000 setrgbcolor
fill
grestore
stroke
grestore
gsave
453.4 352.8 73.12 44.1 clipbox
306.818 206.23 p0_0
gsave
1.000 0.000 0.000 setrgbcolor
fill
grestore
stroke
grestore
gsave
453.4 352.8 73.12 44.1 clipbox
228.54 258.432 p0_0
gsave
0.000 0.000 1.000 setrgbcolor
fill
grestore
stroke
grestore
gsave
453.4 352.8 73.12 44.1 clipbox
242.502 264.398 p0_0
gsave
0.000 0.000 1.000 setrgbcolor
fill
grestore
stroke
grestore
gsave
453.4 352.8 73.12 44.1 clipbox
199.96 198.508 p0_0
gsave
0.000 0.000 1.000 setrgbcolor
fill
grestore
stroke
grestore
gsave
453.4 352.8 73.12 44.1 clipbox
192.683 263.547 p0_0
gsave
0.000 0.000 1.000 setrgbcolor
fill
grestore
stroke
grestore
gsave
453.4 352.8 73.12 44.1 clipbox
239.927 322.506 p0_0
gsave
0.000 0.000 1.000 setrgbcolor
fill
grestore
stroke
grestore
gsave
453.4 352.8 73.12 44.1 clipbox
209.611 230.082 p0_0
gsave
0.000 0.000 1.000 setrgbcolor
fill
grestore
stroke
grestore
gsave
453.4 352.8 73.12 44.1 clipbox
227.782 241.818 p0_0
gsave
0.000 0.000 1.000 setrgbcolor
fill
grestore
stroke
grestore
gsave
453.4 352.8 73.12 44.1 clipbox
198.738 206.985 p0_0
gsave
0.000 0.000 1.000 setrgbcolor
fill
grestore
stroke
grestore
gsave
453.4 352.8 73.12 44.1 clipbox
219.414 306.928 p0_0
gsave
0.000 0.000 1.000 setrgbcolor
fill
grestore
stroke
grestore
gsave
453.4 352.8 73.12 44.1 clipbox
263.132 252.963 p0_0
gsave
0.000 0.000 1.000 setrgbcolor
fill
grestore
stroke
grestore
gsave
453.4 352.8 73.12 44.1 clipbox
195.182 273.272 p0_0
gsave
0.000 0.000 1.000 setrgbcolor
fill
grestore
stroke
grestore
gsave
453.4 352.8 73.12 44.1 clipbox
163.948 308.348 p0_0
gsave
0.000 0.000 1.000 setrgbcolor
fill
grestore
stroke
grestore
gsave
453.4 352.8 73.12 44.1 clipbox
218.652 351.449 p0_0
gsave
0.000 0.000 1.000 setrgbcolor
fill
grestore
stroke
grestore
gsave
453.4 352.8 73.12 44.1 clipbox
171.53 270.33 p0_0
gsave
0.000 0.000 1.000 setrgbcolor
fill
grestore
stroke
grestore
gsave
453.4 352.8 73.12 44.1 clipbox
277.902 277.262 p0_0
gsave
0.000 0.000 1.000 setrgbcolor
fill
grestore
stroke
grestore
gsave
453.4 352.8 73.12 44.1 clipbox
221.627 244.491 p0_0
gsave
0.000 0.000 1.000 setrgbcolor
fill
grestore
stroke
grestore
gsave
453.4 352.8 73.12 44.1 clipbox
205.379 317.653 p0_0
gsave
0.000 0.000 1.000 setrgbcolor
fill
grestore
stroke
grestore
gsave
453.4 352.8 73.12 44.1 clipbox
184.408 308.766 p0_0
gsave
0.000 0.000 1.000 setrgbcolor
fill
grestore
stroke
grestore
gsave
453.4 352.8 73.12 44.1 clipbox
200.235 214.228 p0_0
gsave
0.000 0.000 1.000 setrgbcolor
fill
grestore
stroke
grestore
gsave
453.4 352.8 73.12 44.1 clipbox
384.753 234.622 p0_0
gsave
1.000 0.000 0.000 setrgbcolor
fill
grestore
stroke
grestore
gsave
453.4 352.8 73.12 44.1 clipbox
279.581 210.416 p0_0
gsave
1.000 0.000 0.000 setrgbcolor
fill
grestore
stroke
grestore
gsave
453.4 352.8 73.12 44.1 clipbox
177.515 269.706 p0_0
gsave
0.000 0.000 1.000 setrgbcolor
fill
grestore
stroke
grestore
gsave
453.4 352.8 73.12 44.1 clipbox
187.818 287.649 p0_0
gsave
0.000 0.000 1.000 setrgbcolor
fill
grestore
stroke
grestore
gsave
453.4 352.8 73.12 44.1 clipbox
255.704 298.949 p0_0
gsave
0.000 0.000 1.000 setrgbcolor
fill
grestore
stroke
grestore
gsave
453.4 352.8 73.12 44.1 clipbox
287.976 310.282 p0_0
gsave
0.000 0.000 1.000 setrgbcolor
fill
grestore
stroke
grestore
gsave
453.4 352.8 73.12 44.1 clipbox
247.075 287.61 p0_0
gsave
0.000 0.000 1.000 setrgbcolor
fill
grestore
stroke
grestore
gsave
453.4 352.8 73.12 44.1 clipbox
194.12 243.54 p0_0
gsave
0.000 0.000 1.000 setrgbcolor
fill
grestore
stroke
grestore
gsave
453.4 352.8 73.12 44.1 clipbox
207.511 199.16 p0_0
gsave
0.000 0.000 1.000 setrgbcolor
fill
grestore
stroke
grestore
gsave
453.4 352.8 73.12 44.1 clipbox
180.246 223.937 p0_0
gsave
0.000 0.000 1.000 setrgbcolor
fill
grestore
stroke
grestore
gsave
453.4 352.8 73.12 44.1 clipbox
186.428 231.146 p0_0
gsave
0.000 0.000 1.000 setrgbcolor
fill
grestore
stroke
grestore
gsave
453.4 352.8 73.12 44.1 clipbox
198.006 311.524 p0_0
gsave
0.000 0.000 1.000 setrgbcolor
fill
grestore
stroke
grestore
gsave
453.4 352.8 73.12 44.1 clipbox
192.955 262.659 p0_0
gsave
0.000 0.000 1.000 setrgbcolor
fill
grestore
stroke
grestore
gsave
453.4 352.8 73.12 44.1 clipbox
262.897 290.119 p0_0
gsave
0.000 0.000 1.000 setrgbcolor
fill
grestore
stroke
grestore
gsave
453.4 352.8 73.12 44.1 clipbox
225.295 266.656 p0_0
gsave
0.000 0.000 1.000 setrgbcolor
fill
grestore
stroke
grestore
gsave
453.4 352.8 73.12 44.1 clipbox
229.102 318.864 p0_0
gsave
0.000 0.000 1.000 setrgbcolor
fill
grestore
stroke
grestore
gsave
453.4 352.8 73.12 44.1 clipbox
254.172 266.435 p0_0
gsave
0.000 0.000 1.000 setrgbcolor
fill
grestore
stroke
grestore
gsave
453.4 352.8 73.12 44.1 clipbox
171.409 253.929 p0_0
gsave
0.000 0.000 1.000 setrgbcolor
fill
grestore
stroke
grestore
gsave
453.4 352.8 73.12 44.1 clipbox
158.512 220.751 p0_0
gsave
0.000 0.000 1.000 setrgbcolor
fill
grestore
stroke
grestore
gsave
453.4 352.8 73.12 44.1 clipbox
151.788 263.579 p0_0
gsave
0.000 0.000 1.000 setrgbcolor
fill
grestore
stroke
grestore
gsave
453.4 352.8 73.12 44.1 clipbox
194.194 228.676 p0_0
gsave
0.000 0.000 1.000 setrgbcolor
fill
grestore
stroke
grestore
gsave
453.4 352.8 73.12 44.1 clipbox
318.7 332.3 p0_0
gsave
0.000 0.000 1.000 setrgbcolor
fill
grestore
stroke
grestore
gsave
453.4 352.8 73.12 44.1 clipbox
246.182 228.954 p0_0
gsave
0.000 0.000 1.000 setrgbcolor
fill
grestore
stroke
grestore
gsave
453.4 352.8 73.12 44.1 clipbox
268.077 206.304 p0_0
gsave
1.000 0.000 0.000 setrgbcolor
fill
grestore
stroke
grestore
gsave
453.4 352.8 73.12 44.1 clipbox
293.868 280.763 p0_0
gsave
0.000 0.000 1.000 setrgbcolor
fill
grestore
stroke
grestore
gsave
453.4 352.8 73.12 44.1 clipbox
193.536 231.38 p0_0
gsave
0.000 0.000 1.000 setrgbcolor
fill
grestore
stroke
grestore
gsave
453.4 352.8 73.12 44.1 clipbox
239.049 303.105 p0_0
gsave
0.000 0.000 1.000 setrgbcolor
fill
grestore
stroke
grestore
gsave
453.4 352.8 73.12 44.1 clipbox
183.288 232.239 p0_0
gsave
0.000 0.000 1.000 setrgbcolor
fill
grestore
stroke
grestore
gsave
453.4 352.8 73.12 44.1 clipbox
177.981 300.8 p0_0
gsave
0.000 0.000 1.000 setrgbcolor
fill
grestore
stroke
grestore
gsave
453.4 352.8 73.12 44.1 clipbox
197.328 213.016 p0_0
gsave
0.000 0.000 1.000 setrgbcolor
fill
grestore
stroke
grestore
gsave
453.4 352.8 73.12 44.1 clipbox
207.514 295.989 p0_0
gsave
0.000 0.000 1.000 setrgbcolor
fill
grestore
stroke
grestore
gsave
453.4 352.8 73.12 44.1 clipbox
177.928 300.711 p0_0
gsave
0.000 0.000 1.000 setrgbcolor
fill
grestore
stroke
grestore
gsave
453.4 352.8 73.12 44.1 clipbox
263.204 304.352 p0_0
gsave
0.000 0.000 1.000 setrgbcolor
fill
grestore
stroke
grestore
gsave
453.4 352.8 73.12 44.1 clipbox
206.753 293.403 p0_0
gsave
0.000 0.000 1.000 setrgbcolor
fill
grestore
stroke
grestore
gsave
453.4 352.8 73.12 44.1 clipbox
237.913 275.616 p0_0
gsave
0.000 0.000 1.000 setrgbcolor
fill
grestore
stroke
grestore
gsave
453.4 352.8 73.12 44.1 clipbox
245.726 287.253 p0_0
gsave
0.000 0.000 1.000 setrgbcolor
fill
grestore
stroke
grestore
gsave
453.4 352.8 73.12 44.1 clipbox
273.409 331.329 p0_0
gsave
0.000 0.000 1.000 setrgbcolor
fill
grestore
stroke
grestore
gsave
453.4 352.8 73.12 44.1 clipbox
172.118 222.636 p0_0
gsave
0.000 0.000 1.000 setrgbcolor
fill
grestore
stroke
grestore
gsave
453.4 352.8 73.12 44.1 clipbox
204.537 284.888 p0_0
gsave
0.000 0.000 1.000 setrgbcolor
fill
grestore
stroke
grestore
gsave
453.4 352.8 73.12 44.1 clipbox
164.509 272.352 p0_0
gsave
0.000 0.000 1.000 setrgbcolor
fill
grestore
stroke
grestore
gsave
453.4 352.8 73.12 44.1 clipbox
228.834 312.977 p0_0
gsave
0.000 0.000 1.000 setrgbcolor
fill
grestore
stroke
grestore
gsave
453.4 352.8 73.12 44.1 clipbox
209.972 215.36 p0_0
gsave
0.000 0.000 1.000 setrgbcolor
fill
grestore
stroke
grestore
gsave
453.4 352.8 73.12 44.1 clipbox
147.78 277.735 p0_0
gsave
0.000 0.000 1.000 setrgbcolor
fill
grestore
stroke
grestore
gsave
453.4 352.8 73.12 44.1 clipbox
221.345 248.773 p0_0
gsave
0.000 0.000 1.000 setrgbcolor
fill
grestore
stroke
grestore
gsave
453.4 352.8 73.12 44.1 clipbox
193.375 231.418 p0_0
gsave
0.000 0.000 1.000 setrgbcolor
fill
grestore
stroke
grestore
gsave
453.4 352.8 73.12 44.1 clipbox
245.538 248.693 p0_0
gsave
0.000 0.000 1.000 setrgbcolor
fill
grestore
stroke
grestore
gsave
453.4 352.8 73.12 44.1 clipbox
180.85 298.185 p0_0
gsave
0.000 0.000 1.000 setrgbcolor
fill
grestore
stroke
grestore
gsave
453.4 352.8 73.12 44.1 clipbox
212.674 259.53 p0_0
gsave
0.000 0.000 1.000 setrgbcolor
fill
grestore
stroke
grestore
gsave
453.4 352.8 73.12 44.1 clipbox
199.285 240.991 p0_0
gsave
0.000 0.000 1.000 setrgbcolor
fill
grestore
stroke
grestore
gsave
453.4 352.8 73.12 44.1 clipbox
171.885 233.557 p0_0
gsave
0.000 0.000 1.000 setrgbcolor
fill
grestore
stroke
grestore
gsave
453.4 352.8 73.12 44.1 clipbox
207.546 298.196 p0_0
gsave
0.000 0.000 1.000 setrgbcolor
fill
grestore
stroke
grestore
gsave
453.4 352.8 73.12 44.1 clipbox
227.061 319.677 p0_0
gsave
0.000 0.000 1.000 setrgbcolor
fill
grestore
stroke
grestore
gsave
453.4 352.8 73.12 44.1 clipbox
223.767 266.262 p0_0
gsave
0.000 0.000 1.000 setrgbcolor
fill
grestore
stroke
grestore
gsave
453.4 352.8 73.12 44.1 clipbox
245.6 288.076 p0_0
gsave
0.000 0.000 1.000 setrgbcolor
fill
grestore
stroke
grestore
gsave
453.4 352.8 73.12 44.1 clipbox
194.14 218.372 p0_0
gsave
0.000 0.000 1.000 setrgbcolor
fill
grestore
stroke
grestore
gsave
453.4 352.8 73.12 44.1 clipbox
249.017 319.89 p0_0
gsave
0.000 0.000 1.000 setrgbcolor
fill
grestore
stroke
grestore
gsave
453.4 352.8 73.12 44.1 clipbox
217.933 224.914 p0_0
gsave
0.000 0.000 1.000 setrgbcolor
fill
grestore
stroke
grestore
gsave
453.4 352.8 73.12 44.1 clipbox
220.592 285.264 p0_0
gsave
0.000 0.000 1.000 setrgbcolor
fill
grestore
stroke
grestore
gsave
453.4 352.8 73.12 44.1 clipbox
409.97 301.9 p0_0
gsave
1.000 0.000 0.000 setrgbcolor
fill
grestore
stroke
grestore
gsave
453.4 352.8 73.12 44.1 clipbox
232.014 276.369 p0_0
gsave
0.000 0.000 1.000 setrgbcolor
fill
grestore
stroke
grestore
gsave
453.4 352.8 73.12 44.1 clipbox
187.874 286.878 p0_0
gsave
0.000 0.000 1.000 setrgbcolor
fill
grestore
stroke
grestore
gsave
453.4 352.8 73.12 44.1 clipbox
291.538 163.758 p0_0
gsave
1.000 0.000 0.000 setrgbcolor
fill
grestore
stroke
grestore
gsave
453.4 352.8 73.12 44.1 clipbox
238.643 301.981 p0_0
gsave
0.000 0.000 1.000 setrgbcolor
fill
grestore
stroke
grestore
gsave
453.4 352.8 73.12 44.1 clipbox
170.909 233.792 p0_0
gsave
0.000 0.000 1.000 setrgbcolor
fill
grestore
stroke
grestore
gsave
453.4 352.8 73.12 44.1 clipbox
174.228 189.453 p0_0
gsave
0.000 0.000 1.000 setrgbcolor
fill
grestore
stroke
grestore
gsave
453.4 352.8 73.12 44.1 clipbox
196.491 281.963 p0_0
gsave
0.000 0.000 1.000 setrgbcolor
fill
grestore
stroke
grestore
gsave
453.4 352.8 73.12 44.1 clipbox
272.952 242.798 p0_0
gsave
0.000 0.000 1.000 setrgbcolor
fill
grestore
stroke
grestore
gsave
453.4 352.8 73.12 44.1 clipbox
176.914 166.943 p0_0
gsave
1.000 0.000 0.000 setrgbcolor
fill
grestore
stroke
grestore
gsave
453.4 352.8 73.12 44.1 clipbox
332.997 244.517 p0_0
gsave
1.000 0.000 0.000 setrgbcolor
fill
grestore
stroke
grestore
gsave
453.4 352.8 73.12 44.1 clipbox
251.436 285.151 p0_0
gsave
0.000 0.000 1.000 setrgbcolor
fill
grestore
stroke
grestore
gsave
453.4 352.8 73.12 44.1 clipbox
223.297 282.082 p0_0
gsave
0.000 0.000 1.000 setrgbcolor
fill
grestore
stroke
grestore
gsave
453.4 352.8 73.12 44.1 clipbox
173.878 237.375 p0_0
gsave
0.000 0.000 1.000 setrgbcolor
fill
grestore
stroke
grestore
gsave
453.4 352.8 73.12 44.1 clipbox
342.909 241.236 p0_0
gsave
1.000 0.000 0.000 setrgbcolor
fill
grestore
stroke
grestore
gsave
453.4 352.8 73.12 44.1 clipbox
340.245 333.842 p0_0
gsave
0.000 0.000 1.000 setrgbcolor
fill
grestore
stroke
grestore
gsave
453.4 352.8 73.12 44.1 clipbox
171.729 142.188 p0_0
gsave
1.000 0.000 0.000 setrgbcolor
fill
grestore
stroke
grestore
gsave
453.4 352.8 73.12 44.1 clipbox
147.672 278.888 p0_0
gsave
0.000 0.000 1.000 setrgbcolor
fill
grestore
stroke
grestore
gsave
453.4 352.8 73.12 44.1 clipbox
213.056 227.664 p0_0
gsave
0.000 0.000 1.000 setrgbcolor
fill
grestore
stroke
grestore
gsave
453.4 352.8 73.12 44.1 clipbox
199.255 240.876 p0_0
gsave
0.000 0.000 1.000 setrgbcolor
fill
grestore
stroke
grestore
gsave
453.4 352.8 73.12 44.1 clipbox
209.058 339.286 p0_0
gsave
0.000 0.000 1.000 setrgbcolor
fill
grestore
stroke
grestore
gsave
453.4 352.8 73.12 44.1 clipbox
233.606 255.66 p0_0
gsave
0.000 0.000 1.000 setrgbcolor
fill
grestore
stroke
grestore
gsave
453.4 352.8 73.12 44.1 clipbox
156.687 268.043 p0_0
gsave
0.000 0.000 1.000 setrgbcolor
fill
grestore
stroke
grestore
gsave
453.4 352.8 73.12 44.1 clipbox
176.211 311.036 p0_0
gsave
0.000 0.000 1.000 setrgbcolor
fill
grestore
stroke
grestore
gsave
453.4 352.8 73.12 44.1 clipbox
195.551 267.92 p0_0
gsave
0.000 0.000 1.000 setrgbcolor
fill
grestore
stroke
grestore
gsave
453.4 352.8 73.12 44.1 clipbox
240.831 295.52 p0_0
gsave
0.000 0.000 1.000 setrgbcolor
fill
grestore
stroke
grestore
gsave
453.4 352.8 73.12 44.1 clipbox
170.117 254.708 p0_0
gsave
0.000 0.000 1.000 setrgbcolor
fill
grestore
stroke
grestore
gsave
453.4 352.8 73.12 44.1 clipbox
198.558 306.934 p0_0
gsave
0.000 0.000 1.000 setrgbcolor
fill
grestore
stroke
grestore
gsave
453.4 352.8 73.12 44.1 clipbox
177.766 298.793 p0_0
gsave
0.000 0.000 1.000 setrgbcolor
fill
grestore
stroke
grestore
gsave
453.4 352.8 73.12 44.1 clipbox
280.795 317.589 p0_0
gsave
0.000 0.000 1.000 setrgbcolor
fill
grestore
stroke
grestore
gsave
453.4 352.8 73.12 44.1 clipbox
266.832 306.232 p0_0
gsave
0.000 0.000 1.000 setrgbcolor
fill
grestore
stroke
grestore
gsave
453.4 352.8 73.12 44.1 clipbox
189.658 265.561 p0_0
gsave
0.000 0.000 1.000 setrgbcolor
fill
grestore
stroke
grestore
gsave
453.4 352.8 73.12 44.1 clipbox
171.769 275.066 p0_0
gsave
0.000 0.000 1.000 setrgbcolor
fill
grestore
stroke
grestore
gsave
453.4 352.8 73.12 44.1 clipbox
177.988 300.608 p0_0
gsave
0.000 0.000 1.000 setrgbcolor
fill
grestore
stroke
grestore
gsave
453.4 352.8 73.12 44.1 clipbox
243.751 343.266 p0_0
gsave
0.000 0.000 1.000 setrgbcolor
fill
grestore
stroke
grestore
gsave
453.4 352.8 73.12 44.1 clipbox
148.476 240.361 p0_0
gsave
0.000 0.000 1.000 setrgbcolor
fill
grestore
stroke
grestore
gsave
453.4 352.8 73.12 44.1 clipbox
232.853 230.503 p0_0
gsave
0.000 0.000 1.000 setrgbcolor
fill
grestore
stroke
grestore
gsave
453.4 352.8 73.12 44.1 clipbox
249.079 309.342 p0_0
gsave
0.000 0.000 1.000 setrgbcolor
fill
grestore
stroke
grestore
gsave
453.4 352.8 73.12 44.1 clipbox
270.017 304.735 p0_0
gsave
0.000 0.000 1.000 setrgbcolor
fill
grestore
stroke
grestore
gsave
453.4 352.8 73.12 44.1 clipbox
222.191 268.241 p0_0
gsave
0.000 0.000 1.000 setrgbcolor
fill
grestore
stroke
grestore
gsave
453.4 352.8 73.12 44.1 clipbox
143.403 261.209 p0_0
gsave
0.000 0.000 1.000 setrgbcolor
fill
grestore
stroke
grestore
gsave
453.4 352.8 73.12 44.1 clipbox
200.289 205.445 p0_0
gsave
0.000 0.000 1.000 setrgbcolor
fill
grestore
stroke
grestore
gsave
453.4 352.8 73.12 44.1 clipbox
220.392 283.7 p0_0
gsave
0.000 0.000 1.000 setrgbcolor
fill
grestore
stroke
grestore
gsave
453.4 352.8 73.12 44.1 clipbox
227.211 306.002 p0_0
gsave
0.000 0.000 1.000 setrgbcolor
fill
grestore
stroke
grestore
gsave
453.4 352.8 73.12 44.1 clipbox
261.904 312.725 p0_0
gsave
0.000 0.000 1.000 setrgbcolor
fill
grestore
stroke
grestore
gsave
453.4 352.8 73.12 44.1 clipbox
170.882 275.677 p0_0
gsave
0.000 0.000 1.000 setrgbcolor
fill
grestore
stroke
grestore
gsave
453.4 352.8 73.12 44.1 clipbox
244.768 295.164 p0_0
gsave
0.000 0.000 1.000 setrgbcolor
fill
grestore
stroke
grestore
gsave
453.4 352.8 73.12 44.1 clipbox
278.059 301.274 p0_0
gsave
0.000 0.000 1.000 setrgbcolor
fill
grestore
stroke
grestore
gsave
453.4 352.8 73.12 44.1 clipbox
294.419 156.634 p0_0
gsave
1.000 0.000 0.000 setrgbcolor
fill
grestore
stroke
grestore
gsave
453.4 352.8 73.12 44.1 clipbox
379.18 286.555 p0_0
gsave
1.000 0.000 0.000 setrgbcolor
fill
grestore
stroke
grestore
gsave
453.4 352.8 73.12 44.1 clipbox
282.647 302.937 p0_0
gsave
0.000 0.000 1.000 setrgbcolor
fill
grestore
stroke
grestore
gsave
453.4 352.8 73.12 44.1 clipbox
172.243 282.299 p0_0
gsave
0.000 0.000 1.000 setrgbcolor
fill
grestore
stroke
grestore
gsave
453.4 352.8 73.12 44.1 clipbox
224.164 331.042 p0_0
gsave
0.000 0.000 1.000 setrgbcolor
fill
grestore
stroke
grestore
gsave
453.4 352.8 73.12 44.1 clipbox
237.209 250.476 p0_0
gsave
0.000 0.000 1.000 setrgbcolor
fill
grestore
stroke
grestore
gsave
453.4 352.8 73.12 44.1 clipbox
235.282 230.883 p0_0
gsave
0.000 0.000 1.000 setrgbcolor
fill
grestore
stroke
grestore
gsave
453.4 352.8 73.12 44.1 clipbox
409.49 287.842 p0_0
gsave
1.000 0.000 0.000 setrgbcolor
fill
grestore
stroke
grestore
gsave
453.4 352.8 73.12 44.1 clipbox
197.963 343.041 p0_0
gsave
1.000 0.000 0.000 setrgbcolor
fill
grestore
stroke
grestore
gsave
453.4 352.8 73.12 44.1 clipbox
189.593 323.442 p0_0
gsave
0.000 0.000 1.000 setrgbcolor
fill
grestore
stroke
grestore
gsave
453.4 352.8 73.12 44.1 clipbox
222.436 219.249 p0_0
gsave
0.000 0.000 1.000 setrgbcolor
fill
grestore
stroke
grestore
gsave
453.4 352.8 73.12 44.1 clipbox
167.132 205.952 p0_0
gsave
0.000 0.000 1.000 setrgbcolor
fill
grestore
stroke
grestore
gsave
453.4 352.8 73.12 44.1 clipbox
238.483 224.684 p0_0
gsave
1.000 0.000 0.000 setrgbcolor
fill
grestore
stroke
grestore
gsave
453.4 352.8 73.12 44.1 clipbox
253.748 264.444 p0_0
gsave
0.000 0.000 1.000 setrgbcolor
fill
grestore
stroke
grestore
gsave
453.4 352.8 73.12 44.1 clipbox
224.83 256.291 p0_0
gsave
0.000 0.000 1.000 setrgbcolor
fill
grestore
stroke
grestore
gsave
453.4 352.8 73.12 44.1 clipbox
281.25 299.443 p0_0
gsave
0.000 0.000 1.000 setrgbcolor
fill
grestore
stroke
grestore
gsave
453.4 352.8 73.12 44.1 clipbox
227.56 200.666 p0_0
gsave
0.000 0.000 1.000 setrgbcolor
fill
grestore
stroke
grestore
gsave
453.4 352.8 73.12 44.1 clipbox
235.026 227.313 p0_0
gsave
0.000 0.000 1.000 setrgbcolor
fill
grestore
stroke
grestore
gsave
453.4 352.8 73.12 44.1 clipbox
228.268 323.108 p0_0
gsave
0.000 0.000 1.000 setrgbcolor
fill
grestore
stroke
grestore
gsave
453.4 352.8 73.12 44.1 clipbox
216.816 266.514 p0_0
gsave
0.000 0.000 1.000 setrgbcolor
fill
grestore
stroke
grestore
gsave
453.4 352.8 73.12 44.1 clipbox
234.962 262.575 p0_0
gsave
0.000 0.000 1.000 setrgbcolor
fill
grestore
stroke
grestore
gsave
453.4 352.8 73.12 44.1 clipbox
288.36 271.378 p0_0
gsave
0.000 0.000 1.000 setrgbcolor
fill
grestore
stroke
grestore
gsave
453.4 352.8 73.12 44.1 clipbox
187.092 146.939 p0_0
gsave
1.000 0.000 0.000 setrgbcolor
fill
grestore
stroke
grestore
gsave
453.4 352.8 73.12 44.1 clipbox
250.346 227.42 p0_0
gsave
0.000 0.000 1.000 setrgbcolor
fill
grestore
stroke
grestore
gsave
453.4 352.8 73.12 44.1 clipbox
249.51 322.237 p0_0
gsave
0.000 0.000 1.000 setrgbcolor
fill
grestore
stroke
grestore
gsave
453.4 352.8 73.12 44.1 clipbox
343.951 242.495 p0_0
gsave
1.000 0.000 0.000 setrgbcolor
fill
grestore
stroke
grestore
gsave
453.4 352.8 73.12 44.1 clipbox
206.52 305.197 p0_0
gsave
0.000 0.000 1.000 setrgbcolor
fill
grestore
stroke
grestore
gsave
453.4 352.8 73.12 44.1 clipbox
198.267 307.016 p0_0
gsave
0.000 0.000 1.000 setrgbcolor
fill
grestore
stroke
grestore
gsave
453.4 352.8 73.12 44.1 clipbox
265.164 311.93 p0_0
gsave
0.000 0.000 1.000 setrgbcolor
fill
grestore
stroke
grestore
gsave
453.4 352.8 73.12 44.1 clipbox
191.696 195.089 p0_0
gsave
0.000 0.000 1.000 setrgbcolor
fill
grestore
stroke
grestore
gsave
453.4 352.8 73.12 44.1 clipbox
258.481 324.734 p0_0
gsave
0.000 0.000 1.000 setrgbcolor
fill
grestore
stroke
grestore
gsave
453.4 352.8 73.12 44.1 clipbox
261.016 307.934 p0_0
gsave
0.000 0.000 1.000 setrgbcolor
fill
grestore
stroke
grestore
gsave
453.4 352.8 73.12 44.1 clipbox
246.965 266.718 p0_0
gsave
0.000 0.000 1.000 setrgbcolor
fill
grestore
stroke
grestore
gsave
453.4 352.8 73.12 44.1 clipbox
332.499 95.2929 p0_0
gsave
0.000 0.000 1.000 setrgbcolor
fill
grestore
stroke
grestore
gsave
453.4 352.8 73.12 44.1 clipbox
187.209 287.564 p0_0
gsave
0.000 0.000 1.000 setrgbcolor
fill
grestore
stroke
grestore
gsave
453.4 352.8 73.12 44.1 clipbox
418.475 233.759 p0_0
gsave
1.000 0.000 0.000 setrgbcolor
fill
grestore
stroke
grestore
gsave
453.4 352.8 73.12 44.1 clipbox
279.866 267.37 p0_0
gsave
0.000 0.000 1.000 setrgbcolor
fill
grestore
stroke
grestore
gsave
453.4 352.8 73.12 44.1 clipbox
233.174 333.431 p0_0
gsave
0.000 0.000 1.000 setrgbcolor
fill
grestore
stroke
grestore
gsave
453.4 352.8 73.12 44.1 clipbox
238.461 301.83 p0_0
gsave
0.000 0.000 1.000 setrgbcolor
fill
grestore
stroke
grestore
gsave
453.4 352.8 73.12 44.1 clipbox
224.667 256.042 p0_0
gsave
0.000 0.000 1.000 setrgbcolor
fill
grestore
stroke
grestore
gsave
453.4 352.8 73.12 44.1 clipbox
183.145 222.915 p0_0
gsave
0.000 0.000 1.000 setrgbcolor
fill
grestore
stroke
grestore
gsave
453.4 352.8 73.12 44.1 clipbox
164.17 250.676 p0_0
gsave
0.000 0.000 1.000 setrgbcolor
fill
grestore
stroke
grestore
gsave
453.4 352.8 73.12 44.1 clipbox
223.277 265.327 p0_0
gsave
0.000 0.000 1.000 setrgbcolor
fill
grestore
stroke
grestore
gsave
453.4 352.8 73.12 44.1 clipbox
311.562 334.227 p0_0
gsave
0.000 0.000 1.000 setrgbcolor
fill
grestore
stroke
grestore
gsave
453.4 352.8 73.12 44.1 clipbox
172.653 321.792 p0_0
gsave
0.000 0.000 1.000 setrgbcolor
fill
grestore
stroke
grestore
gsave
453.4 352.8 73.12 44.1 clipbox
268.403 245.235 p0_0
gsave
0.000 0.000 1.000 setrgbcolor
fill
grestore
stroke
grestore
gsave
453.4 352.8 73.12 44.1 clipbox
161.062 284.897 p0_0
gsave
0.000 0.000 1.000 setrgbcolor
fill
grestore
stroke
grestore
gsave
453.4 352.8 73.12 44.1 clipbox
164.271 288.328 p0_0
gsave
0.000 0.000 1.000 setrgbcolor
fill
grestore
stroke
grestore
gsave
453.4 352.8 73.12 44.1 clipbox
228.23 315.878 p0_0
gsave
0.000 0.000 1.000 setrgbcolor
fill
grestore
stroke
grestore
gsave
453.4 352.8 73.12 44.1 clipbox
369.654 123.237 p0_0
gsave
1.000 0.000 0.000 setrgbcolor
fill
grestore
stroke
grestore
gsave
453.4 352.8 73.12 44.1 clipbox
167.476 302.826 p0_0
gsave
0.000 0.000 1.000 setrgbcolor
fill
grestore
stroke
grestore
gsave
453.4 352.8 73.12 44.1 clipbox
463.885 250.14 p0_0
gsave
1.000 0.000 0.000 setrgbcolor
fill
grestore
stroke
grestore
gsave
453.4 352.8 73.12 44.1 clipbox
405 253.61 p0_0
gsave
1.000 0.000 0.000 setrgbcolor
fill
grestore
stroke
grestore
gsave
453.4 352.8 73.12 44.1 clipbox
198.183 313.285 p0_0
gsave
0.000 0.000 1.000 setrgbcolor
fill
grestore
stroke
grestore
gsave
453.4 352.8 73.12 44.1 clipbox
193.606 261.487 p0_0
gsave
0.000 0.000 1.000 setrgbcolor
fill
grestore
stroke
grestore
gsave
453.4 352.8 73.12 44.1 clipbox
195.851 285.426 p0_0
gsave
0.000 0.000 1.000 setrgbcolor
fill
grestore
stroke
grestore
gsave
453.4 352.8 73.12 44.1 clipbox
169.99 223.931 p0_0
gsave
0.000 0.000 1.000 setrgbcolor
fill
grestore
stroke
grestore
gsave
453.4 352.8 73.12 44.1 clipbox
181.684 336.991 p0_0
gsave
0.000 0.000 1.000 setrgbcolor
fill
grestore
stroke
grestore
gsave
453.4 352.8 73.12 44.1 clipbox
198.045 311.072 p0_0
gsave
0.000 0.000 1.000 setrgbcolor
fill
grestore
stroke
grestore
gsave
453.4 352.8 73.12 44.1 clipbox
154.72 248.197 p0_0
gsave
0.000 0.000 1.000 setrgbcolor
fill
grestore
stroke
grestore
gsave
453.4 352.8 73.12 44.1 clipbox
245.807 267.474 p0_0
gsave
0.000 0.000 1.000 setrgbcolor
fill
grestore
stroke
grestore
gsave
453.4 352.8 73.12 44.1 clipbox
193.939 266.092 p0_0
gsave
0.000 0.000 1.000 setrgbcolor
fill
grestore
stroke
grestore
gsave
453.4 352.8 73.12 44.1 clipbox
206.569 314.422 p0_0
gsave
0.000 0.000 1.000 setrgbcolor
fill
grestore
stroke
grestore
gsave
453.4 352.8 73.12 44.1 clipbox
150.81 265.578 p0_0
gsave
0.000 0.000 1.000 setrgbcolor
fill
grestore
stroke
grestore
gsave
453.4 352.8 73.12 44.1 clipbox
247.56 322.858 p0_0
gsave
0.000 0.000 1.000 setrgbcolor
fill
grestore
stroke
grestore
gsave
453.4 352.8 73.12 44.1 clipbox
271.918 244.693 p0_0
gsave
0.000 0.000 1.000 setrgbcolor
fill
grestore
stroke
grestore
gsave
453.4 352.8 73.12 44.1 clipbox
403.496 253.178 p0_0
gsave
1.000 0.000 0.000 setrgbcolor
fill
grestore
stroke
grestore
gsave
453.4 352.8 73.12 44.1 clipbox
199.096 206.842 p0_0
gsave
0.000 0.000 1.000 setrgbcolor
fill
grestore
stroke
grestore
gsave
453.4 352.8 73.12 44.1 clipbox
211.99 296.463 p0_0
gsave
0.000 0.000 1.000 setrgbcolor
fill
grestore
stroke
grestore
gsave
453.4 352.8 73.12 44.1 clipbox
197.293 265.686 p0_0
gsave
0.000 0.000 1.000 setrgbcolor
fill
grestore
stroke
grestore
gsave
453.4 352.8 73.12 44.1 clipbox
220.269 280.808 p0_0
gsave
0.000 0.000 1.000 setrgbcolor
fill
grestore
stroke
grestore
gsave
453.4 352.8 73.12 44.1 clipbox
276.865 315.12 p0_0
gsave
0.000 0.000 1.000 setrgbcolor
fill
grestore
stroke
grestore
gsave
453.4 352.8 73.12 44.1 clipbox
135.647 124.918 p0_0
gsave
1.000 0.000 0.000 setrgbcolor
fill
grestore
stroke
grestore
gsave
453.4 352.8 73.12 44.1 clipbox
160.389 320.22 p0_0
gsave
0.000 0.000 1.000 setrgbcolor
fill
grestore
stroke
grestore
gsave
453.4 352.8 73.12 44.1 clipbox
207.547 294.722 p0_0
gsave
0.000 0.000 1.000 setrgbcolor
fill
grestore
stroke
grestore
gsave
453.4 352.8 73.12 44.1 clipbox
259.876 235.601 p0_0
gsave
0.000 0.000 1.000 setrgbcolor
fill
grestore
stroke
grestore
gsave
453.4 352.8 73.12 44.1 clipbox
329.817 333.947 p0_0
gsave
0.000 0.000 1.000 setrgbcolor
fill
grestore
stroke
grestore
gsave
453.4 352.8 73.12 44.1 clipbox
153.479 268.981 p0_0
gsave
0.000 0.000 1.000 setrgbcolor
fill
grestore
stroke
grestore
gsave
453.4 352.8 73.12 44.1 clipbox
157.325 243.213 p0_0
gsave
0.000 0.000 1.000 setrgbcolor
fill
grestore
stroke
grestore
gsave
453.4 352.8 73.12 44.1 clipbox
166.083 140.699 p0_0
gsave
1.000 0.000 0.000 setrgbcolor
fill
grestore
stroke
grestore
gsave
453.4 352.8 73.12 44.1 clipbox
332.989 94.7256 p0_0
gsave
0.000 0.000 1.000 setrgbcolor
fill
grestore
stroke
grestore
gsave
453.4 352.8 73.12 44.1 clipbox
169.629 302.33 p0_0
gsave
0.000 0.000 1.000 setrgbcolor
fill
grestore
stroke
grestore
gsave
453.4 352.8 73.12 44.1 clipbox
212.486 237.138 p0_0
gsave
0.000 0.000 1.000 setrgbcolor
fill
grestore
stroke
grestore
gsave
453.4 352.8 73.12 44.1 clipbox
324.147 233.138 p0_0
gsave
1.000 0.000 0.000 setrgbcolor
fill
grestore
stroke
grestore
gsave
453.4 352.8 73.12 44.1 clipbox
143.44 212.486 p0_0
gsave
0.000 0.000 1.000 setrgbcolor
fill
grestore
stroke
grestore
gsave
453.4 352.8 73.12 44.1 clipbox
217.92 224.941 p0_0
gsave
0.000 0.000 1.000 setrgbcolor
fill
grestore
stroke
grestore
gsave
453.4 352.8 73.12 44.1 clipbox
247.812 288.99 p0_0
gsave
0.000 0.000 1.000 setrgbcolor
fill
grestore
stroke
grestore
gsave
453.4 352.8 73.12 44.1 clipbox
210.893 272.639 p0_0
gsave
0.000 0.000 1.000 setrgbcolor
fill
grestore
stroke
grestore
gsave
453.4 352.8 73.12 44.1 clipbox
223.773 214.559 p0_0
gsave
0.000 0.000 1.000 setrgbcolor
fill
grestore
stroke
grestore
gsave
453.4 352.8 73.12 44.1 clipbox
254.008 265.633 p0_0
gsave
0.000 0.000 1.000 setrgbcolor
fill
grestore
stroke
grestore
gsave
453.4 352.8 73.12 44.1 clipbox
207.342 295.051 p0_0
gsave
0.000 0.000 1.000 setrgbcolor
fill
grestore
stroke
grestore
gsave
453.4 352.8 73.12 44.1 clipbox
185.997 327.292 p0_0
gsave
0.000 0.000 1.000 setrgbcolor
fill
grestore
stroke
grestore
gsave
453.4 352.8 73.12 44.1 clipbox
234.828 359.138 p0_0
gsave
1.000 0.000 0.000 setrgbcolor
fill
grestore
stroke
grestore
gsave
453.4 352.8 73.12 44.1 clipbox
316.088 224.698 p0_0
gsave
1.000 0.000 0.000 setrgbcolor
fill
grestore
stroke
grestore
gsave
453.4 352.8 73.12 44.1 clipbox
201.874 228.918 p0_0
gsave
0.000 0.000 1.000 setrgbcolor
fill
grestore
stroke
grestore
gsave
453.4 352.8 73.12 44.1 clipbox
396.174 210.09 p0_0
gsave
1.000 0.000 0.000 setrgbcolor
fill
grestore
stroke
grestore
gsave
453.4 352.8 73.12 44.1 clipbox
174.835 202.117 p0_0
gsave
0.000 0.000 1.000 setrgbcolor
fill
grestore
stroke
grestore
gsave
453.4 352.8 73.12 44.1 clipbox
283.626 277.848 p0_0
gsave
0.000 0.000 1.000 setrgbcolor
fill
grestore
stroke
grestore
gsave
453.4 352.8 73.12 44.1 clipbox
246.877 311.162 p0_0
gsave
0.000 0.000 1.000 setrgbcolor
fill
grestore
stroke
grestore
gsave
453.4 352.8 73.12 44.1 clipbox
181.013 302.535 p0_0
gsave
0.000 0.000 1.000 setrgbcolor
fill
grestore
stroke
grestore
gsave
453.4 352.8 73.12 44.1 clipbox
185.106 215.313 p0_0
gsave
0.000 0.000 1.000 setrgbcolor
fill
grestore
stroke
grestore
gsave
453.4 352.8 73.12 44.1 clipbox
238.779 232.414 p0_0
gsave
0.000 0.000 1.000 setrgbcolor
fill
grestore
stroke
grestore
gsave
453.4 352.8 73.12 44.1 clipbox
241.072 228.563 p0_0
gsave
0.000 0.000 1.000 setrgbcolor
fill
grestore
stroke
grestore
gsave
453.4 352.8 73.12 44.1 clipbox
137.482 291.718 p0_0
gsave
0.000 0.000 1.000 setrgbcolor
fill
grestore
stroke
grestore
gsave
453.4 352.8 73.12 44.1 clipbox
258.525 252.494 p0_0
gsave
0.000 0.000 1.000 setrgbcolor
fill
grestore
stroke
grestore
gsave
453.4 352.8 73.12 44.1 clipbox
224.065 327.823 p0_0
gsave
0.000 0.000 1.000 setrgbcolor
fill
grestore
stroke
grestore
gsave
453.4 352.8 73.12 44.1 clipbox
217.706 224.255 p0_0
gsave
0.000 0.000 1.000 setrgbcolor
fill
grestore
stroke
grestore
gsave
453.4 352.8 73.12 44.1 clipbox
289.797 306.304 p0_0
gsave
0.000 0.000 1.000 setrgbcolor
fill
grestore
stroke
grestore
gsave
453.4 352.8 73.12 44.1 clipbox
200.236 207.997 p0_0
gsave
0.000 0.000 1.000 setrgbcolor
fill
grestore
stroke
grestore
gsave
453.4 352.8 73.12 44.1 clipbox
274.727 266.207 p0_0
gsave
0.000 0.000 1.000 setrgbcolor
fill
grestore
stroke
grestore
gsave
453.4 352.8 73.12 44.1 clipbox
228.578 319.574 p0_0
gsave
0.000 0.000 1.000 setrgbcolor
fill
grestore
stroke
grestore
gsave
453.4 352.8 73.12 44.1 clipbox
221.611 223.227 p0_0
gsave
0.000 0.000 1.000 setrgbcolor
fill
grestore
stroke
grestore
gsave
453.4 352.8 73.12 44.1 clipbox
284.988 279.688 p0_0
gsave
0.000 0.000 1.000 setrgbcolor
fill
grestore
stroke
grestore
gsave
453.4 352.8 73.12 44.1 clipbox
258.893 259.294 p0_0
gsave
0.000 0.000 1.000 setrgbcolor
fill
grestore
stroke
grestore
gsave
453.4 352.8 73.12 44.1 clipbox
217.269 235.548 p0_0
gsave
0.000 0.000 1.000 setrgbcolor
fill
grestore
stroke
grestore
gsave
453.4 352.8 73.12 44.1 clipbox
188.192 208.869 p0_0
gsave
0.000 0.000 1.000 setrgbcolor
fill
grestore
stroke
grestore
gsave
453.4 352.8 73.12 44.1 clipbox
249.564 258.288 p0_0
gsave
0.000 0.000 1.000 setrgbcolor
fill
grestore
stroke
grestore
gsave
453.4 352.8 73.12 44.1 clipbox
266.05 269.885 p0_0
gsave
0.000 0.000 1.000 setrgbcolor
fill
grestore
stroke
grestore
gsave
453.4 352.8 73.12 44.1 clipbox
264.058 295.172 p0_0
gsave
0.000 0.000 1.000 setrgbcolor
fill
grestore
stroke
grestore
gsave
453.4 352.8 73.12 44.1 clipbox
198.074 321.385 p0_0
gsave
0.000 0.000 1.000 setrgbcolor
fill
grestore
stroke
grestore
gsave
453.4 352.8 73.12 44.1 clipbox
197.935 309.212 p0_0
gsave
0.000 0.000 1.000 setrgbcolor
fill
grestore
stroke
grestore
gsave
453.4 352.8 73.12 44.1 clipbox
164.416 250.054 p0_0
gsave
0.000 0.000 1.000 setrgbcolor
fill
grestore
stroke
grestore
gsave
453.4 352.8 73.12 44.1 clipbox
192.03 270.612 p0_0
gsave
0.000 0.000 1.000 setrgbcolor
fill
grestore
stroke
grestore
gsave
453.4 352.8 73.12 44.1 clipbox
175.505 255.746 p0_0
gsave
0.000 0.000 1.000 setrgbcolor
fill
grestore
stroke
grestore
gsave
453.4 352.8 73.12 44.1 clipbox
241.174 300.862 p0_0
gsave
0.000 0.000 1.000 setrgbcolor
fill
grestore
stroke
grestore
gsave
453.4 352.8 73.12 44.1 clipbox
205.425 197.128 p0_0
gsave
0.000 0.000 1.000 setrgbcolor
fill
grestore
stroke
grestore
gsave
453.4 352.8 73.12 44.1 clipbox
141.378 234.145 p0_0
gsave
0.000 0.000 1.000 setrgbcolor
fill
grestore
stroke
grestore
gsave
453.4 352.8 73.12 44.1 clipbox
299.22 270.846 p0_0
gsave
0.000 0.000 1.000 setrgbcolor
fill
grestore
stroke
grestore
gsave
453.4 352.8 73.12 44.1 clipbox
240.448 300.434 p0_0
gsave
0.000 0.000 1.000 setrgbcolor
fill
grestore
stroke
grestore
gsave
453.4 352.8 73.12 44.1 clipbox
238.816 301.588 p0_0
gsave
0.000 0.000 1.000 setrgbcolor
fill
grestore
stroke
grestore
gsave
453.4 352.8 73.12 44.1 clipbox
227.028 322.721 p0_0
gsave
0.000 0.000 1.000 setrgbcolor
fill
grestore
stroke
grestore
gsave
453.4 352.8 73.12 44.1 clipbox
278.642 272.75 p0_0
gsave
0.000 0.000 1.000 setrgbcolor
fill
grestore
stroke
grestore
gsave
453.4 352.8 73.12 44.1 clipbox
168.343 328.286 p0_0
gsave
0.000 0.000 1.000 setrgbcolor
fill
grestore
stroke
grestore
gsave
453.4 352.8 73.12 44.1 clipbox
288.16 249.117 p0_0
gsave
0.000 0.000 1.000 setrgbcolor
fill
grestore
stroke
grestore
gsave
453.4 352.8 73.12 44.1 clipbox
197.892 240.009 p0_0
gsave
0.000 0.000 1.000 setrgbcolor
fill
grestore
stroke
grestore
gsave
453.4 352.8 73.12 44.1 clipbox
198.949 328.68 p0_0
gsave
0.000 0.000 1.000 setrgbcolor
fill
grestore
stroke
grestore
gsave
453.4 352.8 73.12 44.1 clipbox
258.695 341.43 p0_0
gsave
0.000 0.000 1.000 setrgbcolor
fill
grestore
stroke
grestore
gsave
453.4 352.8 73.12 44.1 clipbox
198.625 206.895 p0_0
gsave
0.000 0.000 1.000 setrgbcolor
fill
grestore
stroke
grestore
gsave
453.4 352.8 73.12 44.1 clipbox
193.934 240.847 p0_0
gsave
0.000 0.000 1.000 setrgbcolor
fill
grestore
stroke
grestore
gsave
453.4 352.8 73.12 44.1 clipbox
152.367 205.083 p0_0
gsave
0.000 0.000 1.000 setrgbcolor
fill
grestore
stroke
grestore
gsave
453.4 352.8 73.12 44.1 clipbox
292.266 282.356 p0_0
gsave
0.000 0.000 1.000 setrgbcolor
fill
grestore
stroke
grestore
gsave
453.4 352.8 73.12 44.1 clipbox
188.206 290.942 p0_0
gsave
0.000 0.000 1.000 setrgbcolor
fill
grestore
stroke
grestore
gsave
453.4 352.8 73.12 44.1 clipbox
159.213 285.449 p0_0
gsave
0.000 0.000 1.000 setrgbcolor
fill
grestore
stroke
grestore
gsave
453.4 352.8 73.12 44.1 clipbox
287.275 307.68 p0_0
gsave
0.000 0.000 1.000 setrgbcolor
fill
grestore
stroke
grestore
gsave
453.4 352.8 73.12 44.1 clipbox
170.293 276.722 p0_0
gsave
0.000 0.000 1.000 setrgbcolor
fill
grestore
stroke
grestore
gsave
453.4 352.8 73.12 44.1 clipbox
202.149 263.387 p0_0
gsave
0.000 0.000 1.000 setrgbcolor
fill
grestore
stroke
grestore
gsave
453.4 352.8 73.12 44.1 clipbox
190.849 301.091 p0_0
gsave
0.000 0.000 1.000 setrgbcolor
fill
grestore
stroke
grestore
gsave
453.4 352.8 73.12 44.1 clipbox
242.281 314.67 p0_0
gsave
0.000 0.000 1.000 setrgbcolor
fill
grestore
stroke
grestore
gsave
453.4 352.8 73.12 44.1 clipbox
201.429 283.86 p0_0
gsave
0.000 0.000 1.000 setrgbcolor
fill
grestore
stroke
grestore
gsave
453.4 352.8 73.12 44.1 clipbox
300.218 294.064 p0_0
gsave
0.000 0.000 1.000 setrgbcolor
fill
grestore
stroke
grestore
gsave
453.4 352.8 73.12 44.1 clipbox
140.349 247.443 p0_0
gsave
0.000 0.000 1.000 setrgbcolor
fill
grestore
stroke
grestore
gsave
453.4 352.8 73.12 44.1 clipbox
370.006 120.445 p0_0
gsave
1.000 0.000 0.000 setrgbcolor
fill
grestore
stroke
grestore
gsave
453.4 352.8 73.12 44.1 clipbox
247.268 232.756 p0_0
gsave
0.000 0.000 1.000 setrgbcolor
fill
grestore
stroke
grestore
gsave
453.4 352.8 73.12 44.1 clipbox
340.498 241.088 p0_0
gsave
1.000 0.000 0.000 setrgbcolor
fill
grestore
stroke
grestore
gsave
453.4 352.8 73.12 44.1 clipbox
316.474 322.332 p0_0
gsave
0.000 0.000 1.000 setrgbcolor
fill
grestore
stroke
grestore
gsave
453.4 352.8 73.12 44.1 clipbox
273.914 279.573 p0_0
gsave
0.000 0.000 1.000 setrgbcolor
fill
grestore
stroke
grestore
gsave
453.4 352.8 73.12 44.1 clipbox
283.041 268.111 p0_0
gsave
0.000 0.000 1.000 setrgbcolor
fill
grestore
stroke
grestore
gsave
453.4 352.8 73.12 44.1 clipbox
259.81 344.273 p0_0
gsave
0.000 0.000 1.000 setrgbcolor
fill
grestore
stroke
grestore
gsave
453.4 352.8 73.12 44.1 clipbox
208.031 205.05 p0_0
gsave
0.000 0.000 1.000 setrgbcolor
fill
grestore
stroke
grestore
gsave
453.4 352.8 73.12 44.1 clipbox
126.843 232.458 p0_0
gsave
0.000 0.000 1.000 setrgbcolor
fill
grestore
stroke
grestore
gsave
453.4 352.8 73.12 44.1 clipbox
284.164 280.609 p0_0
gsave
0.000 0.000 1.000 setrgbcolor
fill
grestore
stroke
grestore
gsave
453.4 352.8 73.12 44.1 clipbox
329.698 333.448 p0_0
gsave
0.000 0.000 1.000 setrgbcolor
fill
grestore
stroke
grestore
gsave
453.4 352.8 73.12 44.1 clipbox
198.076 212.926 p0_0
gsave
0.000 0.000 1.000 setrgbcolor
fill
grestore
stroke
grestore
gsave
453.4 352.8 73.12 44.1 clipbox
243.57 265.943 p0_0
gsave
0.000 0.000 1.000 setrgbcolor
fill
grestore
stroke
grestore
gsave
453.4 352.8 73.12 44.1 clipbox
252.914 332.885 p0_0
gsave
0.000 0.000 1.000 setrgbcolor
fill
grestore
stroke
grestore
gsave
453.4 352.8 73.12 44.1 clipbox
245.975 266.439 p0_0
gsave
0.000 0.000 1.000 setrgbcolor
fill
grestore
stroke
grestore
gsave
453.4 352.8 73.12 44.1 clipbox
250.659 323.802 p0_0
gsave
0.000 0.000 1.000 setrgbcolor
fill
grestore
stroke
grestore
gsave
453.4 352.8 73.12 44.1 clipbox
246.571 266.405 p0_0
gsave
0.000 0.000 1.000 setrgbcolor
fill
grestore
stroke
grestore
gsave
453.4 352.8 73.12 44.1 clipbox
161.536 303.257 p0_0
gsave
0.000 0.000 1.000 setrgbcolor
fill
grestore
stroke
grestore
gsave
453.4 352.8 73.12 44.1 clipbox
146.894 301.586 p0_0
gsave
0.000 0.000 1.000 setrgbcolor
fill
grestore
stroke
grestore
gsave
453.4 352.8 73.12 44.1 clipbox
198.464 283.671 p0_0
gsave
0.000 0.000 1.000 setrgbcolor
fill
grestore
stroke
grestore
gsave
453.4 352.8 73.12 44.1 clipbox
443.159 255.286 p0_0
gsave
1.000 0.000 0.000 setrgbcolor
fill
grestore
stroke
grestore
gsave
453.4 352.8 73.12 44.1 clipbox
164.834 198.848 p0_0
gsave
0.000 0.000 1.000 setrgbcolor
fill
grestore
stroke
grestore
gsave
453.4 352.8 73.12 44.1 clipbox
237.719 223.497 p0_0
gsave
0.000 0.000 1.000 setrgbcolor
fill
grestore
stroke
grestore
gsave
453.4 352.8 73.12 44.1 clipbox
323.492 271.394 p0_0
gsave
1.000 0.000 0.000 setrgbcolor
fill
grestore
stroke
grestore
gsave
453.4 352.8 73.12 44.1 clipbox
152.852 222.99 p0_0
gsave
0.000 0.000 1.000 setrgbcolor
fill
grestore
stroke
grestore
gsave
453.4 352.8 73.12 44.1 clipbox
176.993 240.709 p0_0
gsave
0.000 0.000 1.000 setrgbcolor
fill
grestore
stroke
grestore
gsave
453.4 352.8 73.12 44.1 clipbox
245.138 292.079 p0_0
gsave
0.000 0.000 1.000 setrgbcolor
fill
grestore
stroke
grestore
gsave
453.4 352.8 73.12 44.1 clipbox
222.36 248.231 p0_0
gsave
0.000 0.000 1.000 setrgbcolor
fill
grestore
stroke
grestore
gsave
453.4 352.8 73.12 44.1 clipbox
198.309 213.451 p0_0
gsave
0.000 0.000 1.000 setrgbcolor
fill
grestore
stroke
grestore
gsave
453.4 352.8 73.12 44.1 clipbox
236.49 229.281 p0_0
gsave
0.000 0.000 1.000 setrgbcolor
fill
grestore
stroke
grestore
gsave
453.4 352.8 73.12 44.1 clipbox
174.486 125.794 p0_0
gsave
1.000 0.000 0.000 setrgbcolor
fill
grestore
stroke
grestore
gsave
453.4 352.8 73.12 44.1 clipbox
170.312 272.668 p0_0
gsave
0.000 0.000 1.000 setrgbcolor
fill
grestore
stroke
grestore
gsave
453.4 352.8 73.12 44.1 clipbox
208.187 295.158 p0_0
gsave
0.000 0.000 1.000 setrgbcolor
fill
grestore
stroke
grestore
gsave
453.4 352.8 73.12 44.1 clipbox
198.061 284.665 p0_0
gsave
0.000 0.000 1.000 setrgbcolor
fill
grestore
stroke
grestore
gsave
453.4 352.8 73.12 44.1 clipbox
240.156 302.435 p0_0
gsave
0.000 0.000 1.000 setrgbcolor
fill
grestore
stroke
grestore
gsave
453.4 352.8 73.12 44.1 clipbox
135.961 273.851 p0_0
gsave
0.000 0.000 1.000 setrgbcolor
fill
grestore
stroke
grestore
gsave
453.4 352.8 73.12 44.1 clipbox
293.27 198.527 p0_0
gsave
1.000 0.000 0.000 setrgbcolor
fill
grestore
stroke
grestore
gsave
453.4 352.8 73.12 44.1 clipbox
267.066 121.14 p0_0
gsave
1.000 0.000 0.000 setrgbcolor
fill
grestore
stroke
grestore
gsave
453.4 352.8 73.12 44.1 clipbox
401.009 257.124 p0_0
gsave
1.000 0.000 0.000 setrgbcolor
fill
grestore
stroke
grestore
gsave
453.4 352.8 73.12 44.1 clipbox
161.98 135.32 p0_0
gsave
1.000 0.000 0.000 setrgbcolor
fill
grestore
stroke
grestore
gsave
453.4 352.8 73.12 44.1 clipbox
367.278 284.043 p0_0
gsave
1.000 0.000 0.000 setrgbcolor
fill
grestore
stroke
grestore
gsave
453.4 352.8 73.12 44.1 clipbox
390.149 265.251 p0_0
gsave
1.000 0.000 0.000 setrgbcolor
fill
grestore
stroke
grestore
gsave
453.4 352.8 73.12 44.1 clipbox
315.545 207.424 p0_0
gsave
1.000 0.000 0.000 setrgbcolor
fill
grestore
stroke
grestore
gsave
453.4 352.8 73.12 44.1 clipbox
446.33 228.215 p0_0
gsave
1.000 0.000 0.000 setrgbcolor
fill
grestore
stroke
grestore
gsave
453.4 352.8 73.12 44.1 clipbox
347.211 251.925 p0_0
gsave
1.000 0.000 0.000 setrgbcolor
fill
grestore
stroke
grestore
gsave
453.4 352.8 73.12 44.1 clipbox
393.231 283.294 p0_0
gsave
1.000 0.000 0.000 setrgbcolor
fill
grestore
stroke
grestore
gsave
453.4 352.8 73.12 44.1 clipbox
317.272 227.977 p0_0
gsave
1.000 0.000 0.000 setrgbcolor
fill
grestore
stroke
grestore
gsave
453.4 352.8 73.12 44.1 clipbox
278.661 132.757 p0_0
gsave
1.000 0.000 0.000 setrgbcolor
fill
grestore
stroke
grestore
gsave
453.4 352.8 73.12 44.1 clipbox
278.515 206.456 p0_0
gsave
1.000 0.000 0.000 setrgbcolor
fill
grestore
stroke
grestore
gsave
453.4 352.8 73.12 44.1 clipbox
188.111 145.267 p0_0
gsave
1.000 0.000 0.000 setrgbcolor
fill
grestore
stroke
grestore
gsave
453.4 352.8 73.12 44.1 clipbox
439.462 244.051 p0_0
gsave
1.000 0.000 0.000 setrgbcolor
fill
grestore
stroke
grestore
gsave
453.4 352.8 73.12 44.1 clipbox
321.547 239.563 p0_0
gsave
1.000 0.000 0.000 setrgbcolor
fill
grestore
stroke
grestore
gsave
453.4 352.8 73.12 44.1 clipbox
268.7 188.033 p0_0
gsave
1.000 0.000 0.000 setrgbcolor
fill
grestore
stroke
grestore
gsave
453.4 352.8 73.12 44.1 clipbox
337.168 258.735 p0_0
gsave
1.000 0.000 0.000 setrgbcolor
fill
grestore
stroke
grestore
gsave
453.4 352.8 73.12 44.1 clipbox
406.382 300.054 p0_0
gsave
1.000 0.000 0.000 setrgbcolor
fill
grestore
stroke
grestore
gsave
453.4 352.8 73.12 44.1 clipbox
223.991 128.269 p0_0
gsave
1.000 0.000 0.000 setrgbcolor
fill
grestore
stroke
grestore
gsave
453.4 352.8 73.12 44.1 clipbox
418.792 291.539 p0_0
gsave
1.000 0.000 0.000 setrgbcolor
fill
grestore
stroke
grestore
gsave
453.4 352.8 73.12 44.1 clipbox
391.089 290.263 p0_0
gsave
1.000 0.000 0.000 setrgbcolor
fill
grestore
stroke
grestore
gsave
453.4 352.8 73.12 44.1 clipbox
308.97 189.697 p0_0
gsave
1.000 0.000 0.000 setrgbcolor
fill
grestore
stroke
grestore
gsave
453.4 352.8 73.12 44.1 clipbox
224.649 170.073 p0_0
gsave
1.000 0.000 0.000 setrgbcolor
fill
grestore
stroke
grestore
gsave
453.4 352.8 73.12 44.1 clipbox
376.011 318.041 p0_0
gsave
1.000 0.000 0.000 setrgbcolor
fill
grestore
stroke
grestore
gsave
453.4 352.8 73.12 44.1 clipbox
424.706 165.565 p0_0
gsave
1.000 0.000 0.000 setrgbcolor
fill
grestore
stroke
grestore
gsave
453.4 352.8 73.12 44.1 clipbox
394.287 234.438 p0_0
gsave
1.000 0.000 0.000 setrgbcolor
fill
grestore
stroke
grestore
gsave
453.4 352.8 73.12 44.1 clipbox
417.19 237.364 p0_0
gsave
1.000 0.000 0.000 setrgbcolor
fill
grestore
stroke
grestore
gsave
453.4 352.8 73.12 44.1 clipbox
284.667 197.181 p0_0
gsave
1.000 0.000 0.000 setrgbcolor
fill
grestore
stroke
grestore
gsave
453.4 352.8 73.12 44.1 clipbox
401.6 199.785 p0_0
gsave
1.000 0.000 0.000 setrgbcolor
fill
grestore
stroke
grestore
gsave
453.4 352.8 73.12 44.1 clipbox
248.051 189.56 p0_0
gsave
1.000 0.000 0.000 setrgbcolor
fill
grestore
stroke
grestore
gsave
453.4 352.8 73.12 44.1 clipbox
219.018 155 p0_0
gsave
1.000 0.000 0.000 setrgbcolor
fill
grestore
stroke
grestore
gsave
453.4 352.8 73.12 44.1 clipbox
420.032 354.03 p0_0
gsave
1.000 0.000 0.000 setrgbcolor
fill
grestore
stroke
grestore
gsave
453.4 352.8 73.12 44.1 clipbox
409.105 319.743 p0_0
gsave
1.000 0.000 0.000 setrgbcolor
fill
grestore
stroke
grestore
gsave
453.4 352.8 73.12 44.1 clipbox
258.465 175.21 p0_0
gsave
1.000 0.000 0.000 setrgbcolor
fill
grestore
stroke
grestore
gsave
453.4 352.8 73.12 44.1 clipbox
320.481 232.125 p0_0
gsave
1.000 0.000 0.000 setrgbcolor
fill
grestore
stroke
grestore
gsave
453.4 352.8 73.12 44.1 clipbox
294.37 132.391 p0_0
gsave
1.000 0.000 0.000 setrgbcolor
fill
grestore
stroke
grestore
gsave
453.4 352.8 73.12 44.1 clipbox
276.833 134.12 p0_0
gsave
1.000 0.000 0.000 setrgbcolor
fill
grestore
stroke
grestore
gsave
453.4 352.8 73.12 44.1 clipbox
280.631 173.247 p0_0
gsave
1.000 0.000 0.000 setrgbcolor
fill
grestore
stroke
grestore
gsave
453.4 352.8 73.12 44.1 clipbox
393.587 309.815 p0_0
gsave
1.000 0.000 0.000 setrgbcolor
fill
grestore
stroke
grestore
gsave
453.4 352.8 73.12 44.1 clipbox
184.578 138.755 p0_0
gsave
1.000 0.000 0.000 setrgbcolor
fill
grestore
stroke
grestore
gsave
453.4 352.8 73.12 44.1 clipbox
418.623 312.534 p0_0
gsave
1.000 0.000 0.000 setrgbcolor
fill
grestore
stroke
grestore
gsave
453.4 352.8 73.12 44.1 clipbox
270.497 136.516 p0_0
gsave
1.000 0.000 0.000 setrgbcolor
fill
grestore
stroke
grestore
gsave
453.4 352.8 73.12 44.1 clipbox
172.153 122.304 p0_0
gsave
1.000 0.000 0.000 setrgbcolor
fill
grestore
stroke
grestore
gsave
453.4 352.8 73.12 44.1 clipbox
417.572 237.871 p0_0
gsave
1.000 0.000 0.000 setrgbcolor
fill
grestore
stroke
grestore
gsave
453.4 352.8 73.12 44.1 clipbox
269.858 150.092 p0_0
gsave
1.000 0.000 0.000 setrgbcolor
fill
grestore
stroke
grestore
gsave
453.4 352.8 73.12 44.1 clipbox
317.734 153.94 p0_0
gsave
1.000 0.000 0.000 setrgbcolor
fill
grestore
stroke
grestore
gsave
453.4 352.8 73.12 44.1 clipbox
251.337 155.616 p0_0
gsave
1.000 0.000 0.000 setrgbcolor
fill
grestore
stroke
grestore
gsave
453.4 352.8 73.12 44.1 clipbox
434.809 260.27 p0_0
gsave
1.000 0.000 0.000 setrgbcolor
fill
grestore
stroke
grestore
gsave
453.4 352.8 73.12 44.1 clipbox
371.987 212.804 p0_0
gsave
1.000 0.000 0.000 setrgbcolor
fill
grestore
stroke
grestore
gsave
453.4 352.8 73.12 44.1 clipbox
306.332 178.538 p0_0
gsave
1.000 0.000 0.000 setrgbcolor
fill
grestore
stroke
grestore
gsave
453.4 352.8 73.12 44.1 clipbox
287 121.051 p0_0
gsave
1.000 0.000 0.000 setrgbcolor
fill
grestore
stroke
grestore
gsave
453.4 352.8 73.12 44.1 clipbox
281.444 172.254 p0_0
gsave
1.000 0.000 0.000 setrgbcolor
fill
grestore
stroke
grestore
gsave
453.4 352.8 73.12 44.1 clipbox
322.648 235.273 p0_0
gsave
1.000 0.000 0.000 setrgbcolor
fill
grestore
stroke
grestore
gsave
453.4 352.8 73.12 44.1 clipbox
223.81 171.133 p0_0
gsave
1.000 0.000 0.000 setrgbcolor
fill
grestore
stroke
grestore
gsave
453.4 352.8 73.12 44.1 clipbox
335.764 244.408 p0_0
gsave
1.000 0.000 0.000 setrgbcolor
fill
grestore
stroke
grestore
gsave
453.4 352.8 73.12 44.1 clipbox
435.739 293.391 p0_0
gsave
1.000 0.000 0.000 setrgbcolor
fill
grestore
stroke
grestore
gsave
453.4 352.8 73.12 44.1 clipbox
199.981 133.761 p0_0
gsave
1.000 0.000 0.000 setrgbcolor
fill
grestore
stroke
grestore
gsave
453.4 352.8 73.12 44.1 clipbox
252.644 119.667 p0_0
gsave
1.000 0.000 0.000 setrgbcolor
fill
grestore
stroke
grestore
gsave
453.4 352.8 73.12 44.1 clipbox
391.34 212.044 p0_0
gsave
1.000 0.000 0.000 setrgbcolor
fill
grestore
stroke
grestore
gsave
453.4 352.8 73.12 44.1 clipbox
415.919 253.182 p0_0
gsave
1.000 0.000 0.000 setrgbcolor
fill
grestore
stroke
grestore
gsave
453.4 352.8 73.12 44.1 clipbox
219.337 132.474 p0_0
gsave
1.000 0.000 0.000 setrgbcolor
fill
grestore
stroke
grestore
gsave
453.4 352.8 73.12 44.1 clipbox
407.608 289.74 p0_0
gsave
1.000 0.000 0.000 setrgbcolor
fill
grestore
stroke
grestore
gsave
453.4 352.8 73.12 44.1 clipbox
327.446 276.786 p0_0
gsave
1.000 0.000 0.000 setrgbcolor
fill
grestore
stroke
grestore
gsave
453.4 352.8 73.12 44.1 clipbox
317.498 149.938 p0_0
gsave
1.000 0.000 0.000 setrgbcolor
fill
grestore
stroke
grestore
gsave
453.4 352.8 73.12 44.1 clipbox
394.474 240.232 p0_0
gsave
1.000 0.000 0.000 setrgbcolor
fill
grestore
stroke
grestore
gsave
453.4 352.8 73.12 44.1 clipbox
293.756 139.875 p0_0
gsave
1.000 0.000 0.000 setrgbcolor
fill
grestore
stroke
grestore
gsave
453.4 352.8 73.12 44.1 clipbox
405.896 250.225 p0_0
gsave
1.000 0.000 0.000 setrgbcolor
fill
grestore
stroke
grestore
gsave
453.4 352.8 73.12 44.1 clipbox
395.919 227.742 p0_0
gsave
1.000 0.000 0.000 setrgbcolor
fill
grestore
stroke
grestore
gsave
453.4 352.8 73.12 44.1 clipbox
158.538 154.677 p0_0
gsave
1.000 0.000 0.000 setrgbcolor
fill
grestore
stroke
grestore
gsave
453.4 352.8 73.12 44.1 clipbox
201.228 160.044 p0_0
gsave
1.000 0.000 0.000 setrgbcolor
fill
grestore
stroke
grestore
gsave
453.4 352.8 73.12 44.1 clipbox
416.32 320.367 p0_0
gsave
1.000 0.000 0.000 setrgbcolor
fill
grestore
stroke
grestore
gsave
453.4 352.8 73.12 44.1 clipbox
300.887 241.994 p0_0
gsave
1.000 0.000 0.000 setrgbcolor
fill
grestore
stroke
grestore
gsave
453.4 352.8 73.12 44.1 clipbox
222.523 164.616 p0_0
gsave
1.000 0.000 0.000 setrgbcolor
fill
grestore
stroke
grestore
gsave
453.4 352.8 73.12 44.1 clipbox
480.71 241.195 p0_0
gsave
1.000 0.000 0.000 setrgbcolor
fill
grestore
stroke
grestore
gsave
453.4 352.8 73.12 44.1 clipbox
382.588 290.772 p0_0
gsave
1.000 0.000 0.000 setrgbcolor
fill
grestore
stroke
grestore
gsave
453.4 352.8 73.12 44.1 clipbox
405.276 288.213 p0_0
gsave
1.000 0.000 0.000 setrgbcolor
fill
grestore
stroke
grestore
gsave
453.4 352.8 73.12 44.1 clipbox
256.266 120.413 p0_0
gsave
1.000 0.000 0.000 setrgbcolor
fill
grestore
stroke
grestore
gsave
453.4 352.8 73.12 44.1 clipbox
376.038 242.259 p0_0
gsave
1.000 0.000 0.000 setrgbcolor
fill
grestore
stroke
grestore
gsave
453.4 352.8 73.12 44.1 clipbox
449.591 290.913 p0_0
gsave
1.000 0.000 0.000 setrgbcolor
fill
grestore
stroke
grestore
gsave
453.4 352.8 73.12 44.1 clipbox
397.744 237.641 p0_0
gsave
1.000 0.000 0.000 setrgbcolor
fill
grestore
stroke
grestore
gsave
453.4 352.8 73.12 44.1 clipbox
378.972 230.044 p0_0
gsave
1.000 0.000 0.000 setrgbcolor
fill
grestore
stroke
grestore
gsave
453.4 352.8 73.12 44.1 clipbox
401.719 290.995 p0_0
gsave
1.000 0.000 0.000 setrgbcolor
fill
grestore
stroke
grestore
gsave
453.4 352.8 73.12 44.1 clipbox
433.703 203.922 p0_0
gsave
1.000 0.000 0.000 setrgbcolor
fill
grestore
stroke
grestore
gsave
453.4 352.8 73.12 44.1 clipbox
174.151 165.756 p0_0
gsave
1.000 0.000 0.000 setrgbcolor
fill
grestore
stroke
grestore
gsave
453.4 352.8 73.12 44.1 clipbox
314.054 224.594 p0_0
gsave
1.000 0.000 0.000 setrgbcolor
fill
grestore
stroke
grestore
gsave
453.4 352.8 73.12 44.1 clipbox
278.065 208.23 p0_0
gsave
1.000 0.000 0.000 setrgbcolor
fill
grestore
stroke
grestore
gsave
453.4 352.8 73.12 44.1 clipbox
408.717 300.801 p0_0
gsave
1.000 0.000 0.000 setrgbcolor
fill
grestore
stroke
grestore
gsave
453.4 352.8 73.12 44.1 clipbox
452.891 304.6 p0_0
gsave
1.000 0.000 0.000 setrgbcolor
fill
grestore
stroke
grestore
gsave
453.4 352.8 73.12 44.1 clipbox
478.688 282.525 p0_0
gsave
1.000 0.000 0.000 setrgbcolor
fill
grestore
stroke
grestore
gsave
453.4 352.8 73.12 44.1 clipbox
393.592 317.838 p0_0
gsave
1.000 0.000 0.000 setrgbcolor
fill
grestore
stroke
grestore
gsave
453.4 352.8 73.12 44.1 clipbox
439.729 231.183 p0_0
gsave
1.000 0.000 0.000 setrgbcolor
fill
grestore
stroke
grestore
gsave
453.4 352.8 73.12 44.1 clipbox
312.52 218.252 p0_0
gsave
1.000 0.000 0.000 setrgbcolor
fill
grestore
stroke
grestore
gsave
453.4 352.8 73.12 44.1 clipbox
279.233 163.649 p0_0
gsave
1.000 0.000 0.000 setrgbcolor
fill
grestore
stroke
grestore
gsave
453.4 352.8 73.12 44.1 clipbox
223.603 144.506 p0_0
gsave
1.000 0.000 0.000 setrgbcolor
fill
grestore
stroke
grestore
gsave
453.4 352.8 73.12 44.1 clipbox
329.814 191.251 p0_0
gsave
1.000 0.000 0.000 setrgbcolor
fill
grestore
stroke
grestore
gsave
453.4 352.8 73.12 44.1 clipbox
190.551 172.683 p0_0
gsave
1.000 0.000 0.000 setrgbcolor
fill
grestore
stroke
grestore
gsave
453.4 352.8 73.12 44.1 clipbox
149.598 174.822 p0_0
gsave
1.000 0.000 0.000 setrgbcolor
fill
grestore
stroke
grestore
gsave
453.4 352.8 73.12 44.1 clipbox
327.489 330.269 p0_0
gsave
1.000 0.000 0.000 setrgbcolor
fill
grestore
stroke
grestore
gsave
453.4 352.8 73.12 44.1 clipbox
111.225 158.694 p0_0
gsave
1.000 0.000 0.000 setrgbcolor
fill
grestore
stroke
grestore
gsave
453.4 352.8 73.12 44.1 clipbox
429.833 311.805 p0_0
gsave
1.000 0.000 0.000 setrgbcolor
fill
grestore
stroke
grestore
gsave
453.4 352.8 73.12 44.1 clipbox
341.161 224.956 p0_0
gsave
1.000 0.000 0.000 setrgbcolor
fill
grestore
stroke
grestore
gsave
453.4 352.8 73.12 44.1 clipbox
186.836 142.977 p0_0
gsave
1.000 0.000 0.000 setrgbcolor
fill
grestore
stroke
grestore
gsave
453.4 352.8 73.12 44.1 clipbox
411.543 315.01 p0_0
gsave
1.000 0.000 0.000 setrgbcolor
fill
grestore
stroke
grestore
gsave
453.4 352.8 73.12 44.1 clipbox
240.188 176.673 p0_0
gsave
1.000 0.000 0.000 setrgbcolor
fill
grestore
stroke
grestore
gsave
453.4 352.8 73.12 44.1 clipbox
269.706 187.653 p0_0
gsave
1.000 0.000 0.000 setrgbcolor
fill
grestore
stroke
grestore
gsave
453.4 352.8 73.12 44.1 clipbox
424.671 294.853 p0_0
gsave
1.000 0.000 0.000 setrgbcolor
fill
grestore
stroke
grestore
gsave
453.4 352.8 73.12 44.1 clipbox
257.182 147.772 p0_0
gsave
1.000 0.000 0.000 setrgbcolor
fill
grestore
stroke
grestore
gsave
453.4 352.8 73.12 44.1 clipbox
212.361 158.075 p0_0
gsave
1.000 0.000 0.000 setrgbcolor
fill
grestore
stroke
grestore
gsave
453.4 352.8 73.12 44.1 clipbox
404.162 260.227 p0_0
gsave
1.000 0.000 0.000 setrgbcolor
fill
grestore
stroke
grestore
gsave
453.4 352.8 73.12 44.1 clipbox
321.694 237.201 p0_0
gsave
1.000 0.000 0.000 setrgbcolor
fill
grestore
stroke
grestore
gsave
453.4 352.8 73.12 44.1 clipbox
395.689 236.753 p0_0
gsave
1.000 0.000 0.000 setrgbcolor
fill
grestore
stroke
grestore
gsave
453.4 352.8 73.12 44.1 clipbox
277.986 194.886 p0_0
gsave
1.000 0.000 0.000 setrgbcolor
fill
grestore
stroke
grestore
gsave
453.4 352.8 73.12 44.1 clipbox
225.587 169.545 p0_0
gsave
1.000 0.000 0.000 setrgbcolor
fill
grestore
stroke
grestore
gsave
453.4 352.8 73.12 44.1 clipbox
203.569 157.223 p0_0
gsave
1.000 0.000 0.000 setrgbcolor
fill
grestore
stroke
grestore
gsave
453.4 352.8 73.12 44.1 clipbox
267.59 148.485 p0_0
gsave
1.000 0.000 0.000 setrgbcolor
fill
grestore
stroke
grestore
gsave
453.4 352.8 73.12 44.1 clipbox
436.08 233.076 p0_0
gsave
1.000 0.000 0.000 setrgbcolor
fill
grestore
stroke
grestore
gsave
453.4 352.8 73.12 44.1 clipbox
304.332 179.872 p0_0
gsave
1.000 0.000 0.000 setrgbcolor
fill
grestore
stroke
grestore
gsave
453.4 352.8 73.12 44.1 clipbox
398.128 221.924 p0_0
gsave
1.000 0.000 0.000 setrgbcolor
fill
grestore
stroke
grestore
gsave
453.4 352.8 73.12 44.1 clipbox
401.196 257.956 p0_0
gsave
1.000 0.000 0.000 setrgbcolor
fill
grestore
stroke
grestore
gsave
453.4 352.8 73.12 44.1 clipbox
400.731 255.624 p0_0
gsave
1.000 0.000 0.000 setrgbcolor
fill
grestore
stroke
grestore
gsave
453.4 352.8 73.12 44.1 clipbox
279.992 187.951 p0_0
gsave
1.000 0.000 0.000 setrgbcolor
fill
grestore
stroke
grestore
gsave
453.4 352.8 73.12 44.1 clipbox
417.011 261.08 p0_0
gsave
1.000 0.000 0.000 setrgbcolor
fill
grestore
stroke
grestore
gsave
453.4 352.8 73.12 44.1 clipbox
188.879 119.591 p0_0
gsave
1.000 0.000 0.000 setrgbcolor
fill
grestore
stroke
grestore
gsave
453.4 352.8 73.12 44.1 clipbox
407.716 278.704 p0_0
gsave
1.000 0.000 0.000 setrgbcolor
fill
grestore
stroke
grestore
gsave
453.4 352.8 73.12 44.1 clipbox
406.235 244.46 p0_0
gsave
1.000 0.000 0.000 setrgbcolor
fill
grestore
stroke
grestore
gsave
453.4 352.8 73.12 44.1 clipbox
173.035 142.992 p0_0
gsave
1.000 0.000 0.000 setrgbcolor
fill
grestore
stroke
grestore
gsave
453.4 352.8 73.12 44.1 clipbox
421.843 288.252 p0_0
gsave
1.000 0.000 0.000 setrgbcolor
fill
grestore
stroke
grestore
gsave
453.4 352.8 73.12 44.1 clipbox
396.662 223.273 p0_0
gsave
1.000 0.000 0.000 setrgbcolor
fill
grestore
stroke
grestore
gsave
453.4 352.8 73.12 44.1 clipbox
328.416 330.518 p0_0
gsave
1.000 0.000 0.000 setrgbcolor
fill
grestore
stroke
grestore
gsave
453.4 352.8 73.12 44.1 clipbox
392.141 277.883 p0_0
gsave
1.000 0.000 0.000 setrgbcolor
fill
grestore
stroke
grestore
gsave
453.4 352.8 73.12 44.1 clipbox
440.748 232.28 p0_0
gsave
1.000 0.000 0.000 setrgbcolor
fill
grestore
stroke
grestore
gsave
453.4 352.8 73.12 44.1 clipbox
453.719 216.769 p0_0
gsave
1.000 0.000 0.000 setrgbcolor
fill
grestore
stroke
grestore
gsave
453.4 352.8 73.12 44.1 clipbox
391.299 249.729 p0_0
gsave
1.000 0.000 0.000 setrgbcolor
fill
grestore
stroke
grestore
gsave
453.4 352.8 73.12 44.1 clipbox
239.834 209.953 p0_0
gsave
1.000 0.000 0.000 setrgbcolor
fill
grestore
stroke
grestore
gsave
453.4 352.8 73.12 44.1 clipbox
233.726 160.262 p0_0
gsave
1.000 0.000 0.000 setrgbcolor
fill
grestore
stroke
grestore
gsave
453.4 352.8 73.12 44.1 clipbox
329.642 257.41 p0_0
gsave
1.000 0.000 0.000 setrgbcolor
fill
grestore
stroke
grestore
gsave
453.4 352.8 73.12 44.1 clipbox
292.327 197.399 p0_0
gsave
1.000 0.000 0.000 setrgbcolor
fill
grestore
stroke
grestore
gsave
453.4 352.8 73.12 44.1 clipbox
407.529 236.953 p0_0
gsave
1.000 0.000 0.000 setrgbcolor
fill
grestore
stroke
grestore
gsave
453.4 352.8 73.12 44.1 clipbox
369.698 121.764 p0_0
gsave
1.000 0.000 0.000 setrgbcolor
fill
grestore
stroke
grestore
gsave
453.4 352.8 73.12 44.1 clipbox
394.275 260.522 p0_0
gsave
1.000 0.000 0.000 setrgbcolor
fill
grestore
stroke
grestore
gsave
453.4 352.8 73.12 44.1 clipbox
184.372 149.321 p0_0
gsave
1.000 0.000 0.000 setrgbcolor
fill
grestore
stroke
grestore
gsave
453.4 352.8 73.12 44.1 clipbox
323.643 168.359 p0_0
gsave
1.000 0.000 0.000 setrgbcolor
fill
grestore
stroke
grestore
gsave
453.4 352.8 73.12 44.1 clipbox
170.067 142.793 p0_0
gsave
1.000 0.000 0.000 setrgbcolor
fill
grestore
stroke
grestore
gsave
453.4 352.8 73.12 44.1 clipbox
413.101 324.981 p0_0
gsave
1.000 0.000 0.000 setrgbcolor
fill
grestore
stroke
grestore
gsave
453.4 352.8 73.12 44.1 clipbox
392.646 281.911 p0_0
gsave
1.000 0.000 0.000 setrgbcolor
fill
grestore
stroke
grestore
gsave
453.4 352.8 73.12 44.1 clipbox
277.505 200.594 p0_0
gsave
1.000 0.000 0.000 setrgbcolor
fill
grestore
stroke
grestore
gsave
453.4 352.8 73.12 44.1 clipbox
303.487 160.04 p0_0
gsave
1.000 0.000 0.000 setrgbcolor
fill
grestore
stroke
grestore
gsave
453.4 352.8 73.12 44.1 clipbox
265.95 180.461 p0_0
gsave
1.000 0.000 0.000 setrgbcolor
fill
grestore
stroke
grestore
gsave
453.4 352.8 73.12 44.1 clipbox
362.402 305.919 p0_0
gsave
1.000 0.000 0.000 setrgbcolor
fill
grestore
stroke
grestore
gsave
453.4 352.8 73.12 44.1 clipbox
292.976 192.267 p0_0
gsave
1.000 0.000 0.000 setrgbcolor
fill
grestore
stroke
grestore
gsave
453.4 352.8 73.12 44.1 clipbox
430.168 256.261 p0_0
gsave
1.000 0.000 0.000 setrgbcolor
fill
grestore
stroke
grestore
gsave
453.4 352.8 73.12 44.1 clipbox
418.005 233.713 p0_0
gsave
1.000 0.000 0.000 setrgbcolor
fill
grestore
stroke
grestore
gsave
453.4 352.8 73.12 44.1 clipbox
212.003 129.228 p0_0
gsave
1.000 0.000 0.000 setrgbcolor
fill
grestore
stroke
grestore
gsave
453.4 352.8 73.12 44.1 clipbox
274.905 129.999 p0_0
gsave
1.000 0.000 0.000 setrgbcolor
fill
grestore
stroke
grestore
gsave
453.4 352.8 73.12 44.1 clipbox
323.917 154.708 p0_0
gsave
1.000 0.000 0.000 setrgbcolor
fill
grestore
stroke
grestore
gsave
453.4 352.8 73.12 44.1 clipbox
342.207 266.085 p0_0
gsave
1.000 0.000 0.000 setrgbcolor
fill
grestore
stroke
grestore
gsave
453.4 352.8 73.12 44.1 clipbox
402.464 285.431 p0_0
gsave
1.000 0.000 0.000 setrgbcolor
fill
grestore
stroke
grestore
gsave
453.4 352.8 73.12 44.1 clipbox
423.95 297.422 p0_0
gsave
1.000 0.000 0.000 setrgbcolor
fill
grestore
stroke
grestore
gsave
453.4 352.8 73.12 44.1 clipbox
268.294 122.787 p0_0
gsave
1.000 0.000 0.000 setrgbcolor
fill
grestore
stroke
grestore
gsave
453.4 352.8 73.12 44.1 clipbox
190.799 162.211 p0_0
gsave
1.000 0.000 0.000 setrgbcolor
fill
grestore
stroke
grestore
gsave
453.4 352.8 73.12 44.1 clipbox
183.825 138.999 p0_0
gsave
1.000 0.000 0.000 setrgbcolor
fill
grestore
stroke
grestore
gsave
453.4 352.8 73.12 44.1 clipbox
454.409 215.6 p0_0
gsave
1.000 0.000 0.000 setrgbcolor
fill
grestore
stroke
grestore
gsave
453.4 352.8 73.12 44.1 clipbox
407.352 313.022 p0_0
gsave
1.000 0.000 0.000 setrgbcolor
fill
grestore
stroke
grestore
gsave
453.4 352.8 73.12 44.1 clipbox
403.454 235.137 p0_0
gsave
1.000 0.000 0.000 setrgbcolor
fill
grestore
stroke
grestore
gsave
453.4 352.8 73.12 44.1 clipbox
312.244 213.249 p0_0
gsave
1.000 0.000 0.000 setrgbcolor
fill
grestore
stroke
grestore
gsave
453.4 352.8 73.12 44.1 clipbox
285.89 191.366 p0_0
gsave
1.000 0.000 0.000 setrgbcolor
fill
grestore
stroke
grestore
gsave
453.4 352.8 73.12 44.1 clipbox
192.677 165.515 p0_0
gsave
1.000 0.000 0.000 setrgbcolor
fill
grestore
stroke
grestore
gsave
453.4 352.8 73.12 44.1 clipbox
268.823 186.6 p0_0
gsave
1.000 0.000 0.000 setrgbcolor
fill
grestore
stroke
grestore
gsave
453.4 352.8 73.12 44.1 clipbox
279.033 127.78 p0_0
gsave
1.000 0.000 0.000 setrgbcolor
fill
grestore
stroke
grestore
gsave
453.4 352.8 73.12 44.1 clipbox
407.485 289.167 p0_0
gsave
1.000 0.000 0.000 setrgbcolor
fill
grestore
stroke
grestore
gsave
453.4 352.8 73.12 44.1 clipbox
368.721 132.458 p0_0
gsave
1.000 0.000 0.000 setrgbcolor
fill
grestore
stroke
grestore
gsave
453.4 352.8 73.12 44.1 clipbox
364.102 302.146 p0_0
gsave
1.000 0.000 0.000 setrgbcolor
fill
grestore
stroke
grestore
gsave
453.4 352.8 73.12 44.1 clipbox
414.863 260.685 p0_0
gsave
1.000 0.000 0.000 setrgbcolor
fill
grestore
stroke
grestore
gsave
453.4 352.8 73.12 44.1 clipbox
259.234 148.476 p0_0
gsave
1.000 0.000 0.000 setrgbcolor
fill
grestore
stroke
grestore
gsave
453.4 352.8 73.12 44.1 clipbox
398.546 341.389 p0_0
gsave
1.000 0.000 0.000 setrgbcolor
fill
grestore
stroke
grestore
gsave
453.4 352.8 73.12 44.1 clipbox
311.869 133.813 p0_0
gsave
1.000 0.000 0.000 setrgbcolor
fill
grestore
stroke
grestore
gsave
453.4 352.8 73.12 44.1 clipbox
270.524 110.353 p0_0
gsave
1.000 0.000 0.000 setrgbcolor
fill
grestore
stroke
grestore
gsave
453.4 352.8 73.12 44.1 clipbox
196.484 162.307 p0_0
gsave
1.000 0.000 0.000 setrgbcolor
fill
grestore
stroke
grestore
gsave
453.4 352.8 73.12 44.1 clipbox
288.065 116.647 p0_0
gsave
1.000 0.000 0.000 setrgbcolor
fill
grestore
stroke
grestore
gsave
453.4 352.8 73.12 44.1 clipbox
303.135 217.84 p0_0
gsave
1.000 0.000 0.000 setrgbcolor
fill
grestore
stroke
grestore
gsave
453.4 352.8 73.12 44.1 clipbox
249.159 150.066 p0_0
gsave
1.000 0.000 0.000 setrgbcolor
fill
grestore
stroke
grestore
gsave
453.4 352.8 73.12 44.1 clipbox
470.007 211.367 p0_0
gsave
1.000 0.000 0.000 setrgbcolor
fill
grestore
stroke
grestore
gsave
453.4 352.8 73.12 44.1 clipbox
332.876 183.322 p0_0
gsave
1.000 0.000 0.000 setrgbcolor
fill
grestore
stroke
grestore
gsave
453.4 352.8 73.12 44.1 clipbox
426.07 217.317 p0_0
gsave
1.000 0.000 0.000 setrgbcolor
fill
grestore
stroke
grestore
gsave
453.4 352.8 73.12 44.1 clipbox
422.811 317.174 p0_0
gsave
1.000 0.000 0.000 setrgbcolor
fill
grestore
stroke
grestore
gsave
453.4 352.8 73.12 44.1 clipbox
420.926 242.995 p0_0
gsave
1.000 0.000 0.000 setrgbcolor
fill
grestore
stroke
grestore
gsave
453.4 352.8 73.12 44.1 clipbox
267.388 210.504 p0_0
gsave
1.000 0.000 0.000 setrgbcolor
fill
grestore
stroke
grestore
gsave
453.4 352.8 73.12 44.1 clipbox
427.753 255.773 p0_0
gsave
1.000 0.000 0.000 setrgbcolor
fill
grestore
stroke
grestore
gsave
453.4 352.8 73.12 44.1 clipbox
418.29 303.12 p0_0
gsave
1.000 0.000 0.000 setrgbcolor
fill
grestore
stroke
grestore
gsave
453.4 352.8 73.12 44.1 clipbox
399.014 252.649 p0_0
gsave
1.000 0.000 0.000 setrgbcolor
fill
grestore
stroke
grestore
gsave
453.4 352.8 73.12 44.1 clipbox
188.81 142.595 p0_0
gsave
1.000 0.000 0.000 setrgbcolor
fill
grestore
stroke
grestore
gsave
453.4 352.8 73.12 44.1 clipbox
225.476 105.089 p0_0
gsave
1.000 0.000 0.000 setrgbcolor
fill
grestore
stroke
grestore
gsave
453.4 352.8 73.12 44.1 clipbox
414.418 295.851 p0_0
gsave
1.000 0.000 0.000 setrgbcolor
fill
grestore
stroke
grestore
gsave
453.4 352.8 73.12 44.1 clipbox
313.72 247.928 p0_0
gsave
1.000 0.000 0.000 setrgbcolor
fill
grestore
stroke
grestore
gsave
453.4 352.8 73.12 44.1 clipbox
406.393 207.238 p0_0
gsave
1.000 0.000 0.000 setrgbcolor
fill
grestore
stroke
grestore
gsave
453.4 352.8 73.12 44.1 clipbox
305.296 177.064 p0_0
gsave
1.000 0.000 0.000 setrgbcolor
fill
grestore
stroke
grestore
gsave
453.4 352.8 73.12 44.1 clipbox
423.286 294.716 p0_0
gsave
1.000 0.000 0.000 setrgbcolor
fill
grestore
stroke
grestore
gsave
453.4 352.8 73.12 44.1 clipbox
435.744 304.095 p0_0
gsave
1.000 0.000 0.000 setrgbcolor
fill
grestore
stroke
grestore
gsave
453.4 352.8 73.12 44.1 clipbox
216.936 173.451 p0_0
gsave
1.000 0.000 0.000 setrgbcolor
fill
grestore
stroke
grestore
gsave
453.4 352.8 73.12 44.1 clipbox
403.537 257.837 p0_0
gsave
1.000 0.000 0.000 setrgbcolor
fill
grestore
stroke
grestore
gsave
453.4 352.8 73.12 44.1 clipbox
473.866 243.42 p0_0
gsave
1.000 0.000 0.000 setrgbcolor
fill
grestore
stroke
grestore
gsave
453.4 352.8 73.12 44.1 clipbox
369.559 123.219 p0_0
gsave
1.000 0.000 0.000 setrgbcolor
fill
grestore
stroke
grestore
gsave
453.4 352.8 73.12 44.1 clipbox
338.598 229.32 p0_0
gsave
1.000 0.000 0.000 setrgbcolor
fill
grestore
stroke
grestore
gsave
453.4 352.8 73.12 44.1 clipbox
426.794 323.448 p0_0
gsave
1.000 0.000 0.000 setrgbcolor
fill
grestore
stroke
grestore
gsave
453.4 352.8 73.12 44.1 clipbox
304.783 351.277 p0_0
gsave
1.000 0.000 0.000 setrgbcolor
fill
grestore
stroke
grestore
gsave
453.4 352.8 73.12 44.1 clipbox
203.38 156.522 p0_0
gsave
1.000 0.000 0.000 setrgbcolor
fill
grestore
stroke
grestore
gsave
453.4 352.8 73.12 44.1 clipbox
279.261 187.644 p0_0
gsave
1.000 0.000 0.000 setrgbcolor
fill
grestore
stroke
grestore
gsave
453.4 352.8 73.12 44.1 clipbox
477.711 216.262 p0_0
gsave
1.000 0.000 0.000 setrgbcolor
fill
grestore
stroke
grestore
gsave
453.4 352.8 73.12 44.1 clipbox
243.615 177.234 p0_0
gsave
1.000 0.000 0.000 setrgbcolor
fill
grestore
stroke
grestore
gsave
453.4 352.8 73.12 44.1 clipbox
343.337 287.403 p0_0
gsave
1.000 0.000 0.000 setrgbcolor
fill
grestore
stroke
grestore
gsave
453.4 352.8 73.12 44.1 clipbox
317.259 238.446 p0_0
gsave
1.000 0.000 0.000 setrgbcolor
fill
grestore
stroke
grestore
gsave
453.4 352.8 73.12 44.1 clipbox
269.361 147.753 p0_0
gsave
1.000 0.000 0.000 setrgbcolor
fill
grestore
stroke
grestore
gsave
453.4 352.8 73.12 44.1 clipbox
200.101 182.592 p0_0
gsave
1.000 0.000 0.000 setrgbcolor
fill
grestore
stroke
grestore
gsave
453.4 352.8 73.12 44.1 clipbox
438.183 285.804 p0_0
gsave
1.000 0.000 0.000 setrgbcolor
fill
grestore
stroke
grestore
gsave
453.4 352.8 73.12 44.1 clipbox
391.317 287.924 p0_0
gsave
1.000 0.000 0.000 setrgbcolor
fill
grestore
stroke
grestore
gsave
453.4 352.8 73.12 44.1 clipbox
422.609 297.913 p0_0
gsave
1.000 0.000 0.000 setrgbcolor
fill
grestore
stroke
grestore
gsave
453.4 352.8 73.12 44.1 clipbox
325.149 208.03 p0_0
gsave
1.000 0.000 0.000 setrgbcolor
fill
grestore
stroke
grestore
gsave
453.4 352.8 73.12 44.1 clipbox
282.963 191.644 p0_0
gsave
1.000 0.000 0.000 setrgbcolor
fill
grestore
stroke
grestore
gsave
453.4 352.8 73.12 44.1 clipbox
384.608 244.292 p0_0
gsave
1.000 0.000 0.000 setrgbcolor
fill
grestore
stroke
grestore
gsave
453.4 352.8 73.12 44.1 clipbox
274.184 130.961 p0_0
gsave
1.000 0.000 0.000 setrgbcolor
fill
grestore
stroke
grestore
gsave
453.4 352.8 73.12 44.1 clipbox
385.06 259.213 p0_0
gsave
1.000 0.000 0.000 setrgbcolor
fill
grestore
stroke
grestore
gsave
453.4 352.8 73.12 44.1 clipbox
442.629 280.468 p0_0
gsave
1.000 0.000 0.000 setrgbcolor
fill
grestore
stroke
grestore
gsave
453.4 352.8 73.12 44.1 clipbox
195.112 137.452 p0_0
gsave
1.000 0.000 0.000 setrgbcolor
fill
grestore
stroke
grestore
gsave
453.4 352.8 73.12 44.1 clipbox
248.723 146.099 p0_0
gsave
1.000 0.000 0.000 setrgbcolor
fill
grestore
stroke
grestore
gsave
453.4 352.8 73.12 44.1 clipbox
383.091 260.334 p0_0
gsave
1.000 0.000 0.000 setrgbcolor
fill
grestore
stroke
grestore
gsave
453.4 352.8 73.12 44.1 clipbox
313.924 262.299 p0_0
gsave
1.000 0.000 0.000 setrgbcolor
fill
grestore
stroke
grestore
gsave
453.4 352.8 73.12 44.1 clipbox
418.354 234.995 p0_0
gsave
1.000 0.000 0.000 setrgbcolor
fill
grestore
stroke
grestore
gsave
453.4 352.8 73.12 44.1 clipbox
258.676 194.238 p0_0
gsave
1.000 0.000 0.000 setrgbcolor
fill
grestore
stroke
grestore
gsave
453.4 352.8 73.12 44.1 clipbox
398.504 325.828 p0_0
gsave
1.000 0.000 0.000 setrgbcolor
fill
grestore
stroke
grestore
gsave
453.4 352.8 73.12 44.1 clipbox
271.742 127.572 p0_0
gsave
1.000 0.000 0.000 setrgbcolor
fill
grestore
stroke
grestore
gsave
453.4 352.8 73.12 44.1 clipbox
217.14 173.051 p0_0
gsave
1.000 0.000 0.000 setrgbcolor
fill
grestore
stroke
grestore
gsave
453.4 352.8 73.12 44.1 clipbox
306.431 166.685 p0_0
gsave
1.000 0.000 0.000 setrgbcolor
fill
grestore
stroke
grestore
gsave
453.4 352.8 73.12 44.1 clipbox
427.953 214.557 p0_0
gsave
1.000 0.000 0.000 setrgbcolor
fill
grestore
stroke
grestore
gsave
453.4 352.8 73.12 44.1 clipbox
431.968 258.982 p0_0
gsave
1.000 0.000 0.000 setrgbcolor
fill
grestore
stroke
grestore
gsave
453.4 352.8 73.12 44.1 clipbox
255.142 109.156 p0_0
gsave
1.000 0.000 0.000 setrgbcolor
fill
grestore
stroke
grestore
gsave
453.4 352.8 73.12 44.1 clipbox
425.838 285.789 p0_0
gsave
1.000 0.000 0.000 setrgbcolor
fill
grestore
stroke
grestore
gsave
453.4 352.8 73.12 44.1 clipbox
179.7 155.49 p0_0
gsave
1.000 0.000 0.000 setrgbcolor
fill
grestore
stroke
grestore
gsave
453.4 352.8 73.12 44.1 clipbox
386.866 285.407 p0_0
gsave
1.000 0.000 0.000 setrgbcolor
fill
grestore
stroke
grestore
gsave
453.4 352.8 73.12 44.1 clipbox
420.441 272.105 p0_0
gsave
1.000 0.000 0.000 setrgbcolor
fill
grestore
stroke
grestore
gsave
453.4 352.8 73.12 44.1 clipbox
307.783 183.451 p0_0
gsave
1.000 0.000 0.000 setrgbcolor
fill
grestore
stroke
grestore
gsave
453.4 352.8 73.12 44.1 clipbox
412.274 295.997 p0_0
gsave
1.000 0.000 0.000 setrgbcolor
fill
grestore
stroke
grestore
gsave
453.4 352.8 73.12 44.1 clipbox
378.182 313.724 p0_0
gsave
1.000 0.000 0.000 setrgbcolor
fill
grestore
stroke
grestore
gsave
453.4 352.8 73.12 44.1 clipbox
429.642 328.483 p0_0
gsave
1.000 0.000 0.000 setrgbcolor
fill
grestore
stroke
grestore
gsave
453.4 352.8 73.12 44.1 clipbox
258.374 184.264 p0_0
gsave
1.000 0.000 0.000 setrgbcolor
fill
grestore
stroke
grestore
gsave
453.4 352.8 73.12 44.1 clipbox
187.672 145.501 p0_0
gsave
1.000 0.000 0.000 setrgbcolor
fill
grestore
stroke
grestore
gsave
453.4 352.8 73.12 44.1 clipbox
477.356 233.257 p0_0
gsave
1.000 0.000 0.000 setrgbcolor
fill
grestore
stroke
grestore
gsave
453.4 352.8 73.12 44.1 clipbox
378.041 278.303 p0_0
gsave
1.000 0.000 0.000 setrgbcolor
fill
grestore
stroke
grestore
gsave
453.4 352.8 73.12 44.1 clipbox
441.586 305.174 p0_0
gsave
1.000 0.000 0.000 setrgbcolor
fill
grestore
stroke
grestore
gsave
453.4 352.8 73.12 44.1 clipbox
425.072 219.264 p0_0
gsave
1.000 0.000 0.000 setrgbcolor
fill
grestore
stroke
grestore
gsave
453.4 352.8 73.12 44.1 clipbox
148.652 164.183 p0_0
gsave
1.000 0.000 0.000 setrgbcolor
fill
grestore
stroke
grestore
gsave
453.4 352.8 73.12 44.1 clipbox
276.171 201.631 p0_0
gsave
1.000 0.000 0.000 setrgbcolor
fill
grestore
stroke
grestore
gsave
453.4 352.8 73.12 44.1 clipbox
200.559 128.109 p0_0
gsave
1.000 0.000 0.000 setrgbcolor
fill
grestore
stroke
grestore
gsave
453.4 352.8 73.12 44.1 clipbox
297.481 222.946 p0_0
gsave
1.000 0.000 0.000 setrgbcolor
fill
grestore
stroke
grestore
gsave
453.4 352.8 73.12 44.1 clipbox
427.177 299.627 p0_0
gsave
1.000 0.000 0.000 setrgbcolor
fill
grestore
stroke
grestore
gsave
453.4 352.8 73.12 44.1 clipbox
384.634 323.977 p0_0
gsave
1.000 0.000 0.000 setrgbcolor
fill
grestore
stroke
grestore
gsave
453.4 352.8 73.12 44.1 clipbox
372.958 285.521 p0_0
gsave
1.000 0.000 0.000 setrgbcolor
fill
grestore
stroke
grestore
gsave
453.4 352.8 73.12 44.1 clipbox
183.967 138.658 p0_0
gsave
1.000 0.000 0.000 setrgbcolor
fill
grestore
stroke
grestore
gsave
453.4 352.8 73.12 44.1 clipbox
380.982 301.796 p0_0
gsave
1.000 0.000 0.000 setrgbcolor
fill
grestore
stroke
grestore
gsave
453.4 352.8 73.12 44.1 clipbox
390.4 318.263 p0_0
gsave
1.000 0.000 0.000 setrgbcolor
fill
grestore
stroke
grestore
gsave
453.4 352.8 73.12 44.1 clipbox
369.379 308.57 p0_0
gsave
1.000 0.000 0.000 setrgbcolor
fill
grestore
stroke
grestore
gsave
453.4 352.8 73.12 44.1 clipbox
262.344 176.434 p0_0
gsave
1.000 0.000 0.000 setrgbcolor
fill
grestore
stroke
grestore
gsave
453.4 352.8 73.12 44.1 clipbox
198.337 109.717 p0_0
gsave
1.000 0.000 0.000 setrgbcolor
fill
grestore
stroke
grestore
gsave
453.4 352.8 73.12 44.1 clipbox
421.659 228.993 p0_0
gsave
1.000 0.000 0.000 setrgbcolor
fill
grestore
stroke
grestore
gsave
453.4 352.8 73.12 44.1 clipbox
295.231 186.021 p0_0
gsave
1.000 0.000 0.000 setrgbcolor
fill
grestore
stroke
grestore
gsave
453.4 352.8 73.12 44.1 clipbox
440.676 232.228 p0_0
gsave
1.000 0.000 0.000 setrgbcolor
fill
grestore
stroke
grestore
gsave
453.4 352.8 73.12 44.1 clipbox
286.766 223.266 p0_0
gsave
1.000 0.000 0.000 setrgbcolor
fill
grestore
stroke
grestore
0.500 setlinewidth
gsave
/o {
gsave
newpath
translate
0.5 setlinewidth
1 setlinejoin
0 setlinecap
0 0 m
0 4 l
gsave
0.000 setgray
fill
grestore
stroke
grestore
} bind def
73.125 44.1 o
grestore
gsave
/o {
gsave
newpath
translate
0.5 setlinewidth
1 setlinejoin
0 setlinecap
0 0 m
0 -4 l
gsave
0.000 setgray
fill
grestore
stroke
grestore
} bind def
73.125 396.9 o
grestore
/DejaVuSans findfont
12.000 scalefont
setfont
gsave
61.609375 30.975000 translate
0.000000 rotate
0.000000 0.000000 m /minus glyphshow
10.054688 0.000000 m /two glyphshow
17.689453 0.000000 m /five glyphshow
grestore
gsave
/o {
gsave
newpath
translate
0.5 setlinewidth
1 setlinejoin
0 setlinecap
0 0 m
0 4 l
gsave
0.000 setgray
fill
grestore
stroke
grestore
} bind def
148.688 44.1 o
grestore
gsave
/o {
gsave
newpath
translate
0.5 setlinewidth
1 setlinejoin
0 setlinecap
0 0 m
0 -4 l
gsave
0.000 setgray
fill
grestore
stroke
grestore
} bind def
148.688 396.9 o
grestore
gsave
137.046875 30.975000 translate
0.000000 rotate
0.000000 0.000000 m /minus glyphshow
10.054688 0.000000 m /two glyphshow
17.689453 0.000000 m /zero glyphshow
grestore
gsave
/o {
gsave
newpath
translate
0.5 setlinewidth
1 setlinejoin
0 setlinecap
0 0 m
0 4 l
gsave
0.000 setgray
fill
grestore
stroke
grestore
} bind def
224.25 44.1 o
grestore
gsave
/o {
gsave
newpath
translate
0.5 setlinewidth
1 setlinejoin
0 setlinecap
0 0 m
0 -4 l
gsave
0.000 setgray
fill
grestore
stroke
grestore
} bind def
224.25 396.9 o
grestore
gsave
212.734375 30.975000 translate
0.000000 rotate
0.000000 0.000000 m /minus glyphshow
10.054688 0.000000 m /one glyphshow
17.689453 0.000000 m /five glyphshow
grestore
gsave
/o {
gsave
newpath
translate
0.5 setlinewidth
1 setlinejoin
0 setlinecap
0 0 m
0 4 l
gsave
0.000 setgray
fill
grestore
stroke
grestore
} bind def
299.812 44.1 o
grestore
gsave
/o {
gsave
newpath
translate
0.5 setlinewidth
1 setlinejoin
0 setlinecap
0 0 m
0 -4 l
gsave
0.000 setgray
fill
grestore
stroke
grestore
} bind def
299.812 396.9 o
grestore
gsave
288.171875 30.975000 translate
0.000000 rotate
0.000000 0.000000 m /minus glyphshow
10.054688 0.000000 m /one glyphshow
17.689453 0.000000 m /zero glyphshow
grestore
gsave
/o {
gsave
newpath
translate
0.5 setlinewidth
1 setlinejoin
0 setlinecap
0 0 m
0 4 l
gsave
0.000 setgray
fill
grestore
stroke
grestore
} bind def
375.375 44.1 o
grestore
gsave
/o {
gsave
newpath
translate
0.5 setlinewidth
1 setlinejoin
0 setlinecap
0 0 m
0 -4 l
gsave
0.000 setgray
fill
grestore
stroke
grestore
} bind def
375.375 396.9 o
grestore
gsave
367.679688 30.975000 translate
0.000000 rotate
0.000000 0.000000 m /minus glyphshow
10.054688 0.000000 m /five glyphshow
grestore
gsave
/o {
gsave
newpath
translate
0.5 setlinewidth
1 setlinejoin
0 setlinecap
0 0 m
0 4 l
gsave
0.000 setgray
fill
grestore
stroke
grestore
} bind def
450.938 44.1 o
grestore
gsave
/o {
gsave
newpath
translate
0.5 setlinewidth
1 setlinejoin
0 setlinecap
0 0 m
0 -4 l
gsave
0.000 setgray
fill
grestore
stroke
grestore
} bind def
450.938 396.9 o
grestore
gsave
447.914062 30.975000 translate
0.000000 rotate
0.000000 0.000000 m /zero glyphshow
grestore
gsave
/o {
gsave
newpath
translate
0.5 setlinewidth
1 setlinejoin
0 setlinecap
0 0 m
0 4 l
gsave
0.000 setgray
fill
grestore
stroke
grestore
} bind def
526.5 44.1 o
grestore
gsave
/o {
gsave
newpath
translate
0.5 setlinewidth
1 setlinejoin
0 setlinecap
0 0 m
0 -4 l
gsave
0.000 setgray
fill
grestore
stroke
grestore
} bind def
526.5 396.9 o
grestore
gsave
523.664062 30.975000 translate
0.000000 rotate
0.000000 0.000000 m /five glyphshow
grestore
gsave
/o {
gsave
newpath
translate
0.5 setlinewidth
1 setlinejoin
0 setlinecap
0 0 m
4 0 l
gsave
0.000 setgray
fill
grestore
stroke
grestore
} bind def
73.125 44.1 o
grestore
gsave
/o {
gsave
newpath
translate
0.5 setlinewidth
1 setlinejoin
0 setlinecap
0 0 m
-4 0 l
gsave
0.000 setgray
fill
grestore
stroke
grestore
} bind def
526.5 44.1 o
grestore
gsave
53.734375 40.787500 translate
0.000000 rotate
0.000000 0.000000 m /minus glyphshow
10.054688 0.000000 m /five glyphshow
grestore
gsave
/o {
gsave
newpath
translate
0.5 setlinewidth
1 setlinejoin
0 setlinecap
0 0 m
4 0 l
gsave
0.000 setgray
fill
grestore
stroke
grestore
} bind def
73.125 114.66 o
grestore
gsave
/o {
gsave
newpath
translate
0.5 setlinewidth
1 setlinejoin
0 setlinecap
0 0 m
-4 0 l
gsave
0.000 setgray
fill
grestore
stroke
grestore
} bind def
526.5 114.66 o
grestore
gsave
63.078125 111.347500 translate
0.000000 rotate
0.000000 0.000000 m /zero glyphshow
grestore
gsave
/o {
gsave
newpath
translate
0.5 setlinewidth
1 setlinejoin
0 setlinecap
0 0 m
4 0 l
gsave
0.000 setgray
fill
grestore
stroke
grestore
} bind def
73.125 185.22 o
grestore
gsave
/o {
gsave
newpath
translate
0.5 setlinewidth
1 setlinejoin
0 setlinecap
0 0 m
-4 0 l
gsave
0.000 setgray
fill
grestore
stroke
grestore
} bind def
526.5 185.22 o
grestore
gsave
63.453125 181.907500 translate
0.000000 rotate
0.000000 0.000000 m /five glyphshow
grestore
gsave
/o {
gsave
newpath
translate
0.5 setlinewidth
1 setlinejoin
0 setlinecap
0 0 m
4 0 l
gsave
0.000 setgray
fill
grestore
stroke
grestore
} bind def
73.125 255.78 o
grestore
gsave
/o {
gsave
newpath
translate
0.5 setlinewidth
1 setlinejoin
0 setlinecap
0 0 m
-4 0 l
gsave
0.000 setgray
fill
grestore
stroke
grestore
} bind def
526.5 255.78 o
grestore
gsave
55.953125 252.467500 translate
0.000000 rotate
0.000000 0.000000 m /one glyphshow
7.634766 0.000000 m /zero glyphshow
grestore
gsave
/o {
gsave
newpath
translate
0.5 setlinewidth
1 setlinejoin
0 setlinecap
0 0 m
4 0 l
gsave
0.000 setgray
fill
grestore
stroke
grestore
} bind def
73.125 326.34 o
grestore
gsave
/o {
gsave
newpath
translate
0.5 setlinewidth
1 setlinejoin
0 setlinecap
0 0 m
-4 0 l
gsave
0.000 setgray
fill
grestore
stroke
grestore
} bind def
526.5 326.34 o
grestore
gsave
56.203125 323.027500 translate
0.000000 rotate
0.000000 0.000000 m /one glyphshow
7.634766 0.000000 m /five glyphshow
grestore
gsave
/o {
gsave
newpath
translate
0.5 setlinewidth
1 setlinejoin
0 setlinecap
0 0 m
4 0 l
gsave
0.000 setgray
fill
grestore
stroke
grestore
} bind def
73.125 396.9 o
grestore
gsave
/o {
gsave
newpath
translate
0.5 setlinewidth
1 setlinejoin
0 setlinecap
0 0 m
-4 0 l
gsave
0.000 setgray
fill
grestore
stroke
grestore
} bind def
526.5 396.9 o
grestore
gsave
55.515625 393.587500 translate
0.000000 rotate
0.000000 0.000000 m /two glyphshow
7.634766 0.000000 m /zero glyphshow
grestore
1.000 setlinewidth
gsave
73.125 396.9 m
526.5 396.9 l
stroke
grestore
gsave
526.5 44.1 m
526.5 396.9 l
stroke
grestore
gsave
73.125 44.1 m
526.5 44.1 l
stroke
grestore
gsave
73.125 44.1 m
73.125 396.9 l
stroke
grestore

end
showpage
