%!PS-Adobe-3.0 EPSF-3.0
%%Title: /home/david/Documents/AlifeXVLatexTemplatetoDistribute/vis-threshold-far.eps
%%Creator: matplotlib version 1.3.1, http://matplotlib.org/
%%CreationDate: Tue Mar  1 16:59:56 2016
%%Orientation: portrait
%%BoundingBox: 13 175 598 616
%%EndComments
%%BeginProlog
/mpldict 8 dict def
mpldict begin
/m { moveto } bind def
/l { lineto } bind def
/r { rlineto } bind def
/c { curveto } bind def
/cl { closepath } bind def
/box {
m
1 index 0 r
0 exch r
neg 0 r
cl
} bind def
/clipbox {
box
clip
newpath
} bind def
%!PS-Adobe-3.0 Resource-Font
%%Title: DejaVu Sans
%%Copyright: Copyright (c) 2003 by Bitstream, Inc. All Rights Reserved. Copyright (c) 2006 by Tavmjong Bah. All Rights Reserved. DejaVu changes are in public domain 
%%Creator: Converted from TrueType to type 3 by PPR
25 dict begin
/_d{bind def}bind def
/_m{moveto}_d
/_l{lineto}_d
/_cl{closepath eofill}_d
/_c{curveto}_d
/_sc{7 -1 roll{setcachedevice}{pop pop pop pop pop pop}ifelse}_d
/_e{exec}_d
/FontName /DejaVuSans def
/PaintType 0 def
/FontMatrix[.001 0 0 .001 0 0]def
/FontBBox[-1021 -415 1681 1167]def
/FontType 3 def
/Encoding [ /zero /one /two /three /five ] def
/FontInfo 10 dict dup begin
/FamilyName (DejaVu Sans) def
/FullName (DejaVu Sans) def
/Notice (Copyright (c) 2003 by Bitstream, Inc. All Rights Reserved. Copyright (c) 2006 by Tavmjong Bah. All Rights Reserved. DejaVu changes are in public domain ) def
/Weight (Book) def
/Version (Version 2.34) def
/ItalicAngle 0.0 def
/isFixedPitch false def
/UnderlinePosition -130 def
/UnderlineThickness 90 def
end readonly def
/CharStrings 5 dict dup begin
/zero{636 0 66 -13 570 742 _sc
318 664 _m
267 664 229 639 203 589 _c
177 539 165 464 165 364 _c
165 264 177 189 203 139 _c
229 89 267 64 318 64 _c
369 64 407 89 433 139 _c
458 189 471 264 471 364 _c
471 464 458 539 433 589 _c
407 639 369 664 318 664 _c
318 742 _m
399 742 461 709 505 645 _c
548 580 570 486 570 364 _c
570 241 548 147 505 83 _c
461 19 399 -13 318 -13 _c
236 -13 173 19 130 83 _c
87 147 66 241 66 364 _c
66 486 87 580 130 645 _c
173 709 236 742 318 742 _c
_cl}_d
/one{636 0 110 0 544 729 _sc
124 83 _m
285 83 _l
285 639 _l
110 604 _l
110 694 _l
284 729 _l
383 729 _l
383 83 _l
544 83 _l
544 0 _l
124 0 _l
124 83 _l
_cl}_d
/two{{636 0 73 0 536 742 _sc
192 83 _m
536 83 _l
536 0 _l
73 0 _l
73 83 _l
110 121 161 173 226 239 _c
290 304 331 346 348 365 _c
380 400 402 430 414 455 _c
426 479 433 504 433 528 _c
433 566 419 598 392 622 _c
365 646 330 659 286 659 _c
255 659 222 653 188 643 _c
154 632 117 616 78 594 _c
78 694 _l
118 710 155 722 189 730 _c
223 738 255 742 284 742 _c
}_e{359 742 419 723 464 685 _c
509 647 532 597 532 534 _c
532 504 526 475 515 449 _c
504 422 484 390 454 354 _c
446 344 420 317 376 272 _c
332 227 271 164 192 83 _c
_cl}_e}_d
/three{{636 0 76 -13 556 742 _sc
406 393 _m
453 383 490 362 516 330 _c
542 298 556 258 556 212 _c
556 140 531 84 482 45 _c
432 6 362 -13 271 -13 _c
240 -13 208 -10 176 -4 _c
144 1 110 10 76 22 _c
76 117 _l
103 101 133 89 166 81 _c
198 73 232 69 268 69 _c
330 69 377 81 409 105 _c
441 129 458 165 458 212 _c
458 254 443 288 413 312 _c
383 336 341 349 287 349 _c
}_e{202 349 _l
202 430 _l
291 430 _l
339 430 376 439 402 459 _c
428 478 441 506 441 543 _c
441 580 427 609 401 629 _c
374 649 336 659 287 659 _c
260 659 231 656 200 650 _c
169 644 135 635 98 623 _c
98 711 _l
135 721 170 729 203 734 _c
235 739 266 742 296 742 _c
370 742 429 725 473 691 _c
517 657 539 611 539 553 _c
539 513 527 479 504 451 _c
481 423 448 403 406 393 _c
_cl}_e}_d
/five{{636 0 77 -13 549 729 _sc
108 729 _m
495 729 _l
495 646 _l
198 646 _l
198 467 _l
212 472 227 476 241 478 _c
255 480 270 482 284 482 _c
365 482 429 459 477 415 _c
525 370 549 310 549 234 _c
549 155 524 94 475 51 _c
426 8 357 -13 269 -13 _c
238 -13 207 -10 175 -6 _c
143 -1 111 6 77 17 _c
77 116 _l
106 100 136 88 168 80 _c
199 72 232 69 267 69 _c
}_e{323 69 368 83 401 113 _c
433 143 450 183 450 234 _c
450 284 433 324 401 354 _c
368 384 323 399 267 399 _c
241 399 214 396 188 390 _c
162 384 135 375 108 363 _c
108 729 _l
_cl}_e}_d
end readonly def

/BuildGlyph
 {exch begin
 CharStrings exch
 2 copy known not{pop /.notdef}if
 true 3 1 roll get exec
 end}_d

/BuildChar {
 1 index /Encoding get exch get
 1 index /BuildGlyph get exec
}_d

FontName currentdict end definefont pop
end
%%EndProlog
mpldict begin
13.5 175.5 translate
585 441 0 0 clipbox
gsave
0 0 m
585 0 l
585 441 l
0 441 l
cl
1.000 setgray
fill
grestore
gsave
73.125 44.1 m
526.5 44.1 l
526.5 396.9 l
73.125 396.9 l
cl
1.000 setgray
fill
grestore
/p0_0 {
newpath
translate
0 -2.73861 m
0.726289 -2.73861 1.42293 -2.45006 1.93649 -1.93649 c
2.45006 -1.42293 2.73861 -0.726289 2.73861 0 c
2.73861 0.726289 2.45006 1.42293 1.93649 1.93649 c
1.42293 2.45006 0.726289 2.73861 0 2.73861 c
-0.726289 2.73861 -1.42293 2.45006 -1.93649 1.93649 c
-2.45006 1.42293 -2.73861 0.726289 -2.73861 0 c
-2.73861 -0.726289 -2.45006 -1.42293 -1.93649 -1.93649 c
-1.42293 -2.45006 -0.726289 -2.73861 0 -2.73861 c
cl
} bind def
1.000 setlinewidth
1 setlinejoin
0 setlinecap
[] 0 setdash
0.000 setgray
gsave
453.4 352.8 73.12 44.1 clipbox
449.08 268.922 p0_0
gsave
0.000 0.000 1.000 setrgbcolor
fill
grestore
stroke
grestore
gsave
453.4 352.8 73.12 44.1 clipbox
376.143 266.4 p0_0
gsave
0.000 0.000 1.000 setrgbcolor
fill
grestore
stroke
grestore
gsave
453.4 352.8 73.12 44.1 clipbox
378.514 268.369 p0_0
gsave
0.000 0.000 1.000 setrgbcolor
fill
grestore
stroke
grestore
gsave
453.4 352.8 73.12 44.1 clipbox
410.573 311.574 p0_0
gsave
0.000 0.000 1.000 setrgbcolor
fill
grestore
stroke
grestore
gsave
453.4 352.8 73.12 44.1 clipbox
356.214 259.617 p0_0
gsave
0.000 0.000 1.000 setrgbcolor
fill
grestore
stroke
grestore
gsave
453.4 352.8 73.12 44.1 clipbox
376.393 263 p0_0
gsave
0.000 0.000 1.000 setrgbcolor
fill
grestore
stroke
grestore
gsave
453.4 352.8 73.12 44.1 clipbox
375.995 263.477 p0_0
gsave
0.000 0.000 1.000 setrgbcolor
fill
grestore
stroke
grestore
gsave
453.4 352.8 73.12 44.1 clipbox
392.462 258.731 p0_0
gsave
0.000 0.000 1.000 setrgbcolor
fill
grestore
stroke
grestore
gsave
453.4 352.8 73.12 44.1 clipbox
442.053 242.849 p0_0
gsave
0.000 0.000 1.000 setrgbcolor
fill
grestore
stroke
grestore
gsave
453.4 352.8 73.12 44.1 clipbox
235.198 160.357 p0_0
gsave
0.000 0.000 1.000 setrgbcolor
fill
grestore
stroke
grestore
gsave
453.4 352.8 73.12 44.1 clipbox
319.582 304.19 p0_0
gsave
0.000 0.000 1.000 setrgbcolor
fill
grestore
stroke
grestore
gsave
453.4 352.8 73.12 44.1 clipbox
395.523 262.613 p0_0
gsave
0.000 0.000 1.000 setrgbcolor
fill
grestore
stroke
grestore
gsave
453.4 352.8 73.12 44.1 clipbox
351.718 127.792 p0_0
gsave
0.000 0.000 1.000 setrgbcolor
fill
grestore
stroke
grestore
gsave
453.4 352.8 73.12 44.1 clipbox
391.286 258.177 p0_0
gsave
0.000 0.000 1.000 setrgbcolor
fill
grestore
stroke
grestore
gsave
453.4 352.8 73.12 44.1 clipbox
395.079 245.493 p0_0
gsave
0.000 0.000 1.000 setrgbcolor
fill
grestore
stroke
grestore
gsave
453.4 352.8 73.12 44.1 clipbox
381.439 244.272 p0_0
gsave
0.000 0.000 1.000 setrgbcolor
fill
grestore
stroke
grestore
gsave
453.4 352.8 73.12 44.1 clipbox
272.113 233.957 p0_0
gsave
0.000 0.000 1.000 setrgbcolor
fill
grestore
stroke
grestore
gsave
453.4 352.8 73.12 44.1 clipbox
376.373 262.076 p0_0
gsave
0.000 0.000 1.000 setrgbcolor
fill
grestore
stroke
grestore
gsave
453.4 352.8 73.12 44.1 clipbox
322.129 292.663 p0_0
gsave
0.000 0.000 1.000 setrgbcolor
fill
grestore
stroke
grestore
gsave
453.4 352.8 73.12 44.1 clipbox
416.155 263.187 p0_0
gsave
0.000 0.000 1.000 setrgbcolor
fill
grestore
stroke
grestore
gsave
453.4 352.8 73.12 44.1 clipbox
297.345 120.734 p0_0
gsave
0.000 0.000 1.000 setrgbcolor
fill
grestore
stroke
grestore
gsave
453.4 352.8 73.12 44.1 clipbox
382.855 269.319 p0_0
gsave
0.000 0.000 1.000 setrgbcolor
fill
grestore
stroke
grestore
gsave
453.4 352.8 73.12 44.1 clipbox
417.912 216.176 p0_0
gsave
0.000 0.000 1.000 setrgbcolor
fill
grestore
stroke
grestore
gsave
453.4 352.8 73.12 44.1 clipbox
325.826 171.273 p0_0
gsave
0.000 0.000 1.000 setrgbcolor
fill
grestore
stroke
grestore
gsave
453.4 352.8 73.12 44.1 clipbox
349.47 267.359 p0_0
gsave
0.000 0.000 1.000 setrgbcolor
fill
grestore
stroke
grestore
gsave
453.4 352.8 73.12 44.1 clipbox
149.458 205.172 p0_0
gsave
0.000 0.000 1.000 setrgbcolor
fill
grestore
stroke
grestore
gsave
453.4 352.8 73.12 44.1 clipbox
297.385 259.082 p0_0
gsave
0.000 0.000 1.000 setrgbcolor
fill
grestore
stroke
grestore
gsave
453.4 352.8 73.12 44.1 clipbox
423.041 236.235 p0_0
gsave
0.000 0.000 1.000 setrgbcolor
fill
grestore
stroke
grestore
gsave
453.4 352.8 73.12 44.1 clipbox
354.403 198.924 p0_0
gsave
0.000 0.000 1.000 setrgbcolor
fill
grestore
stroke
grestore
gsave
453.4 352.8 73.12 44.1 clipbox
369.062 280.095 p0_0
gsave
0.000 0.000 1.000 setrgbcolor
fill
grestore
stroke
grestore
gsave
453.4 352.8 73.12 44.1 clipbox
379.797 287.71 p0_0
gsave
0.000 0.000 1.000 setrgbcolor
fill
grestore
stroke
grestore
gsave
453.4 352.8 73.12 44.1 clipbox
353.348 241.821 p0_0
gsave
0.000 0.000 1.000 setrgbcolor
fill
grestore
stroke
grestore
gsave
453.4 352.8 73.12 44.1 clipbox
456.475 178.504 p0_0
gsave
0.000 0.000 1.000 setrgbcolor
fill
grestore
stroke
grestore
gsave
453.4 352.8 73.12 44.1 clipbox
251.344 221.655 p0_0
gsave
0.000 0.000 1.000 setrgbcolor
fill
grestore
stroke
grestore
gsave
453.4 352.8 73.12 44.1 clipbox
382.659 269.28 p0_0
gsave
0.000 0.000 1.000 setrgbcolor
fill
grestore
stroke
grestore
gsave
453.4 352.8 73.12 44.1 clipbox
205.992 194.275 p0_0
gsave
0.000 0.000 1.000 setrgbcolor
fill
grestore
stroke
grestore
gsave
453.4 352.8 73.12 44.1 clipbox
326.854 138.833 p0_0
gsave
0.000 0.000 1.000 setrgbcolor
fill
grestore
stroke
grestore
gsave
453.4 352.8 73.12 44.1 clipbox
343.875 262.802 p0_0
gsave
0.000 0.000 1.000 setrgbcolor
fill
grestore
stroke
grestore
gsave
453.4 352.8 73.12 44.1 clipbox
361.205 277.415 p0_0
gsave
0.000 0.000 1.000 setrgbcolor
fill
grestore
stroke
grestore
gsave
453.4 352.8 73.12 44.1 clipbox
412.952 256.824 p0_0
gsave
0.000 0.000 1.000 setrgbcolor
fill
grestore
stroke
grestore
gsave
453.4 352.8 73.12 44.1 clipbox
237.404 256.71 p0_0
gsave
0.000 0.000 1.000 setrgbcolor
fill
grestore
stroke
grestore
gsave
453.4 352.8 73.12 44.1 clipbox
375.496 263.734 p0_0
gsave
0.000 0.000 1.000 setrgbcolor
fill
grestore
stroke
grestore
gsave
453.4 352.8 73.12 44.1 clipbox
415.073 200.618 p0_0
gsave
0.000 0.000 1.000 setrgbcolor
fill
grestore
stroke
grestore
gsave
453.4 352.8 73.12 44.1 clipbox
360.028 279.594 p0_0
gsave
0.000 0.000 1.000 setrgbcolor
fill
grestore
stroke
grestore
gsave
453.4 352.8 73.12 44.1 clipbox
254.129 219.645 p0_0
gsave
0.000 0.000 1.000 setrgbcolor
fill
grestore
stroke
grestore
gsave
453.4 352.8 73.12 44.1 clipbox
376.036 265.541 p0_0
gsave
0.000 0.000 1.000 setrgbcolor
fill
grestore
stroke
grestore
gsave
453.4 352.8 73.12 44.1 clipbox
462.673 218.492 p0_0
gsave
0.000 0.000 1.000 setrgbcolor
fill
grestore
stroke
grestore
gsave
453.4 352.8 73.12 44.1 clipbox
389.458 269.363 p0_0
gsave
0.000 0.000 1.000 setrgbcolor
fill
grestore
stroke
grestore
gsave
453.4 352.8 73.12 44.1 clipbox
356.782 271.496 p0_0
gsave
0.000 0.000 1.000 setrgbcolor
fill
grestore
stroke
grestore
gsave
453.4 352.8 73.12 44.1 clipbox
357.628 134.672 p0_0
gsave
0.000 0.000 1.000 setrgbcolor
fill
grestore
stroke
grestore
gsave
453.4 352.8 73.12 44.1 clipbox
248.037 224.698 p0_0
gsave
0.000 0.000 1.000 setrgbcolor
fill
grestore
stroke
grestore
gsave
453.4 352.8 73.12 44.1 clipbox
354.375 251.608 p0_0
gsave
0.000 0.000 1.000 setrgbcolor
fill
grestore
stroke
grestore
gsave
453.4 352.8 73.12 44.1 clipbox
426.06 187.311 p0_0
gsave
0.000 0.000 1.000 setrgbcolor
fill
grestore
stroke
grestore
gsave
453.4 352.8 73.12 44.1 clipbox
267.474 177.07 p0_0
gsave
0.000 0.000 1.000 setrgbcolor
fill
grestore
stroke
grestore
gsave
453.4 352.8 73.12 44.1 clipbox
386.724 293.608 p0_0
gsave
0.000 0.000 1.000 setrgbcolor
fill
grestore
stroke
grestore
gsave
453.4 352.8 73.12 44.1 clipbox
170.123 136.425 p0_0
gsave
0.000 0.000 1.000 setrgbcolor
fill
grestore
stroke
grestore
gsave
453.4 352.8 73.12 44.1 clipbox
467.661 282.443 p0_0
gsave
0.000 0.000 1.000 setrgbcolor
fill
grestore
stroke
grestore
gsave
453.4 352.8 73.12 44.1 clipbox
370.097 306.863 p0_0
gsave
0.000 0.000 1.000 setrgbcolor
fill
grestore
stroke
grestore
gsave
453.4 352.8 73.12 44.1 clipbox
352.69 126.213 p0_0
gsave
0.000 0.000 1.000 setrgbcolor
fill
grestore
stroke
grestore
gsave
453.4 352.8 73.12 44.1 clipbox
381.755 257.82 p0_0
gsave
0.000 0.000 1.000 setrgbcolor
fill
grestore
stroke
grestore
gsave
453.4 352.8 73.12 44.1 clipbox
391.855 258.516 p0_0
gsave
0.000 0.000 1.000 setrgbcolor
fill
grestore
stroke
grestore
gsave
453.4 352.8 73.12 44.1 clipbox
399.069 283.164 p0_0
gsave
0.000 0.000 1.000 setrgbcolor
fill
grestore
stroke
grestore
gsave
453.4 352.8 73.12 44.1 clipbox
266.276 146.777 p0_0
gsave
0.000 0.000 1.000 setrgbcolor
fill
grestore
stroke
grestore
gsave
453.4 352.8 73.12 44.1 clipbox
259.427 198.123 p0_0
gsave
0.000 0.000 1.000 setrgbcolor
fill
grestore
stroke
grestore
gsave
453.4 352.8 73.12 44.1 clipbox
394.246 264.125 p0_0
gsave
0.000 0.000 1.000 setrgbcolor
fill
grestore
stroke
grestore
gsave
453.4 352.8 73.12 44.1 clipbox
414.505 270.674 p0_0
gsave
0.000 0.000 1.000 setrgbcolor
fill
grestore
stroke
grestore
gsave
453.4 352.8 73.12 44.1 clipbox
383.001 270.281 p0_0
gsave
0.000 0.000 1.000 setrgbcolor
fill
grestore
stroke
grestore
gsave
453.4 352.8 73.12 44.1 clipbox
227.721 253.445 p0_0
gsave
0.000 0.000 1.000 setrgbcolor
fill
grestore
stroke
grestore
gsave
453.4 352.8 73.12 44.1 clipbox
376.373 262.899 p0_0
gsave
0.000 0.000 1.000 setrgbcolor
fill
grestore
stroke
grestore
gsave
453.4 352.8 73.12 44.1 clipbox
439.115 256.817 p0_0
gsave
0.000 0.000 1.000 setrgbcolor
fill
grestore
stroke
grestore
gsave
453.4 352.8 73.12 44.1 clipbox
212.607 237.678 p0_0
gsave
0.000 0.000 1.000 setrgbcolor
fill
grestore
stroke
grestore
gsave
453.4 352.8 73.12 44.1 clipbox
331.502 215.114 p0_0
gsave
0.000 0.000 1.000 setrgbcolor
fill
grestore
stroke
grestore
gsave
453.4 352.8 73.12 44.1 clipbox
345.846 165.655 p0_0
gsave
0.000 0.000 1.000 setrgbcolor
fill
grestore
stroke
grestore
gsave
453.4 352.8 73.12 44.1 clipbox
375.922 264.933 p0_0
gsave
0.000 0.000 1.000 setrgbcolor
fill
grestore
stroke
grestore
gsave
453.4 352.8 73.12 44.1 clipbox
301.693 162.324 p0_0
gsave
0.000 0.000 1.000 setrgbcolor
fill
grestore
stroke
grestore
gsave
453.4 352.8 73.12 44.1 clipbox
302.175 236.326 p0_0
gsave
0.000 0.000 1.000 setrgbcolor
fill
grestore
stroke
grestore
gsave
453.4 352.8 73.12 44.1 clipbox
377.466 259.882 p0_0
gsave
0.000 0.000 1.000 setrgbcolor
fill
grestore
stroke
grestore
gsave
453.4 352.8 73.12 44.1 clipbox
411.707 230.798 p0_0
gsave
0.000 0.000 1.000 setrgbcolor
fill
grestore
stroke
grestore
gsave
453.4 352.8 73.12 44.1 clipbox
234.651 160.857 p0_0
gsave
0.000 0.000 1.000 setrgbcolor
fill
grestore
stroke
grestore
gsave
453.4 352.8 73.12 44.1 clipbox
364 251.44 p0_0
gsave
0.000 0.000 1.000 setrgbcolor
fill
grestore
stroke
grestore
gsave
453.4 352.8 73.12 44.1 clipbox
221.894 124.557 p0_0
gsave
0.000 0.000 1.000 setrgbcolor
fill
grestore
stroke
grestore
gsave
453.4 352.8 73.12 44.1 clipbox
387.965 257.07 p0_0
gsave
0.000 0.000 1.000 setrgbcolor
fill
grestore
stroke
grestore
gsave
453.4 352.8 73.12 44.1 clipbox
393.978 151.315 p0_0
gsave
0.000 0.000 1.000 setrgbcolor
fill
grestore
stroke
grestore
gsave
453.4 352.8 73.12 44.1 clipbox
313.116 224.383 p0_0
gsave
0.000 0.000 1.000 setrgbcolor
fill
grestore
stroke
grestore
gsave
453.4 352.8 73.12 44.1 clipbox
387.692 269.717 p0_0
gsave
0.000 0.000 1.000 setrgbcolor
fill
grestore
stroke
grestore
gsave
453.4 352.8 73.12 44.1 clipbox
361.548 260.717 p0_0
gsave
0.000 0.000 1.000 setrgbcolor
fill
grestore
stroke
grestore
gsave
453.4 352.8 73.12 44.1 clipbox
168.849 134.436 p0_0
gsave
0.000 0.000 1.000 setrgbcolor
fill
grestore
stroke
grestore
gsave
453.4 352.8 73.12 44.1 clipbox
252.86 183.826 p0_0
gsave
0.000 0.000 1.000 setrgbcolor
fill
grestore
stroke
grestore
gsave
453.4 352.8 73.12 44.1 clipbox
396.147 148.464 p0_0
gsave
0.000 0.000 1.000 setrgbcolor
fill
grestore
stroke
grestore
gsave
453.4 352.8 73.12 44.1 clipbox
380.109 244.384 p0_0
gsave
0.000 0.000 1.000 setrgbcolor
fill
grestore
stroke
grestore
gsave
453.4 352.8 73.12 44.1 clipbox
415.014 268.674 p0_0
gsave
0.000 0.000 1.000 setrgbcolor
fill
grestore
stroke
grestore
gsave
453.4 352.8 73.12 44.1 clipbox
460.608 221.023 p0_0
gsave
0.000 0.000 1.000 setrgbcolor
fill
grestore
stroke
grestore
gsave
453.4 352.8 73.12 44.1 clipbox
297.81 121.398 p0_0
gsave
0.000 0.000 1.000 setrgbcolor
fill
grestore
stroke
grestore
gsave
453.4 352.8 73.12 44.1 clipbox
267.452 177.157 p0_0
gsave
0.000 0.000 1.000 setrgbcolor
fill
grestore
stroke
grestore
gsave
453.4 352.8 73.12 44.1 clipbox
248.706 274.286 p0_0
gsave
0.000 0.000 1.000 setrgbcolor
fill
grestore
stroke
grestore
gsave
453.4 352.8 73.12 44.1 clipbox
461.742 242.2 p0_0
gsave
0.000 0.000 1.000 setrgbcolor
fill
grestore
stroke
grestore
gsave
453.4 352.8 73.12 44.1 clipbox
339.606 240.422 p0_0
gsave
0.000 0.000 1.000 setrgbcolor
fill
grestore
stroke
grestore
gsave
453.4 352.8 73.12 44.1 clipbox
390.008 270.088 p0_0
gsave
0.000 0.000 1.000 setrgbcolor
fill
grestore
stroke
grestore
gsave
453.4 352.8 73.12 44.1 clipbox
393.497 202.865 p0_0
gsave
1.000 0.000 0.000 setrgbcolor
fill
grestore
stroke
grestore
gsave
453.4 352.8 73.12 44.1 clipbox
290.306 112.206 p0_0
gsave
0.000 0.000 1.000 setrgbcolor
fill
grestore
stroke
grestore
gsave
453.4 352.8 73.12 44.1 clipbox
282.358 261.471 p0_0
gsave
0.000 0.000 1.000 setrgbcolor
fill
grestore
stroke
grestore
gsave
453.4 352.8 73.12 44.1 clipbox
317.553 259.478 p0_0
gsave
0.000 0.000 1.000 setrgbcolor
fill
grestore
stroke
grestore
gsave
453.4 352.8 73.12 44.1 clipbox
387.748 282.978 p0_0
gsave
0.000 0.000 1.000 setrgbcolor
fill
grestore
stroke
grestore
gsave
453.4 352.8 73.12 44.1 clipbox
396.443 283.15 p0_0
gsave
0.000 0.000 1.000 setrgbcolor
fill
grestore
stroke
grestore
gsave
453.4 352.8 73.12 44.1 clipbox
378.485 268.356 p0_0
gsave
0.000 0.000 1.000 setrgbcolor
fill
grestore
stroke
grestore
gsave
453.4 352.8 73.12 44.1 clipbox
157.69 237.434 p0_0
gsave
0.000 0.000 1.000 setrgbcolor
fill
grestore
stroke
grestore
gsave
453.4 352.8 73.12 44.1 clipbox
448.383 242.518 p0_0
gsave
0.000 0.000 1.000 setrgbcolor
fill
grestore
stroke
grestore
gsave
453.4 352.8 73.12 44.1 clipbox
428.108 273.926 p0_0
gsave
0.000 0.000 1.000 setrgbcolor
fill
grestore
stroke
grestore
gsave
453.4 352.8 73.12 44.1 clipbox
170.199 136.683 p0_0
gsave
0.000 0.000 1.000 setrgbcolor
fill
grestore
stroke
grestore
gsave
453.4 352.8 73.12 44.1 clipbox
321.598 214.127 p0_0
gsave
0.000 0.000 1.000 setrgbcolor
fill
grestore
stroke
grestore
gsave
453.4 352.8 73.12 44.1 clipbox
377.433 259.898 p0_0
gsave
0.000 0.000 1.000 setrgbcolor
fill
grestore
stroke
grestore
gsave
453.4 352.8 73.12 44.1 clipbox
253.22 269.046 p0_0
gsave
0.000 0.000 1.000 setrgbcolor
fill
grestore
stroke
grestore
gsave
453.4 352.8 73.12 44.1 clipbox
335.16 273.032 p0_0
gsave
0.000 0.000 1.000 setrgbcolor
fill
grestore
stroke
grestore
gsave
453.4 352.8 73.12 44.1 clipbox
298.894 148.549 p0_0
gsave
0.000 0.000 1.000 setrgbcolor
fill
grestore
stroke
grestore
gsave
453.4 352.8 73.12 44.1 clipbox
382.874 257.431 p0_0
gsave
0.000 0.000 1.000 setrgbcolor
fill
grestore
stroke
grestore
gsave
453.4 352.8 73.12 44.1 clipbox
359.305 179.421 p0_0
gsave
0.000 0.000 1.000 setrgbcolor
fill
grestore
stroke
grestore
gsave
453.4 352.8 73.12 44.1 clipbox
314.398 249.737 p0_0
gsave
0.000 0.000 1.000 setrgbcolor
fill
grestore
stroke
grestore
gsave
453.4 352.8 73.12 44.1 clipbox
401.431 246.387 p0_0
gsave
0.000 0.000 1.000 setrgbcolor
fill
grestore
stroke
grestore
gsave
453.4 352.8 73.12 44.1 clipbox
427.164 209.576 p0_0
gsave
0.000 0.000 1.000 setrgbcolor
fill
grestore
stroke
grestore
gsave
453.4 352.8 73.12 44.1 clipbox
412.105 287.421 p0_0
gsave
0.000 0.000 1.000 setrgbcolor
fill
grestore
stroke
grestore
gsave
453.4 352.8 73.12 44.1 clipbox
351.53 238.962 p0_0
gsave
0.000 0.000 1.000 setrgbcolor
fill
grestore
stroke
grestore
gsave
453.4 352.8 73.12 44.1 clipbox
251.669 267.312 p0_0
gsave
0.000 0.000 1.000 setrgbcolor
fill
grestore
stroke
grestore
gsave
453.4 352.8 73.12 44.1 clipbox
334.533 240.375 p0_0
gsave
0.000 0.000 1.000 setrgbcolor
fill
grestore
stroke
grestore
gsave
453.4 352.8 73.12 44.1 clipbox
375.609 231.796 p0_0
gsave
0.000 0.000 1.000 setrgbcolor
fill
grestore
stroke
grestore
gsave
453.4 352.8 73.12 44.1 clipbox
411.845 247.19 p0_0
gsave
0.000 0.000 1.000 setrgbcolor
fill
grestore
stroke
grestore
gsave
453.4 352.8 73.12 44.1 clipbox
430.748 258.372 p0_0
gsave
0.000 0.000 1.000 setrgbcolor
fill
grestore
stroke
grestore
gsave
453.4 352.8 73.12 44.1 clipbox
415.146 262.463 p0_0
gsave
0.000 0.000 1.000 setrgbcolor
fill
grestore
stroke
grestore
gsave
453.4 352.8 73.12 44.1 clipbox
423.578 295.367 p0_0
gsave
0.000 0.000 1.000 setrgbcolor
fill
grestore
stroke
grestore
gsave
453.4 352.8 73.12 44.1 clipbox
390.118 268.83 p0_0
gsave
0.000 0.000 1.000 setrgbcolor
fill
grestore
stroke
grestore
gsave
453.4 352.8 73.12 44.1 clipbox
360.113 253.449 p0_0
gsave
0.000 0.000 1.000 setrgbcolor
fill
grestore
stroke
grestore
gsave
453.4 352.8 73.12 44.1 clipbox
197.139 154.018 p0_0
gsave
0.000 0.000 1.000 setrgbcolor
fill
grestore
stroke
grestore
gsave
453.4 352.8 73.12 44.1 clipbox
251.882 221.8 p0_0
gsave
0.000 0.000 1.000 setrgbcolor
fill
grestore
stroke
grestore
gsave
453.4 352.8 73.12 44.1 clipbox
463.134 234.462 p0_0
gsave
0.000 0.000 1.000 setrgbcolor
fill
grestore
stroke
grestore
gsave
453.4 352.8 73.12 44.1 clipbox
252.404 184.357 p0_0
gsave
0.000 0.000 1.000 setrgbcolor
fill
grestore
stroke
grestore
gsave
453.4 352.8 73.12 44.1 clipbox
254.233 268.877 p0_0
gsave
0.000 0.000 1.000 setrgbcolor
fill
grestore
stroke
grestore
gsave
453.4 352.8 73.12 44.1 clipbox
177.832 237.692 p0_0
gsave
0.000 0.000 1.000 setrgbcolor
fill
grestore
stroke
grestore
gsave
453.4 352.8 73.12 44.1 clipbox
298.548 232.727 p0_0
gsave
0.000 0.000 1.000 setrgbcolor
fill
grestore
stroke
grestore
gsave
453.4 352.8 73.12 44.1 clipbox
297.713 257.06 p0_0
gsave
0.000 0.000 1.000 setrgbcolor
fill
grestore
stroke
grestore
gsave
453.4 352.8 73.12 44.1 clipbox
381.721 269.624 p0_0
gsave
0.000 0.000 1.000 setrgbcolor
fill
grestore
stroke
grestore
gsave
453.4 352.8 73.12 44.1 clipbox
390.76 242.041 p0_0
gsave
0.000 0.000 1.000 setrgbcolor
fill
grestore
stroke
grestore
gsave
453.4 352.8 73.12 44.1 clipbox
369.062 280.095 p0_0
gsave
0.000 0.000 1.000 setrgbcolor
fill
grestore
stroke
grestore
gsave
453.4 352.8 73.12 44.1 clipbox
273.331 275.175 p0_0
gsave
0.000 0.000 1.000 setrgbcolor
fill
grestore
stroke
grestore
gsave
453.4 352.8 73.12 44.1 clipbox
404.382 233.878 p0_0
gsave
0.000 0.000 1.000 setrgbcolor
fill
grestore
stroke
grestore
gsave
453.4 352.8 73.12 44.1 clipbox
381.892 258.301 p0_0
gsave
0.000 0.000 1.000 setrgbcolor
fill
grestore
stroke
grestore
gsave
453.4 352.8 73.12 44.1 clipbox
394.822 264.385 p0_0
gsave
0.000 0.000 1.000 setrgbcolor
fill
grestore
stroke
grestore
gsave
453.4 352.8 73.12 44.1 clipbox
389.444 269.365 p0_0
gsave
0.000 0.000 1.000 setrgbcolor
fill
grestore
stroke
grestore
gsave
453.4 352.8 73.12 44.1 clipbox
266.61 251.999 p0_0
gsave
0.000 0.000 1.000 setrgbcolor
fill
grestore
stroke
grestore
gsave
453.4 352.8 73.12 44.1 clipbox
281.758 103.164 p0_0
gsave
0.000 0.000 1.000 setrgbcolor
fill
grestore
stroke
grestore
gsave
453.4 352.8 73.12 44.1 clipbox
237.371 181.542 p0_0
gsave
0.000 0.000 1.000 setrgbcolor
fill
grestore
stroke
grestore
gsave
453.4 352.8 73.12 44.1 clipbox
394.518 264.805 p0_0
gsave
0.000 0.000 1.000 setrgbcolor
fill
grestore
stroke
grestore
gsave
453.4 352.8 73.12 44.1 clipbox
420.689 214.997 p0_0
gsave
0.000 0.000 1.000 setrgbcolor
fill
grestore
stroke
grestore
gsave
453.4 352.8 73.12 44.1 clipbox
393.096 260.691 p0_0
gsave
0.000 0.000 1.000 setrgbcolor
fill
grestore
stroke
grestore
gsave
453.4 352.8 73.12 44.1 clipbox
359.548 213.749 p0_0
gsave
0.000 0.000 1.000 setrgbcolor
fill
grestore
stroke
grestore
gsave
453.4 352.8 73.12 44.1 clipbox
354.515 288.957 p0_0
gsave
0.000 0.000 1.000 setrgbcolor
fill
grestore
stroke
grestore
gsave
453.4 352.8 73.12 44.1 clipbox
355.33 286.539 p0_0
gsave
0.000 0.000 1.000 setrgbcolor
fill
grestore
stroke
grestore
gsave
453.4 352.8 73.12 44.1 clipbox
149.875 237.944 p0_0
gsave
0.000 0.000 1.000 setrgbcolor
fill
grestore
stroke
grestore
gsave
453.4 352.8 73.12 44.1 clipbox
223.189 122.404 p0_0
gsave
0.000 0.000 1.000 setrgbcolor
fill
grestore
stroke
grestore
gsave
453.4 352.8 73.12 44.1 clipbox
295.61 166.252 p0_0
gsave
0.000 0.000 1.000 setrgbcolor
fill
grestore
stroke
grestore
gsave
453.4 352.8 73.12 44.1 clipbox
234.78 259.844 p0_0
gsave
0.000 0.000 1.000 setrgbcolor
fill
grestore
stroke
grestore
gsave
453.4 352.8 73.12 44.1 clipbox
348.811 279.119 p0_0
gsave
0.000 0.000 1.000 setrgbcolor
fill
grestore
stroke
grestore
gsave
453.4 352.8 73.12 44.1 clipbox
280.68 101.815 p0_0
gsave
0.000 0.000 1.000 setrgbcolor
fill
grestore
stroke
grestore
gsave
453.4 352.8 73.12 44.1 clipbox
393.61 266.067 p0_0
gsave
0.000 0.000 1.000 setrgbcolor
fill
grestore
stroke
grestore
gsave
453.4 352.8 73.12 44.1 clipbox
376.06 237.12 p0_0
gsave
0.000 0.000 1.000 setrgbcolor
fill
grestore
stroke
grestore
gsave
453.4 352.8 73.12 44.1 clipbox
416.794 251.544 p0_0
gsave
0.000 0.000 1.000 setrgbcolor
fill
grestore
stroke
grestore
gsave
453.4 352.8 73.12 44.1 clipbox
437.893 276.21 p0_0
gsave
0.000 0.000 1.000 setrgbcolor
fill
grestore
stroke
grestore
gsave
453.4 352.8 73.12 44.1 clipbox
372.786 240.456 p0_0
gsave
0.000 0.000 1.000 setrgbcolor
fill
grestore
stroke
grestore
gsave
453.4 352.8 73.12 44.1 clipbox
431.211 282.392 p0_0
gsave
0.000 0.000 1.000 setrgbcolor
fill
grestore
stroke
grestore
gsave
453.4 352.8 73.12 44.1 clipbox
385.098 257.475 p0_0
gsave
0.000 0.000 1.000 setrgbcolor
fill
grestore
stroke
grestore
gsave
453.4 352.8 73.12 44.1 clipbox
287.533 246.179 p0_0
gsave
0.000 0.000 1.000 setrgbcolor
fill
grestore
stroke
grestore
gsave
453.4 352.8 73.12 44.1 clipbox
260.683 143.198 p0_0
gsave
0.000 0.000 1.000 setrgbcolor
fill
grestore
stroke
grestore
gsave
453.4 352.8 73.12 44.1 clipbox
317.561 304.964 p0_0
gsave
0.000 0.000 1.000 setrgbcolor
fill
grestore
stroke
grestore
gsave
453.4 352.8 73.12 44.1 clipbox
245.548 276.311 p0_0
gsave
0.000 0.000 1.000 setrgbcolor
fill
grestore
stroke
grestore
gsave
453.4 352.8 73.12 44.1 clipbox
337.583 281.56 p0_0
gsave
0.000 0.000 1.000 setrgbcolor
fill
grestore
stroke
grestore
gsave
453.4 352.8 73.12 44.1 clipbox
385.886 308.293 p0_0
gsave
0.000 0.000 1.000 setrgbcolor
fill
grestore
stroke
grestore
gsave
453.4 352.8 73.12 44.1 clipbox
428.173 259.308 p0_0
gsave
0.000 0.000 1.000 setrgbcolor
fill
grestore
stroke
grestore
gsave
453.4 352.8 73.12 44.1 clipbox
375.848 264.333 p0_0
gsave
0.000 0.000 1.000 setrgbcolor
fill
grestore
stroke
grestore
gsave
453.4 352.8 73.12 44.1 clipbox
273.077 191.78 p0_0
gsave
0.000 0.000 1.000 setrgbcolor
fill
grestore
stroke
grestore
gsave
453.4 352.8 73.12 44.1 clipbox
376.005 282.891 p0_0
gsave
0.000 0.000 1.000 setrgbcolor
fill
grestore
stroke
grestore
gsave
453.4 352.8 73.12 44.1 clipbox
280.462 101.787 p0_0
gsave
0.000 0.000 1.000 setrgbcolor
fill
grestore
stroke
grestore
gsave
453.4 352.8 73.12 44.1 clipbox
435.094 287.777 p0_0
gsave
0.000 0.000 1.000 setrgbcolor
fill
grestore
stroke
grestore
gsave
453.4 352.8 73.12 44.1 clipbox
358.258 273.465 p0_0
gsave
0.000 0.000 1.000 setrgbcolor
fill
grestore
stroke
grestore
gsave
453.4 352.8 73.12 44.1 clipbox
360.425 152.271 p0_0
gsave
0.000 0.000 1.000 setrgbcolor
fill
grestore
stroke
grestore
gsave
453.4 352.8 73.12 44.1 clipbox
387.943 283.018 p0_0
gsave
0.000 0.000 1.000 setrgbcolor
fill
grestore
stroke
grestore
gsave
453.4 352.8 73.12 44.1 clipbox
232.589 250.819 p0_0
gsave
0.000 0.000 1.000 setrgbcolor
fill
grestore
stroke
grestore
gsave
453.4 352.8 73.12 44.1 clipbox
325.002 192.837 p0_0
gsave
0.000 0.000 1.000 setrgbcolor
fill
grestore
stroke
grestore
gsave
453.4 352.8 73.12 44.1 clipbox
394.517 264.806 p0_0
gsave
0.000 0.000 1.000 setrgbcolor
fill
grestore
stroke
grestore
gsave
453.4 352.8 73.12 44.1 clipbox
437.578 298.893 p0_0
gsave
0.000 0.000 1.000 setrgbcolor
fill
grestore
stroke
grestore
gsave
453.4 352.8 73.12 44.1 clipbox
168.992 171.187 p0_0
gsave
0.000 0.000 1.000 setrgbcolor
fill
grestore
stroke
grestore
gsave
453.4 352.8 73.12 44.1 clipbox
398.925 282.813 p0_0
gsave
0.000 0.000 1.000 setrgbcolor
fill
grestore
stroke
grestore
gsave
453.4 352.8 73.12 44.1 clipbox
240.469 253.262 p0_0
gsave
0.000 0.000 1.000 setrgbcolor
fill
grestore
stroke
grestore
gsave
453.4 352.8 73.12 44.1 clipbox
282.687 261.781 p0_0
gsave
0.000 0.000 1.000 setrgbcolor
fill
grestore
stroke
grestore
gsave
453.4 352.8 73.12 44.1 clipbox
320.747 178.164 p0_0
gsave
0.000 0.000 1.000 setrgbcolor
fill
grestore
stroke
grestore
gsave
453.4 352.8 73.12 44.1 clipbox
390.741 269.019 p0_0
gsave
0.000 0.000 1.000 setrgbcolor
fill
grestore
stroke
grestore
gsave
453.4 352.8 73.12 44.1 clipbox
372.443 218.359 p0_0
gsave
0.000 0.000 1.000 setrgbcolor
fill
grestore
stroke
grestore
gsave
453.4 352.8 73.12 44.1 clipbox
342.731 164.264 p0_0
gsave
0.000 0.000 1.000 setrgbcolor
fill
grestore
stroke
grestore
gsave
453.4 352.8 73.12 44.1 clipbox
388.805 173.407 p0_0
gsave
0.000 0.000 1.000 setrgbcolor
fill
grestore
stroke
grestore
gsave
453.4 352.8 73.12 44.1 clipbox
444.845 222.025 p0_0
gsave
0.000 0.000 1.000 setrgbcolor
fill
grestore
stroke
grestore
gsave
453.4 352.8 73.12 44.1 clipbox
441.832 212.793 p0_0
gsave
0.000 0.000 1.000 setrgbcolor
fill
grestore
stroke
grestore
gsave
453.4 352.8 73.12 44.1 clipbox
236.273 157.858 p0_0
gsave
0.000 0.000 1.000 setrgbcolor
fill
grestore
stroke
grestore
gsave
453.4 352.8 73.12 44.1 clipbox
380.858 283.723 p0_0
gsave
0.000 0.000 1.000 setrgbcolor
fill
grestore
stroke
grestore
gsave
453.4 352.8 73.12 44.1 clipbox
409.675 234.743 p0_0
gsave
0.000 0.000 1.000 setrgbcolor
fill
grestore
stroke
grestore
gsave
453.4 352.8 73.12 44.1 clipbox
239.897 252.961 p0_0
gsave
0.000 0.000 1.000 setrgbcolor
fill
grestore
stroke
grestore
gsave
453.4 352.8 73.12 44.1 clipbox
361.986 156.262 p0_0
gsave
0.000 0.000 1.000 setrgbcolor
fill
grestore
stroke
grestore
gsave
453.4 352.8 73.12 44.1 clipbox
274.503 293.327 p0_0
gsave
0.000 0.000 1.000 setrgbcolor
fill
grestore
stroke
grestore
gsave
453.4 352.8 73.12 44.1 clipbox
425.543 188.113 p0_0
gsave
0.000 0.000 1.000 setrgbcolor
fill
grestore
stroke
grestore
gsave
453.4 352.8 73.12 44.1 clipbox
243.75 195.566 p0_0
gsave
0.000 0.000 1.000 setrgbcolor
fill
grestore
stroke
grestore
gsave
453.4 352.8 73.12 44.1 clipbox
413.162 276.091 p0_0
gsave
0.000 0.000 1.000 setrgbcolor
fill
grestore
stroke
grestore
gsave
453.4 352.8 73.12 44.1 clipbox
336.526 261.559 p0_0
gsave
0.000 0.000 1.000 setrgbcolor
fill
grestore
stroke
grestore
gsave
453.4 352.8 73.12 44.1 clipbox
377.658 190.806 p0_0
gsave
0.000 0.000 1.000 setrgbcolor
fill
grestore
stroke
grestore
gsave
453.4 352.8 73.12 44.1 clipbox
334.725 271.97 p0_0
gsave
0.000 0.000 1.000 setrgbcolor
fill
grestore
stroke
grestore
gsave
453.4 352.8 73.12 44.1 clipbox
204.149 238.044 p0_0
gsave
0.000 0.000 1.000 setrgbcolor
fill
grestore
stroke
grestore
gsave
453.4 352.8 73.12 44.1 clipbox
207.361 196.391 p0_0
gsave
0.000 0.000 1.000 setrgbcolor
fill
grestore
stroke
grestore
gsave
453.4 352.8 73.12 44.1 clipbox
416.472 252.359 p0_0
gsave
0.000 0.000 1.000 setrgbcolor
fill
grestore
stroke
grestore
gsave
453.4 352.8 73.12 44.1 clipbox
282.411 261.737 p0_0
gsave
0.000 0.000 1.000 setrgbcolor
fill
grestore
stroke
grestore
gsave
453.4 352.8 73.12 44.1 clipbox
416.769 259.874 p0_0
gsave
0.000 0.000 1.000 setrgbcolor
fill
grestore
stroke
grestore
gsave
453.4 352.8 73.12 44.1 clipbox
329.64 275.062 p0_0
gsave
0.000 0.000 1.000 setrgbcolor
fill
grestore
stroke
grestore
gsave
453.4 352.8 73.12 44.1 clipbox
344.045 250.16 p0_0
gsave
0.000 0.000 1.000 setrgbcolor
fill
grestore
stroke
grestore
gsave
453.4 352.8 73.12 44.1 clipbox
169.569 232.098 p0_0
gsave
0.000 0.000 1.000 setrgbcolor
fill
grestore
stroke
grestore
gsave
453.4 352.8 73.12 44.1 clipbox
430.305 206.701 p0_0
gsave
0.000 0.000 1.000 setrgbcolor
fill
grestore
stroke
grestore
gsave
453.4 352.8 73.12 44.1 clipbox
369.488 226.263 p0_0
gsave
0.000 0.000 1.000 setrgbcolor
fill
grestore
stroke
grestore
gsave
453.4 352.8 73.12 44.1 clipbox
378.125 191.397 p0_0
gsave
0.000 0.000 1.000 setrgbcolor
fill
grestore
stroke
grestore
gsave
453.4 352.8 73.12 44.1 clipbox
280.844 208.965 p0_0
gsave
0.000 0.000 1.000 setrgbcolor
fill
grestore
stroke
grestore
gsave
453.4 352.8 73.12 44.1 clipbox
298.416 295.323 p0_0
gsave
0.000 0.000 1.000 setrgbcolor
fill
grestore
stroke
grestore
gsave
453.4 352.8 73.12 44.1 clipbox
394.789 264.5 p0_0
gsave
0.000 0.000 1.000 setrgbcolor
fill
grestore
stroke
grestore
gsave
453.4 352.8 73.12 44.1 clipbox
299.093 122.942 p0_0
gsave
0.000 0.000 1.000 setrgbcolor
fill
grestore
stroke
grestore
gsave
453.4 352.8 73.12 44.1 clipbox
235.05 181.176 p0_0
gsave
0.000 0.000 1.000 setrgbcolor
fill
grestore
stroke
grestore
gsave
453.4 352.8 73.12 44.1 clipbox
384.366 212.22 p0_0
gsave
0.000 0.000 1.000 setrgbcolor
fill
grestore
stroke
grestore
gsave
453.4 352.8 73.12 44.1 clipbox
382.584 257.575 p0_0
gsave
0.000 0.000 1.000 setrgbcolor
fill
grestore
stroke
grestore
gsave
453.4 352.8 73.12 44.1 clipbox
414.388 201.445 p0_0
gsave
0.000 0.000 1.000 setrgbcolor
fill
grestore
stroke
grestore
gsave
453.4 352.8 73.12 44.1 clipbox
415.583 266.484 p0_0
gsave
0.000 0.000 1.000 setrgbcolor
fill
grestore
stroke
grestore
gsave
453.4 352.8 73.12 44.1 clipbox
385.886 235.735 p0_0
gsave
0.000 0.000 1.000 setrgbcolor
fill
grestore
stroke
grestore
gsave
453.4 352.8 73.12 44.1 clipbox
333.498 287.228 p0_0
gsave
0.000 0.000 1.000 setrgbcolor
fill
grestore
stroke
grestore
gsave
453.4 352.8 73.12 44.1 clipbox
371.046 293.085 p0_0
gsave
0.000 0.000 1.000 setrgbcolor
fill
grestore
stroke
grestore
gsave
453.4 352.8 73.12 44.1 clipbox
361.243 222.07 p0_0
gsave
0.000 0.000 1.000 setrgbcolor
fill
grestore
stroke
grestore
gsave
453.4 352.8 73.12 44.1 clipbox
417.702 273.855 p0_0
gsave
0.000 0.000 1.000 setrgbcolor
fill
grestore
stroke
grestore
gsave
453.4 352.8 73.12 44.1 clipbox
434.578 189.752 p0_0
gsave
0.000 0.000 1.000 setrgbcolor
fill
grestore
stroke
grestore
gsave
453.4 352.8 73.12 44.1 clipbox
430.352 219.407 p0_0
gsave
0.000 0.000 1.000 setrgbcolor
fill
grestore
stroke
grestore
gsave
453.4 352.8 73.12 44.1 clipbox
231.326 211.776 p0_0
gsave
0.000 0.000 1.000 setrgbcolor
fill
grestore
stroke
grestore
gsave
453.4 352.8 73.12 44.1 clipbox
368.924 179.697 p0_0
gsave
0.000 0.000 1.000 setrgbcolor
fill
grestore
stroke
grestore
gsave
453.4 352.8 73.12 44.1 clipbox
467.76 282.41 p0_0
gsave
0.000 0.000 1.000 setrgbcolor
fill
grestore
stroke
grestore
gsave
453.4 352.8 73.12 44.1 clipbox
359.891 253.456 p0_0
gsave
0.000 0.000 1.000 setrgbcolor
fill
grestore
stroke
grestore
gsave
453.4 352.8 73.12 44.1 clipbox
251.273 183.495 p0_0
gsave
0.000 0.000 1.000 setrgbcolor
fill
grestore
stroke
grestore
gsave
453.4 352.8 73.12 44.1 clipbox
395.222 265.149 p0_0
gsave
0.000 0.000 1.000 setrgbcolor
fill
grestore
stroke
grestore
gsave
453.4 352.8 73.12 44.1 clipbox
386.695 257.502 p0_0
gsave
0.000 0.000 1.000 setrgbcolor
fill
grestore
stroke
grestore
gsave
453.4 352.8 73.12 44.1 clipbox
229.462 211.453 p0_0
gsave
0.000 0.000 1.000 setrgbcolor
fill
grestore
stroke
grestore
gsave
453.4 352.8 73.12 44.1 clipbox
417.287 217.364 p0_0
gsave
0.000 0.000 1.000 setrgbcolor
fill
grestore
stroke
grestore
gsave
453.4 352.8 73.12 44.1 clipbox
351.84 128.354 p0_0
gsave
0.000 0.000 1.000 setrgbcolor
fill
grestore
stroke
grestore
gsave
453.4 352.8 73.12 44.1 clipbox
387.708 290.501 p0_0
gsave
0.000 0.000 1.000 setrgbcolor
fill
grestore
stroke
grestore
gsave
453.4 352.8 73.12 44.1 clipbox
448.709 230.992 p0_0
gsave
0.000 0.000 1.000 setrgbcolor
fill
grestore
stroke
grestore
gsave
453.4 352.8 73.12 44.1 clipbox
400.751 293.54 p0_0
gsave
0.000 0.000 1.000 setrgbcolor
fill
grestore
stroke
grestore
gsave
453.4 352.8 73.12 44.1 clipbox
438.746 299.833 p0_0
gsave
0.000 0.000 1.000 setrgbcolor
fill
grestore
stroke
grestore
gsave
453.4 352.8 73.12 44.1 clipbox
197.922 154.589 p0_0
gsave
0.000 0.000 1.000 setrgbcolor
fill
grestore
stroke
grestore
gsave
453.4 352.8 73.12 44.1 clipbox
260.397 142.863 p0_0
gsave
0.000 0.000 1.000 setrgbcolor
fill
grestore
stroke
grestore
gsave
453.4 352.8 73.12 44.1 clipbox
325.921 255.716 p0_0
gsave
0.000 0.000 1.000 setrgbcolor
fill
grestore
stroke
grestore
gsave
453.4 352.8 73.12 44.1 clipbox
343.9 119.867 p0_0
gsave
0.000 0.000 1.000 setrgbcolor
fill
grestore
stroke
grestore
gsave
453.4 352.8 73.12 44.1 clipbox
359.975 279.592 p0_0
gsave
0.000 0.000 1.000 setrgbcolor
fill
grestore
stroke
grestore
gsave
453.4 352.8 73.12 44.1 clipbox
206.781 196.518 p0_0
gsave
0.000 0.000 1.000 setrgbcolor
fill
grestore
stroke
grestore
gsave
453.4 352.8 73.12 44.1 clipbox
368.72 207.65 p0_0
gsave
0.000 0.000 1.000 setrgbcolor
fill
grestore
stroke
grestore
gsave
453.4 352.8 73.12 44.1 clipbox
111.36 152.798 p0_0
gsave
0.000 0.000 1.000 setrgbcolor
fill
grestore
stroke
grestore
gsave
453.4 352.8 73.12 44.1 clipbox
365.225 246.132 p0_0
gsave
0.000 0.000 1.000 setrgbcolor
fill
grestore
stroke
grestore
gsave
453.4 352.8 73.12 44.1 clipbox
438.601 284.917 p0_0
gsave
0.000 0.000 1.000 setrgbcolor
fill
grestore
stroke
grestore
gsave
453.4 352.8 73.12 44.1 clipbox
391.524 245.592 p0_0
gsave
0.000 0.000 1.000 setrgbcolor
fill
grestore
stroke
grestore
gsave
453.4 352.8 73.12 44.1 clipbox
264.127 187.001 p0_0
gsave
0.000 0.000 1.000 setrgbcolor
fill
grestore
stroke
grestore
gsave
453.4 352.8 73.12 44.1 clipbox
395.748 245.757 p0_0
gsave
0.000 0.000 1.000 setrgbcolor
fill
grestore
stroke
grestore
gsave
453.4 352.8 73.12 44.1 clipbox
378.932 268.574 p0_0
gsave
0.000 0.000 1.000 setrgbcolor
fill
grestore
stroke
grestore
gsave
453.4 352.8 73.12 44.1 clipbox
334.644 338.508 p0_0
gsave
0.000 0.000 1.000 setrgbcolor
fill
grestore
stroke
grestore
gsave
453.4 352.8 73.12 44.1 clipbox
152.015 223.465 p0_0
gsave
0.000 0.000 1.000 setrgbcolor
fill
grestore
stroke
grestore
gsave
453.4 352.8 73.12 44.1 clipbox
386.364 256.968 p0_0
gsave
0.000 0.000 1.000 setrgbcolor
fill
grestore
stroke
grestore
gsave
453.4 352.8 73.12 44.1 clipbox
220.481 126.395 p0_0
gsave
0.000 0.000 1.000 setrgbcolor
fill
grestore
stroke
grestore
gsave
453.4 352.8 73.12 44.1 clipbox
390.789 266.379 p0_0
gsave
0.000 0.000 1.000 setrgbcolor
fill
grestore
stroke
grestore
gsave
453.4 352.8 73.12 44.1 clipbox
403.999 302.772 p0_0
gsave
0.000 0.000 1.000 setrgbcolor
fill
grestore
stroke
grestore
gsave
453.4 352.8 73.12 44.1 clipbox
437.804 232.437 p0_0
gsave
0.000 0.000 1.000 setrgbcolor
fill
grestore
stroke
grestore
gsave
453.4 352.8 73.12 44.1 clipbox
387.02 227.338 p0_0
gsave
0.000 0.000 1.000 setrgbcolor
fill
grestore
stroke
grestore
gsave
453.4 352.8 73.12 44.1 clipbox
406.447 244.838 p0_0
gsave
0.000 0.000 1.000 setrgbcolor
fill
grestore
stroke
grestore
gsave
453.4 352.8 73.12 44.1 clipbox
347.78 235.722 p0_0
gsave
0.000 0.000 1.000 setrgbcolor
fill
grestore
stroke
grestore
gsave
453.4 352.8 73.12 44.1 clipbox
376.032 265.122 p0_0
gsave
0.000 0.000 1.000 setrgbcolor
fill
grestore
stroke
grestore
gsave
453.4 352.8 73.12 44.1 clipbox
353.283 267.251 p0_0
gsave
0.000 0.000 1.000 setrgbcolor
fill
grestore
stroke
grestore
gsave
453.4 352.8 73.12 44.1 clipbox
277.363 214.563 p0_0
gsave
0.000 0.000 1.000 setrgbcolor
fill
grestore
stroke
grestore
gsave
453.4 352.8 73.12 44.1 clipbox
410.701 286.439 p0_0
gsave
0.000 0.000 1.000 setrgbcolor
fill
grestore
stroke
grestore
gsave
453.4 352.8 73.12 44.1 clipbox
364.784 224.935 p0_0
gsave
0.000 0.000 1.000 setrgbcolor
fill
grestore
stroke
grestore
gsave
453.4 352.8 73.12 44.1 clipbox
393.982 151.146 p0_0
gsave
0.000 0.000 1.000 setrgbcolor
fill
grestore
stroke
grestore
gsave
453.4 352.8 73.12 44.1 clipbox
441.204 254.883 p0_0
gsave
0.000 0.000 1.000 setrgbcolor
fill
grestore
stroke
grestore
gsave
453.4 352.8 73.12 44.1 clipbox
343.907 256.083 p0_0
gsave
0.000 0.000 1.000 setrgbcolor
fill
grestore
stroke
grestore
gsave
453.4 352.8 73.12 44.1 clipbox
418.586 291.964 p0_0
gsave
0.000 0.000 1.000 setrgbcolor
fill
grestore
stroke
grestore
gsave
453.4 352.8 73.12 44.1 clipbox
259.129 195.849 p0_0
gsave
0.000 0.000 1.000 setrgbcolor
fill
grestore
stroke
grestore
gsave
453.4 352.8 73.12 44.1 clipbox
425.864 227.379 p0_0
gsave
0.000 0.000 1.000 setrgbcolor
fill
grestore
stroke
grestore
gsave
453.4 352.8 73.12 44.1 clipbox
293.909 181.367 p0_0
gsave
0.000 0.000 1.000 setrgbcolor
fill
grestore
stroke
grestore
gsave
453.4 352.8 73.12 44.1 clipbox
170.2 136.675 p0_0
gsave
0.000 0.000 1.000 setrgbcolor
fill
grestore
stroke
grestore
gsave
453.4 352.8 73.12 44.1 clipbox
395.378 283.329 p0_0
gsave
0.000 0.000 1.000 setrgbcolor
fill
grestore
stroke
grestore
gsave
453.4 352.8 73.12 44.1 clipbox
360.076 233.685 p0_0
gsave
0.000 0.000 1.000 setrgbcolor
fill
grestore
stroke
grestore
gsave
453.4 352.8 73.12 44.1 clipbox
468.722 260.18 p0_0
gsave
0.000 0.000 1.000 setrgbcolor
fill
grestore
stroke
grestore
gsave
453.4 352.8 73.12 44.1 clipbox
272.322 234.04 p0_0
gsave
0.000 0.000 1.000 setrgbcolor
fill
grestore
stroke
grestore
gsave
453.4 352.8 73.12 44.1 clipbox
243.873 252.476 p0_0
gsave
0.000 0.000 1.000 setrgbcolor
fill
grestore
stroke
grestore
gsave
453.4 352.8 73.12 44.1 clipbox
393.495 259.071 p0_0
gsave
0.000 0.000 1.000 setrgbcolor
fill
grestore
stroke
grestore
gsave
453.4 352.8 73.12 44.1 clipbox
222.922 119.124 p0_0
gsave
0.000 0.000 1.000 setrgbcolor
fill
grestore
stroke
grestore
gsave
453.4 352.8 73.12 44.1 clipbox
380.954 257.938 p0_0
gsave
0.000 0.000 1.000 setrgbcolor
fill
grestore
stroke
grestore
gsave
453.4 352.8 73.12 44.1 clipbox
227.028 119.403 p0_0
gsave
0.000 0.000 1.000 setrgbcolor
fill
grestore
stroke
grestore
gsave
453.4 352.8 73.12 44.1 clipbox
393.047 258.859 p0_0
gsave
0.000 0.000 1.000 setrgbcolor
fill
grestore
stroke
grestore
gsave
453.4 352.8 73.12 44.1 clipbox
339.281 255.011 p0_0
gsave
0.000 0.000 1.000 setrgbcolor
fill
grestore
stroke
grestore
gsave
453.4 352.8 73.12 44.1 clipbox
416.415 252.331 p0_0
gsave
0.000 0.000 1.000 setrgbcolor
fill
grestore
stroke
grestore
gsave
453.4 352.8 73.12 44.1 clipbox
423.395 170.849 p0_0
gsave
0.000 0.000 1.000 setrgbcolor
fill
grestore
stroke
grestore
gsave
453.4 352.8 73.12 44.1 clipbox
338.275 308.891 p0_0
gsave
1.000 0.000 0.000 setrgbcolor
fill
grestore
stroke
grestore
gsave
453.4 352.8 73.12 44.1 clipbox
434.796 234.782 p0_0
gsave
1.000 0.000 0.000 setrgbcolor
fill
grestore
stroke
grestore
gsave
453.4 352.8 73.12 44.1 clipbox
391.281 204.89 p0_0
gsave
1.000 0.000 0.000 setrgbcolor
fill
grestore
stroke
grestore
gsave
453.4 352.8 73.12 44.1 clipbox
351.019 242.642 p0_0
gsave
1.000 0.000 0.000 setrgbcolor
fill
grestore
stroke
grestore
gsave
453.4 352.8 73.12 44.1 clipbox
329.181 304.835 p0_0
gsave
1.000 0.000 0.000 setrgbcolor
fill
grestore
stroke
grestore
gsave
453.4 352.8 73.12 44.1 clipbox
324.36 225.45 p0_0
gsave
1.000 0.000 0.000 setrgbcolor
fill
grestore
stroke
grestore
gsave
453.4 352.8 73.12 44.1 clipbox
318.288 303.331 p0_0
gsave
1.000 0.000 0.000 setrgbcolor
fill
grestore
stroke
grestore
gsave
453.4 352.8 73.12 44.1 clipbox
314.413 249.766 p0_0
gsave
1.000 0.000 0.000 setrgbcolor
fill
grestore
stroke
grestore
gsave
453.4 352.8 73.12 44.1 clipbox
420.833 247.514 p0_0
gsave
1.000 0.000 0.000 setrgbcolor
fill
grestore
stroke
grestore
gsave
453.4 352.8 73.12 44.1 clipbox
170.391 239.992 p0_0
gsave
1.000 0.000 0.000 setrgbcolor
fill
grestore
stroke
grestore
gsave
453.4 352.8 73.12 44.1 clipbox
298.416 295.323 p0_0
gsave
1.000 0.000 0.000 setrgbcolor
fill
grestore
stroke
grestore
gsave
453.4 352.8 73.12 44.1 clipbox
340.011 162.39 p0_0
gsave
1.000 0.000 0.000 setrgbcolor
fill
grestore
stroke
grestore
gsave
453.4 352.8 73.12 44.1 clipbox
321.934 176.392 p0_0
gsave
1.000 0.000 0.000 setrgbcolor
fill
grestore
stroke
grestore
gsave
453.4 352.8 73.12 44.1 clipbox
338.296 191.282 p0_0
gsave
1.000 0.000 0.000 setrgbcolor
fill
grestore
stroke
grestore
gsave
453.4 352.8 73.12 44.1 clipbox
233.191 158.042 p0_0
gsave
1.000 0.000 0.000 setrgbcolor
fill
grestore
stroke
grestore
gsave
453.4 352.8 73.12 44.1 clipbox
400.557 213.482 p0_0
gsave
1.000 0.000 0.000 setrgbcolor
fill
grestore
stroke
grestore
gsave
453.4 352.8 73.12 44.1 clipbox
337.09 178.28 p0_0
gsave
1.000 0.000 0.000 setrgbcolor
fill
grestore
stroke
grestore
gsave
453.4 352.8 73.12 44.1 clipbox
298.037 232.408 p0_0
gsave
1.000 0.000 0.000 setrgbcolor
fill
grestore
stroke
grestore
gsave
453.4 352.8 73.12 44.1 clipbox
169.108 237.942 p0_0
gsave
1.000 0.000 0.000 setrgbcolor
fill
grestore
stroke
grestore
gsave
453.4 352.8 73.12 44.1 clipbox
299.437 234.374 p0_0
gsave
1.000 0.000 0.000 setrgbcolor
fill
grestore
stroke
grestore
gsave
453.4 352.8 73.12 44.1 clipbox
170.442 239.79 p0_0
gsave
1.000 0.000 0.000 setrgbcolor
fill
grestore
stroke
grestore
gsave
453.4 352.8 73.12 44.1 clipbox
319.443 327.434 p0_0
gsave
1.000 0.000 0.000 setrgbcolor
fill
grestore
stroke
grestore
gsave
453.4 352.8 73.12 44.1 clipbox
157.623 237.419 p0_0
gsave
1.000 0.000 0.000 setrgbcolor
fill
grestore
stroke
grestore
gsave
453.4 352.8 73.12 44.1 clipbox
330.783 304.267 p0_0
gsave
1.000 0.000 0.000 setrgbcolor
fill
grestore
stroke
grestore
gsave
453.4 352.8 73.12 44.1 clipbox
371.764 246.955 p0_0
gsave
1.000 0.000 0.000 setrgbcolor
fill
grestore
stroke
grestore
gsave
453.4 352.8 73.12 44.1 clipbox
329.802 223.688 p0_0
gsave
1.000 0.000 0.000 setrgbcolor
fill
grestore
stroke
grestore
gsave
453.4 352.8 73.12 44.1 clipbox
373.608 283.294 p0_0
gsave
1.000 0.000 0.000 setrgbcolor
fill
grestore
stroke
grestore
gsave
453.4 352.8 73.12 44.1 clipbox
324.222 332.524 p0_0
gsave
1.000 0.000 0.000 setrgbcolor
fill
grestore
stroke
grestore
gsave
453.4 352.8 73.12 44.1 clipbox
467.74 282.432 p0_0
gsave
1.000 0.000 0.000 setrgbcolor
fill
grestore
stroke
grestore
gsave
453.4 352.8 73.12 44.1 clipbox
333.084 207.692 p0_0
gsave
1.000 0.000 0.000 setrgbcolor
fill
grestore
stroke
grestore
gsave
453.4 352.8 73.12 44.1 clipbox
347.454 297.025 p0_0
gsave
1.000 0.000 0.000 setrgbcolor
fill
grestore
stroke
grestore
gsave
453.4 352.8 73.12 44.1 clipbox
261.77 141.718 p0_0
gsave
1.000 0.000 0.000 setrgbcolor
fill
grestore
stroke
grestore
gsave
453.4 352.8 73.12 44.1 clipbox
382.491 257.604 p0_0
gsave
1.000 0.000 0.000 setrgbcolor
fill
grestore
stroke
grestore
gsave
453.4 352.8 73.12 44.1 clipbox
229.036 294.757 p0_0
gsave
1.000 0.000 0.000 setrgbcolor
fill
grestore
stroke
grestore
gsave
453.4 352.8 73.12 44.1 clipbox
213.887 237.295 p0_0
gsave
1.000 0.000 0.000 setrgbcolor
fill
grestore
stroke
grestore
gsave
453.4 352.8 73.12 44.1 clipbox
415.513 301.815 p0_0
gsave
1.000 0.000 0.000 setrgbcolor
fill
grestore
stroke
grestore
gsave
453.4 352.8 73.12 44.1 clipbox
386.719 257.511 p0_0
gsave
1.000 0.000 0.000 setrgbcolor
fill
grestore
stroke
grestore
gsave
453.4 352.8 73.12 44.1 clipbox
385.144 235.294 p0_0
gsave
1.000 0.000 0.000 setrgbcolor
fill
grestore
stroke
grestore
gsave
453.4 352.8 73.12 44.1 clipbox
225.379 165.145 p0_0
gsave
1.000 0.000 0.000 setrgbcolor
fill
grestore
stroke
grestore
gsave
453.4 352.8 73.12 44.1 clipbox
351.949 256.622 p0_0
gsave
1.000 0.000 0.000 setrgbcolor
fill
grestore
stroke
grestore
gsave
453.4 352.8 73.12 44.1 clipbox
386.498 221.904 p0_0
gsave
1.000 0.000 0.000 setrgbcolor
fill
grestore
stroke
grestore
gsave
453.4 352.8 73.12 44.1 clipbox
340.312 162.661 p0_0
gsave
1.000 0.000 0.000 setrgbcolor
fill
grestore
stroke
grestore
gsave
453.4 352.8 73.12 44.1 clipbox
294.208 218.522 p0_0
gsave
1.000 0.000 0.000 setrgbcolor
fill
grestore
stroke
grestore
gsave
453.4 352.8 73.12 44.1 clipbox
363.588 199.69 p0_0
gsave
1.000 0.000 0.000 setrgbcolor
fill
grestore
stroke
grestore
gsave
453.4 352.8 73.12 44.1 clipbox
168.334 170.881 p0_0
gsave
1.000 0.000 0.000 setrgbcolor
fill
grestore
stroke
grestore
gsave
453.4 352.8 73.12 44.1 clipbox
268.582 236.027 p0_0
gsave
1.000 0.000 0.000 setrgbcolor
fill
grestore
stroke
grestore
gsave
453.4 352.8 73.12 44.1 clipbox
281.588 306.888 p0_0
gsave
1.000 0.000 0.000 setrgbcolor
fill
grestore
stroke
grestore
gsave
453.4 352.8 73.12 44.1 clipbox
306.977 273.104 p0_0
gsave
1.000 0.000 0.000 setrgbcolor
fill
grestore
stroke
grestore
gsave
453.4 352.8 73.12 44.1 clipbox
273.298 233.513 p0_0
gsave
1.000 0.000 0.000 setrgbcolor
fill
grestore
stroke
grestore
gsave
453.4 352.8 73.12 44.1 clipbox
170.177 239.518 p0_0
gsave
1.000 0.000 0.000 setrgbcolor
fill
grestore
stroke
grestore
gsave
453.4 352.8 73.12 44.1 clipbox
409.094 234.101 p0_0
gsave
1.000 0.000 0.000 setrgbcolor
fill
grestore
stroke
grestore
gsave
453.4 352.8 73.12 44.1 clipbox
263.572 295.679 p0_0
gsave
1.000 0.000 0.000 setrgbcolor
fill
grestore
stroke
grestore
gsave
453.4 352.8 73.12 44.1 clipbox
303.147 235.372 p0_0
gsave
1.000 0.000 0.000 setrgbcolor
fill
grestore
stroke
grestore
gsave
453.4 352.8 73.12 44.1 clipbox
467.752 282.406 p0_0
gsave
1.000 0.000 0.000 setrgbcolor
fill
grestore
stroke
grestore
gsave
453.4 352.8 73.12 44.1 clipbox
296.451 294.055 p0_0
gsave
1.000 0.000 0.000 setrgbcolor
fill
grestore
stroke
grestore
gsave
453.4 352.8 73.12 44.1 clipbox
339.195 276.795 p0_0
gsave
1.000 0.000 0.000 setrgbcolor
fill
grestore
stroke
grestore
gsave
453.4 352.8 73.12 44.1 clipbox
395.442 262.586 p0_0
gsave
1.000 0.000 0.000 setrgbcolor
fill
grestore
stroke
grestore
gsave
453.4 352.8 73.12 44.1 clipbox
314.985 240.867 p0_0
gsave
1.000 0.000 0.000 setrgbcolor
fill
grestore
stroke
grestore
gsave
453.4 352.8 73.12 44.1 clipbox
110.84 152.54 p0_0
gsave
1.000 0.000 0.000 setrgbcolor
fill
grestore
stroke
grestore
gsave
453.4 352.8 73.12 44.1 clipbox
378.616 258.965 p0_0
gsave
1.000 0.000 0.000 setrgbcolor
fill
grestore
stroke
grestore
gsave
453.4 352.8 73.12 44.1 clipbox
244.665 252.151 p0_0
gsave
1.000 0.000 0.000 setrgbcolor
fill
grestore
stroke
grestore
gsave
453.4 352.8 73.12 44.1 clipbox
359.211 211.27 p0_0
gsave
1.000 0.000 0.000 setrgbcolor
fill
grestore
stroke
grestore
gsave
453.4 352.8 73.12 44.1 clipbox
392.195 258.559 p0_0
gsave
1.000 0.000 0.000 setrgbcolor
fill
grestore
stroke
grestore
gsave
453.4 352.8 73.12 44.1 clipbox
325.238 304.343 p0_0
gsave
1.000 0.000 0.000 setrgbcolor
fill
grestore
stroke
grestore
gsave
453.4 352.8 73.12 44.1 clipbox
111.441 152.839 p0_0
gsave
1.000 0.000 0.000 setrgbcolor
fill
grestore
stroke
grestore
gsave
453.4 352.8 73.12 44.1 clipbox
290.957 286.215 p0_0
gsave
1.000 0.000 0.000 setrgbcolor
fill
grestore
stroke
grestore
gsave
453.4 352.8 73.12 44.1 clipbox
323.216 264.609 p0_0
gsave
1.000 0.000 0.000 setrgbcolor
fill
grestore
stroke
grestore
gsave
453.4 352.8 73.12 44.1 clipbox
269.402 158.708 p0_0
gsave
1.000 0.000 0.000 setrgbcolor
fill
grestore
stroke
grestore
gsave
453.4 352.8 73.12 44.1 clipbox
333.438 218.391 p0_0
gsave
1.000 0.000 0.000 setrgbcolor
fill
grestore
stroke
grestore
gsave
453.4 352.8 73.12 44.1 clipbox
297.716 304.194 p0_0
gsave
1.000 0.000 0.000 setrgbcolor
fill
grestore
stroke
grestore
gsave
453.4 352.8 73.12 44.1 clipbox
382.992 303.097 p0_0
gsave
1.000 0.000 0.000 setrgbcolor
fill
grestore
stroke
grestore
gsave
453.4 352.8 73.12 44.1 clipbox
413.225 276.143 p0_0
gsave
1.000 0.000 0.000 setrgbcolor
fill
grestore
stroke
grestore
gsave
453.4 352.8 73.12 44.1 clipbox
434.307 275.337 p0_0
gsave
1.000 0.000 0.000 setrgbcolor
fill
grestore
stroke
grestore
gsave
453.4 352.8 73.12 44.1 clipbox
365.021 318.169 p0_0
gsave
1.000 0.000 0.000 setrgbcolor
fill
grestore
stroke
grestore
gsave
453.4 352.8 73.12 44.1 clipbox
182.819 231.742 p0_0
gsave
1.000 0.000 0.000 setrgbcolor
fill
grestore
stroke
grestore
gsave
453.4 352.8 73.12 44.1 clipbox
390.311 268.805 p0_0
gsave
1.000 0.000 0.000 setrgbcolor
fill
grestore
stroke
grestore
gsave
453.4 352.8 73.12 44.1 clipbox
450.512 265.11 p0_0
gsave
1.000 0.000 0.000 setrgbcolor
fill
grestore
stroke
grestore
gsave
453.4 352.8 73.12 44.1 clipbox
308.845 273.207 p0_0
gsave
1.000 0.000 0.000 setrgbcolor
fill
grestore
stroke
grestore
gsave
453.4 352.8 73.12 44.1 clipbox
383.367 257.58 p0_0
gsave
1.000 0.000 0.000 setrgbcolor
fill
grestore
stroke
grestore
gsave
453.4 352.8 73.12 44.1 clipbox
322.696 304.986 p0_0
gsave
1.000 0.000 0.000 setrgbcolor
fill
grestore
stroke
grestore
gsave
453.4 352.8 73.12 44.1 clipbox
417.739 238.456 p0_0
gsave
1.000 0.000 0.000 setrgbcolor
fill
grestore
stroke
grestore
gsave
453.4 352.8 73.12 44.1 clipbox
298.416 295.323 p0_0
gsave
1.000 0.000 0.000 setrgbcolor
fill
grestore
stroke
grestore
gsave
453.4 352.8 73.12 44.1 clipbox
219.544 284.705 p0_0
gsave
1.000 0.000 0.000 setrgbcolor
fill
grestore
stroke
grestore
gsave
453.4 352.8 73.12 44.1 clipbox
323.089 304.636 p0_0
gsave
1.000 0.000 0.000 setrgbcolor
fill
grestore
stroke
grestore
gsave
453.4 352.8 73.12 44.1 clipbox
387.606 288.684 p0_0
gsave
1.000 0.000 0.000 setrgbcolor
fill
grestore
stroke
grestore
gsave
453.4 352.8 73.12 44.1 clipbox
388.435 203.318 p0_0
gsave
1.000 0.000 0.000 setrgbcolor
fill
grestore
stroke
grestore
gsave
453.4 352.8 73.12 44.1 clipbox
450.478 252.4 p0_0
gsave
1.000 0.000 0.000 setrgbcolor
fill
grestore
stroke
grestore
gsave
453.4 352.8 73.12 44.1 clipbox
159.533 249.899 p0_0
gsave
1.000 0.000 0.000 setrgbcolor
fill
grestore
stroke
grestore
gsave
453.4 352.8 73.12 44.1 clipbox
405.446 278.988 p0_0
gsave
1.000 0.000 0.000 setrgbcolor
fill
grestore
stroke
grestore
gsave
453.4 352.8 73.12 44.1 clipbox
385.875 213.513 p0_0
gsave
1.000 0.000 0.000 setrgbcolor
fill
grestore
stroke
grestore
gsave
453.4 352.8 73.12 44.1 clipbox
371.561 287.258 p0_0
gsave
1.000 0.000 0.000 setrgbcolor
fill
grestore
stroke
grestore
gsave
453.4 352.8 73.12 44.1 clipbox
178.445 221.473 p0_0
gsave
1.000 0.000 0.000 setrgbcolor
fill
grestore
stroke
grestore
gsave
453.4 352.8 73.12 44.1 clipbox
351.735 127.793 p0_0
gsave
1.000 0.000 0.000 setrgbcolor
fill
grestore
stroke
grestore
gsave
453.4 352.8 73.12 44.1 clipbox
270.647 265.169 p0_0
gsave
1.000 0.000 0.000 setrgbcolor
fill
grestore
stroke
grestore
gsave
453.4 352.8 73.12 44.1 clipbox
379.487 268.981 p0_0
gsave
1.000 0.000 0.000 setrgbcolor
fill
grestore
stroke
grestore
gsave
453.4 352.8 73.12 44.1 clipbox
377.439 259.895 p0_0
gsave
1.000 0.000 0.000 setrgbcolor
fill
grestore
stroke
grestore
gsave
453.4 352.8 73.12 44.1 clipbox
167.541 245.579 p0_0
gsave
1.000 0.000 0.000 setrgbcolor
fill
grestore
stroke
grestore
gsave
453.4 352.8 73.12 44.1 clipbox
393.608 266.07 p0_0
gsave
1.000 0.000 0.000 setrgbcolor
fill
grestore
stroke
grestore
gsave
453.4 352.8 73.12 44.1 clipbox
381.857 257.996 p0_0
gsave
1.000 0.000 0.000 setrgbcolor
fill
grestore
stroke
grestore
gsave
453.4 352.8 73.12 44.1 clipbox
349.16 302.526 p0_0
gsave
1.000 0.000 0.000 setrgbcolor
fill
grestore
stroke
grestore
gsave
453.4 352.8 73.12 44.1 clipbox
433.93 243.156 p0_0
gsave
1.000 0.000 0.000 setrgbcolor
fill
grestore
stroke
grestore
gsave
453.4 352.8 73.12 44.1 clipbox
390.186 268.808 p0_0
gsave
1.000 0.000 0.000 setrgbcolor
fill
grestore
stroke
grestore
gsave
453.4 352.8 73.12 44.1 clipbox
391.408 258.242 p0_0
gsave
1.000 0.000 0.000 setrgbcolor
fill
grestore
stroke
grestore
gsave
453.4 352.8 73.12 44.1 clipbox
264.021 123.403 p0_0
gsave
1.000 0.000 0.000 setrgbcolor
fill
grestore
stroke
grestore
gsave
453.4 352.8 73.12 44.1 clipbox
168.389 225.849 p0_0
gsave
1.000 0.000 0.000 setrgbcolor
fill
grestore
stroke
grestore
gsave
453.4 352.8 73.12 44.1 clipbox
309.287 273.089 p0_0
gsave
1.000 0.000 0.000 setrgbcolor
fill
grestore
stroke
grestore
gsave
453.4 352.8 73.12 44.1 clipbox
331 337.844 p0_0
gsave
1.000 0.000 0.000 setrgbcolor
fill
grestore
stroke
grestore
gsave
453.4 352.8 73.12 44.1 clipbox
434.206 261.686 p0_0
gsave
1.000 0.000 0.000 setrgbcolor
fill
grestore
stroke
grestore
gsave
453.4 352.8 73.12 44.1 clipbox
383.317 270.239 p0_0
gsave
1.000 0.000 0.000 setrgbcolor
fill
grestore
stroke
grestore
gsave
453.4 352.8 73.12 44.1 clipbox
472.872 245.926 p0_0
gsave
1.000 0.000 0.000 setrgbcolor
fill
grestore
stroke
grestore
gsave
453.4 352.8 73.12 44.1 clipbox
394.262 262.546 p0_0
gsave
1.000 0.000 0.000 setrgbcolor
fill
grestore
stroke
grestore
gsave
453.4 352.8 73.12 44.1 clipbox
362.362 247.97 p0_0
gsave
1.000 0.000 0.000 setrgbcolor
fill
grestore
stroke
grestore
gsave
453.4 352.8 73.12 44.1 clipbox
327.322 315.485 p0_0
gsave
1.000 0.000 0.000 setrgbcolor
fill
grestore
stroke
grestore
gsave
453.4 352.8 73.12 44.1 clipbox
409.905 213.618 p0_0
gsave
1.000 0.000 0.000 setrgbcolor
fill
grestore
stroke
grestore
gsave
453.4 352.8 73.12 44.1 clipbox
474.591 256.882 p0_0
gsave
1.000 0.000 0.000 setrgbcolor
fill
grestore
stroke
grestore
gsave
453.4 352.8 73.12 44.1 clipbox
312.969 198.696 p0_0
gsave
1.000 0.000 0.000 setrgbcolor
fill
grestore
stroke
grestore
gsave
453.4 352.8 73.12 44.1 clipbox
177.877 243.756 p0_0
gsave
1.000 0.000 0.000 setrgbcolor
fill
grestore
stroke
grestore
gsave
453.4 352.8 73.12 44.1 clipbox
300.538 234.87 p0_0
gsave
1.000 0.000 0.000 setrgbcolor
fill
grestore
stroke
grestore
gsave
453.4 352.8 73.12 44.1 clipbox
221.069 213.956 p0_0
gsave
1.000 0.000 0.000 setrgbcolor
fill
grestore
stroke
grestore
gsave
453.4 352.8 73.12 44.1 clipbox
328.038 235.719 p0_0
gsave
1.000 0.000 0.000 setrgbcolor
fill
grestore
stroke
grestore
gsave
453.4 352.8 73.12 44.1 clipbox
388.583 173.651 p0_0
gsave
1.000 0.000 0.000 setrgbcolor
fill
grestore
stroke
grestore
gsave
453.4 352.8 73.12 44.1 clipbox
423.719 281.218 p0_0
gsave
1.000 0.000 0.000 setrgbcolor
fill
grestore
stroke
grestore
gsave
453.4 352.8 73.12 44.1 clipbox
476.18 224.016 p0_0
gsave
1.000 0.000 0.000 setrgbcolor
fill
grestore
stroke
grestore
gsave
453.4 352.8 73.12 44.1 clipbox
140.063 233.257 p0_0
gsave
1.000 0.000 0.000 setrgbcolor
fill
grestore
stroke
grestore
gsave
453.4 352.8 73.12 44.1 clipbox
297.359 303.499 p0_0
gsave
1.000 0.000 0.000 setrgbcolor
fill
grestore
stroke
grestore
gsave
453.4 352.8 73.12 44.1 clipbox
306.636 273.196 p0_0
gsave
1.000 0.000 0.000 setrgbcolor
fill
grestore
stroke
grestore
gsave
453.4 352.8 73.12 44.1 clipbox
392.899 298.567 p0_0
gsave
1.000 0.000 0.000 setrgbcolor
fill
grestore
stroke
grestore
gsave
453.4 352.8 73.12 44.1 clipbox
350.906 270.161 p0_0
gsave
1.000 0.000 0.000 setrgbcolor
fill
grestore
stroke
grestore
gsave
453.4 352.8 73.12 44.1 clipbox
333.835 208.846 p0_0
gsave
1.000 0.000 0.000 setrgbcolor
fill
grestore
stroke
grestore
gsave
453.4 352.8 73.12 44.1 clipbox
395.693 201.301 p0_0
gsave
1.000 0.000 0.000 setrgbcolor
fill
grestore
stroke
grestore
gsave
453.4 352.8 73.12 44.1 clipbox
416.517 291.919 p0_0
gsave
1.000 0.000 0.000 setrgbcolor
fill
grestore
stroke
grestore
gsave
453.4 352.8 73.12 44.1 clipbox
461.59 258.956 p0_0
gsave
1.000 0.000 0.000 setrgbcolor
fill
grestore
stroke
grestore
gsave
453.4 352.8 73.12 44.1 clipbox
245.298 276.239 p0_0
gsave
1.000 0.000 0.000 setrgbcolor
fill
grestore
stroke
grestore
gsave
453.4 352.8 73.12 44.1 clipbox
315.117 200.951 p0_0
gsave
1.000 0.000 0.000 setrgbcolor
fill
grestore
stroke
grestore
gsave
453.4 352.8 73.12 44.1 clipbox
326.11 276.535 p0_0
gsave
1.000 0.000 0.000 setrgbcolor
fill
grestore
stroke
grestore
gsave
453.4 352.8 73.12 44.1 clipbox
372.209 246.166 p0_0
gsave
1.000 0.000 0.000 setrgbcolor
fill
grestore
stroke
grestore
gsave
453.4 352.8 73.12 44.1 clipbox
386.253 220.161 p0_0
gsave
1.000 0.000 0.000 setrgbcolor
fill
grestore
stroke
grestore
gsave
453.4 352.8 73.12 44.1 clipbox
298.481 295.359 p0_0
gsave
1.000 0.000 0.000 setrgbcolor
fill
grestore
stroke
grestore
gsave
453.4 352.8 73.12 44.1 clipbox
468.241 282.839 p0_0
gsave
1.000 0.000 0.000 setrgbcolor
fill
grestore
stroke
grestore
gsave
453.4 352.8 73.12 44.1 clipbox
299.233 257.779 p0_0
gsave
1.000 0.000 0.000 setrgbcolor
fill
grestore
stroke
grestore
gsave
453.4 352.8 73.12 44.1 clipbox
282.498 158.082 p0_0
gsave
1.000 0.000 0.000 setrgbcolor
fill
grestore
stroke
grestore
gsave
453.4 352.8 73.12 44.1 clipbox
427.189 265.202 p0_0
gsave
1.000 0.000 0.000 setrgbcolor
fill
grestore
stroke
grestore
gsave
453.4 352.8 73.12 44.1 clipbox
289.44 328.283 p0_0
gsave
1.000 0.000 0.000 setrgbcolor
fill
grestore
stroke
grestore
gsave
453.4 352.8 73.12 44.1 clipbox
363.41 300.223 p0_0
gsave
1.000 0.000 0.000 setrgbcolor
fill
grestore
stroke
grestore
gsave
453.4 352.8 73.12 44.1 clipbox
162.104 227.162 p0_0
gsave
1.000 0.000 0.000 setrgbcolor
fill
grestore
stroke
grestore
gsave
453.4 352.8 73.12 44.1 clipbox
290.175 201.525 p0_0
gsave
1.000 0.000 0.000 setrgbcolor
fill
grestore
stroke
grestore
gsave
453.4 352.8 73.12 44.1 clipbox
336.033 238.685 p0_0
gsave
1.000 0.000 0.000 setrgbcolor
fill
grestore
stroke
grestore
gsave
453.4 352.8 73.12 44.1 clipbox
187.786 245.925 p0_0
gsave
1.000 0.000 0.000 setrgbcolor
fill
grestore
stroke
grestore
gsave
453.4 352.8 73.12 44.1 clipbox
420.376 238.894 p0_0
gsave
1.000 0.000 0.000 setrgbcolor
fill
grestore
stroke
grestore
gsave
453.4 352.8 73.12 44.1 clipbox
250.988 299.674 p0_0
gsave
1.000 0.000 0.000 setrgbcolor
fill
grestore
stroke
grestore
gsave
453.4 352.8 73.12 44.1 clipbox
251.882 221.8 p0_0
gsave
1.000 0.000 0.000 setrgbcolor
fill
grestore
stroke
grestore
gsave
453.4 352.8 73.12 44.1 clipbox
330.982 333.821 p0_0
gsave
1.000 0.000 0.000 setrgbcolor
fill
grestore
stroke
grestore
gsave
453.4 352.8 73.12 44.1 clipbox
151.591 234.569 p0_0
gsave
1.000 0.000 0.000 setrgbcolor
fill
grestore
stroke
grestore
gsave
453.4 352.8 73.12 44.1 clipbox
398.626 299.857 p0_0
gsave
1.000 0.000 0.000 setrgbcolor
fill
grestore
stroke
grestore
gsave
453.4 352.8 73.12 44.1 clipbox
200.098 175.946 p0_0
gsave
1.000 0.000 0.000 setrgbcolor
fill
grestore
stroke
grestore
gsave
453.4 352.8 73.12 44.1 clipbox
287.908 301.511 p0_0
gsave
1.000 0.000 0.000 setrgbcolor
fill
grestore
stroke
grestore
gsave
453.4 352.8 73.12 44.1 clipbox
315.227 213.116 p0_0
gsave
1.000 0.000 0.000 setrgbcolor
fill
grestore
stroke
grestore
gsave
453.4 352.8 73.12 44.1 clipbox
281.529 102.952 p0_0
gsave
1.000 0.000 0.000 setrgbcolor
fill
grestore
stroke
grestore
gsave
453.4 352.8 73.12 44.1 clipbox
337.419 190.207 p0_0
gsave
1.000 0.000 0.000 setrgbcolor
fill
grestore
stroke
grestore
gsave
453.4 352.8 73.12 44.1 clipbox
425.449 169.635 p0_0
gsave
1.000 0.000 0.000 setrgbcolor
fill
grestore
stroke
grestore
gsave
453.4 352.8 73.12 44.1 clipbox
282.366 261.692 p0_0
gsave
1.000 0.000 0.000 setrgbcolor
fill
grestore
stroke
grestore
gsave
453.4 352.8 73.12 44.1 clipbox
354.762 264.274 p0_0
gsave
1.000 0.000 0.000 setrgbcolor
fill
grestore
stroke
grestore
gsave
453.4 352.8 73.12 44.1 clipbox
357.766 290.834 p0_0
gsave
1.000 0.000 0.000 setrgbcolor
fill
grestore
stroke
grestore
gsave
453.4 352.8 73.12 44.1 clipbox
376.704 188.805 p0_0
gsave
1.000 0.000 0.000 setrgbcolor
fill
grestore
stroke
grestore
gsave
453.4 352.8 73.12 44.1 clipbox
111.567 152.843 p0_0
gsave
1.000 0.000 0.000 setrgbcolor
fill
grestore
stroke
grestore
gsave
453.4 352.8 73.12 44.1 clipbox
351.84 128.354 p0_0
gsave
1.000 0.000 0.000 setrgbcolor
fill
grestore
stroke
grestore
gsave
453.4 352.8 73.12 44.1 clipbox
235.503 160.82 p0_0
gsave
1.000 0.000 0.000 setrgbcolor
fill
grestore
stroke
grestore
gsave
453.4 352.8 73.12 44.1 clipbox
393.791 264.227 p0_0
gsave
1.000 0.000 0.000 setrgbcolor
fill
grestore
stroke
grestore
gsave
453.4 352.8 73.12 44.1 clipbox
213.658 226.842 p0_0
gsave
1.000 0.000 0.000 setrgbcolor
fill
grestore
stroke
grestore
gsave
453.4 352.8 73.12 44.1 clipbox
317.966 242.102 p0_0
gsave
1.000 0.000 0.000 setrgbcolor
fill
grestore
stroke
grestore
gsave
453.4 352.8 73.12 44.1 clipbox
194.33 99.0968 p0_0
gsave
1.000 0.000 0.000 setrgbcolor
fill
grestore
stroke
grestore
gsave
453.4 352.8 73.12 44.1 clipbox
200.337 222.396 p0_0
gsave
1.000 0.000 0.000 setrgbcolor
fill
grestore
stroke
grestore
gsave
453.4 352.8 73.12 44.1 clipbox
428.737 166.055 p0_0
gsave
1.000 0.000 0.000 setrgbcolor
fill
grestore
stroke
grestore
gsave
453.4 352.8 73.12 44.1 clipbox
177.663 209.273 p0_0
gsave
1.000 0.000 0.000 setrgbcolor
fill
grestore
stroke
grestore
gsave
453.4 352.8 73.12 44.1 clipbox
358.125 191.346 p0_0
gsave
1.000 0.000 0.000 setrgbcolor
fill
grestore
stroke
grestore
gsave
453.4 352.8 73.12 44.1 clipbox
325.301 334.307 p0_0
gsave
1.000 0.000 0.000 setrgbcolor
fill
grestore
stroke
grestore
gsave
453.4 352.8 73.12 44.1 clipbox
350.768 128.151 p0_0
gsave
1.000 0.000 0.000 setrgbcolor
fill
grestore
stroke
grestore
gsave
453.4 352.8 73.12 44.1 clipbox
199.846 198.928 p0_0
gsave
1.000 0.000 0.000 setrgbcolor
fill
grestore
stroke
grestore
gsave
453.4 352.8 73.12 44.1 clipbox
405.648 278.867 p0_0
gsave
1.000 0.000 0.000 setrgbcolor
fill
grestore
stroke
grestore
gsave
453.4 352.8 73.12 44.1 clipbox
267.238 176.066 p0_0
gsave
1.000 0.000 0.000 setrgbcolor
fill
grestore
stroke
grestore
gsave
453.4 352.8 73.12 44.1 clipbox
383.265 306.893 p0_0
gsave
1.000 0.000 0.000 setrgbcolor
fill
grestore
stroke
grestore
gsave
453.4 352.8 73.12 44.1 clipbox
305.958 335.624 p0_0
gsave
1.000 0.000 0.000 setrgbcolor
fill
grestore
stroke
grestore
gsave
453.4 352.8 73.12 44.1 clipbox
395.375 230.006 p0_0
gsave
1.000 0.000 0.000 setrgbcolor
fill
grestore
stroke
grestore
gsave
453.4 352.8 73.12 44.1 clipbox
411.006 312.995 p0_0
gsave
1.000 0.000 0.000 setrgbcolor
fill
grestore
stroke
grestore
gsave
453.4 352.8 73.12 44.1 clipbox
395.109 261.48 p0_0
gsave
1.000 0.000 0.000 setrgbcolor
fill
grestore
stroke
grestore
gsave
453.4 352.8 73.12 44.1 clipbox
311.482 201.641 p0_0
gsave
1.000 0.000 0.000 setrgbcolor
fill
grestore
stroke
grestore
gsave
453.4 352.8 73.12 44.1 clipbox
321.598 214.127 p0_0
gsave
1.000 0.000 0.000 setrgbcolor
fill
grestore
stroke
grestore
gsave
453.4 352.8 73.12 44.1 clipbox
332.149 260.993 p0_0
gsave
1.000 0.000 0.000 setrgbcolor
fill
grestore
stroke
grestore
gsave
453.4 352.8 73.12 44.1 clipbox
315.88 201.588 p0_0
gsave
1.000 0.000 0.000 setrgbcolor
fill
grestore
stroke
grestore
gsave
453.4 352.8 73.12 44.1 clipbox
375.951 244.55 p0_0
gsave
1.000 0.000 0.000 setrgbcolor
fill
grestore
stroke
grestore
gsave
453.4 352.8 73.12 44.1 clipbox
345.841 335.931 p0_0
gsave
1.000 0.000 0.000 setrgbcolor
fill
grestore
stroke
grestore
gsave
453.4 352.8 73.12 44.1 clipbox
357.125 248.854 p0_0
gsave
1.000 0.000 0.000 setrgbcolor
fill
grestore
stroke
grestore
gsave
453.4 352.8 73.12 44.1 clipbox
381.087 188.982 p0_0
gsave
1.000 0.000 0.000 setrgbcolor
fill
grestore
stroke
grestore
gsave
453.4 352.8 73.12 44.1 clipbox
291.187 292.767 p0_0
gsave
1.000 0.000 0.000 setrgbcolor
fill
grestore
stroke
grestore
gsave
453.4 352.8 73.12 44.1 clipbox
260.683 143.198 p0_0
gsave
1.000 0.000 0.000 setrgbcolor
fill
grestore
stroke
grestore
gsave
453.4 352.8 73.12 44.1 clipbox
171.17 245.741 p0_0
gsave
1.000 0.000 0.000 setrgbcolor
fill
grestore
stroke
grestore
gsave
453.4 352.8 73.12 44.1 clipbox
350.064 232.575 p0_0
gsave
1.000 0.000 0.000 setrgbcolor
fill
grestore
stroke
grestore
gsave
453.4 352.8 73.12 44.1 clipbox
460.655 229.986 p0_0
gsave
1.000 0.000 0.000 setrgbcolor
fill
grestore
stroke
grestore
gsave
453.4 352.8 73.12 44.1 clipbox
395.062 236.898 p0_0
gsave
1.000 0.000 0.000 setrgbcolor
fill
grestore
stroke
grestore
gsave
453.4 352.8 73.12 44.1 clipbox
376.007 262.416 p0_0
gsave
1.000 0.000 0.000 setrgbcolor
fill
grestore
stroke
grestore
gsave
453.4 352.8 73.12 44.1 clipbox
325.804 298.164 p0_0
gsave
1.000 0.000 0.000 setrgbcolor
fill
grestore
stroke
grestore
gsave
453.4 352.8 73.12 44.1 clipbox
376.888 267.231 p0_0
gsave
1.000 0.000 0.000 setrgbcolor
fill
grestore
stroke
grestore
gsave
453.4 352.8 73.12 44.1 clipbox
438.632 263.483 p0_0
gsave
1.000 0.000 0.000 setrgbcolor
fill
grestore
stroke
grestore
gsave
453.4 352.8 73.12 44.1 clipbox
235.983 246.383 p0_0
gsave
1.000 0.000 0.000 setrgbcolor
fill
grestore
stroke
grestore
gsave
453.4 352.8 73.12 44.1 clipbox
340.016 313.785 p0_0
gsave
1.000 0.000 0.000 setrgbcolor
fill
grestore
stroke
grestore
gsave
453.4 352.8 73.12 44.1 clipbox
318.314 243.137 p0_0
gsave
1.000 0.000 0.000 setrgbcolor
fill
grestore
stroke
grestore
gsave
453.4 352.8 73.12 44.1 clipbox
393.995 151.083 p0_0
gsave
1.000 0.000 0.000 setrgbcolor
fill
grestore
stroke
grestore
gsave
453.4 352.8 73.12 44.1 clipbox
368.322 234.055 p0_0
gsave
1.000 0.000 0.000 setrgbcolor
fill
grestore
stroke
grestore
gsave
453.4 352.8 73.12 44.1 clipbox
168.932 135.932 p0_0
gsave
1.000 0.000 0.000 setrgbcolor
fill
grestore
stroke
grestore
gsave
453.4 352.8 73.12 44.1 clipbox
385.445 257.475 p0_0
gsave
1.000 0.000 0.000 setrgbcolor
fill
grestore
stroke
grestore
gsave
453.4 352.8 73.12 44.1 clipbox
163.618 244.285 p0_0
gsave
1.000 0.000 0.000 setrgbcolor
fill
grestore
stroke
grestore
gsave
453.4 352.8 73.12 44.1 clipbox
371.135 295.087 p0_0
gsave
1.000 0.000 0.000 setrgbcolor
fill
grestore
stroke
grestore
gsave
453.4 352.8 73.12 44.1 clipbox
351.143 260.099 p0_0
gsave
1.000 0.000 0.000 setrgbcolor
fill
grestore
stroke
grestore
gsave
453.4 352.8 73.12 44.1 clipbox
428.62 247.976 p0_0
gsave
1.000 0.000 0.000 setrgbcolor
fill
grestore
stroke
grestore
gsave
453.4 352.8 73.12 44.1 clipbox
360.989 297.328 p0_0
gsave
1.000 0.000 0.000 setrgbcolor
fill
grestore
stroke
grestore
gsave
453.4 352.8 73.12 44.1 clipbox
376.447 263.013 p0_0
gsave
1.000 0.000 0.000 setrgbcolor
fill
grestore
stroke
grestore
gsave
453.4 352.8 73.12 44.1 clipbox
384.328 222.799 p0_0
gsave
1.000 0.000 0.000 setrgbcolor
fill
grestore
stroke
grestore
gsave
453.4 352.8 73.12 44.1 clipbox
328.269 268.357 p0_0
gsave
1.000 0.000 0.000 setrgbcolor
fill
grestore
stroke
grestore
gsave
453.4 352.8 73.12 44.1 clipbox
389.8 270.082 p0_0
gsave
1.000 0.000 0.000 setrgbcolor
fill
grestore
stroke
grestore
gsave
453.4 352.8 73.12 44.1 clipbox
431.924 270.121 p0_0
gsave
1.000 0.000 0.000 setrgbcolor
fill
grestore
stroke
grestore
gsave
453.4 352.8 73.12 44.1 clipbox
298.416 295.323 p0_0
gsave
1.000 0.000 0.000 setrgbcolor
fill
grestore
stroke
grestore
gsave
453.4 352.8 73.12 44.1 clipbox
358.673 285.069 p0_0
gsave
1.000 0.000 0.000 setrgbcolor
fill
grestore
stroke
grestore
gsave
453.4 352.8 73.12 44.1 clipbox
431.875 223.84 p0_0
gsave
1.000 0.000 0.000 setrgbcolor
fill
grestore
stroke
grestore
gsave
453.4 352.8 73.12 44.1 clipbox
339.877 228.796 p0_0
gsave
1.000 0.000 0.000 setrgbcolor
fill
grestore
stroke
grestore
gsave
453.4 352.8 73.12 44.1 clipbox
299.558 258.939 p0_0
gsave
1.000 0.000 0.000 setrgbcolor
fill
grestore
stroke
grestore
gsave
453.4 352.8 73.12 44.1 clipbox
345.433 232.869 p0_0
gsave
1.000 0.000 0.000 setrgbcolor
fill
grestore
stroke
grestore
gsave
453.4 352.8 73.12 44.1 clipbox
313.686 194.247 p0_0
gsave
1.000 0.000 0.000 setrgbcolor
fill
grestore
stroke
grestore
gsave
453.4 352.8 73.12 44.1 clipbox
336.19 205.855 p0_0
gsave
1.000 0.000 0.000 setrgbcolor
fill
grestore
stroke
grestore
gsave
453.4 352.8 73.12 44.1 clipbox
449.823 274.462 p0_0
gsave
1.000 0.000 0.000 setrgbcolor
fill
grestore
stroke
grestore
gsave
453.4 352.8 73.12 44.1 clipbox
359.037 211.781 p0_0
gsave
1.000 0.000 0.000 setrgbcolor
fill
grestore
stroke
grestore
gsave
453.4 352.8 73.12 44.1 clipbox
170.353 239.979 p0_0
gsave
1.000 0.000 0.000 setrgbcolor
fill
grestore
stroke
grestore
gsave
453.4 352.8 73.12 44.1 clipbox
409.09 252.92 p0_0
gsave
1.000 0.000 0.000 setrgbcolor
fill
grestore
stroke
grestore
gsave
453.4 352.8 73.12 44.1 clipbox
394.01 152.861 p0_0
gsave
1.000 0.000 0.000 setrgbcolor
fill
grestore
stroke
grestore
gsave
453.4 352.8 73.12 44.1 clipbox
219.731 123.517 p0_0
gsave
1.000 0.000 0.000 setrgbcolor
fill
grestore
stroke
grestore
gsave
453.4 352.8 73.12 44.1 clipbox
256.26 268.744 p0_0
gsave
1.000 0.000 0.000 setrgbcolor
fill
grestore
stroke
grestore
gsave
453.4 352.8 73.12 44.1 clipbox
240.469 253.262 p0_0
gsave
1.000 0.000 0.000 setrgbcolor
fill
grestore
stroke
grestore
gsave
453.4 352.8 73.12 44.1 clipbox
110.933 152.586 p0_0
gsave
1.000 0.000 0.000 setrgbcolor
fill
grestore
stroke
grestore
gsave
453.4 352.8 73.12 44.1 clipbox
431.704 187.454 p0_0
gsave
1.000 0.000 0.000 setrgbcolor
fill
grestore
stroke
grestore
gsave
453.4 352.8 73.12 44.1 clipbox
361.69 237.393 p0_0
gsave
1.000 0.000 0.000 setrgbcolor
fill
grestore
stroke
grestore
gsave
453.4 352.8 73.12 44.1 clipbox
311.698 335.617 p0_0
gsave
1.000 0.000 0.000 setrgbcolor
fill
grestore
stroke
grestore
gsave
453.4 352.8 73.12 44.1 clipbox
201.725 176.808 p0_0
gsave
1.000 0.000 0.000 setrgbcolor
fill
grestore
stroke
grestore
gsave
453.4 352.8 73.12 44.1 clipbox
170.362 239.793 p0_0
gsave
1.000 0.000 0.000 setrgbcolor
fill
grestore
stroke
grestore
gsave
453.4 352.8 73.12 44.1 clipbox
411.382 275.631 p0_0
gsave
1.000 0.000 0.000 setrgbcolor
fill
grestore
stroke
grestore
gsave
453.4 352.8 73.12 44.1 clipbox
448.482 207.307 p0_0
gsave
1.000 0.000 0.000 setrgbcolor
fill
grestore
stroke
grestore
gsave
453.4 352.8 73.12 44.1 clipbox
378.845 268.75 p0_0
gsave
1.000 0.000 0.000 setrgbcolor
fill
grestore
stroke
grestore
gsave
453.4 352.8 73.12 44.1 clipbox
449.858 252.491 p0_0
gsave
1.000 0.000 0.000 setrgbcolor
fill
grestore
stroke
grestore
gsave
453.4 352.8 73.12 44.1 clipbox
296.339 295.202 p0_0
gsave
1.000 0.000 0.000 setrgbcolor
fill
grestore
stroke
grestore
gsave
453.4 352.8 73.12 44.1 clipbox
382.205 269.578 p0_0
gsave
1.000 0.000 0.000 setrgbcolor
fill
grestore
stroke
grestore
gsave
453.4 352.8 73.12 44.1 clipbox
357.212 271.726 p0_0
gsave
1.000 0.000 0.000 setrgbcolor
fill
grestore
stroke
grestore
gsave
453.4 352.8 73.12 44.1 clipbox
388.64 241.317 p0_0
gsave
1.000 0.000 0.000 setrgbcolor
fill
grestore
stroke
grestore
gsave
453.4 352.8 73.12 44.1 clipbox
396.162 215.032 p0_0
gsave
1.000 0.000 0.000 setrgbcolor
fill
grestore
stroke
grestore
gsave
453.4 352.8 73.12 44.1 clipbox
276.982 230.425 p0_0
gsave
1.000 0.000 0.000 setrgbcolor
fill
grestore
stroke
grestore
gsave
453.4 352.8 73.12 44.1 clipbox
170.149 239.523 p0_0
gsave
1.000 0.000 0.000 setrgbcolor
fill
grestore
stroke
grestore
gsave
453.4 352.8 73.12 44.1 clipbox
429.147 248.866 p0_0
gsave
1.000 0.000 0.000 setrgbcolor
fill
grestore
stroke
grestore
gsave
453.4 352.8 73.12 44.1 clipbox
331.302 246.557 p0_0
gsave
1.000 0.000 0.000 setrgbcolor
fill
grestore
stroke
grestore
gsave
453.4 352.8 73.12 44.1 clipbox
361.249 222.069 p0_0
gsave
1.000 0.000 0.000 setrgbcolor
fill
grestore
stroke
grestore
gsave
453.4 352.8 73.12 44.1 clipbox
111.39 152.787 p0_0
gsave
1.000 0.000 0.000 setrgbcolor
fill
grestore
stroke
grestore
gsave
453.4 352.8 73.12 44.1 clipbox
405.194 249.172 p0_0
gsave
1.000 0.000 0.000 setrgbcolor
fill
grestore
stroke
grestore
gsave
453.4 352.8 73.12 44.1 clipbox
402.39 188.094 p0_0
gsave
1.000 0.000 0.000 setrgbcolor
fill
grestore
stroke
grestore
gsave
453.4 352.8 73.12 44.1 clipbox
406.65 239.603 p0_0
gsave
1.000 0.000 0.000 setrgbcolor
fill
grestore
stroke
grestore
gsave
453.4 352.8 73.12 44.1 clipbox
335.442 304.104 p0_0
gsave
1.000 0.000 0.000 setrgbcolor
fill
grestore
stroke
grestore
gsave
453.4 352.8 73.12 44.1 clipbox
392.491 259.533 p0_0
gsave
1.000 0.000 0.000 setrgbcolor
fill
grestore
stroke
grestore
gsave
453.4 352.8 73.12 44.1 clipbox
349.268 314.214 p0_0
gsave
1.000 0.000 0.000 setrgbcolor
fill
grestore
stroke
grestore
gsave
453.4 352.8 73.12 44.1 clipbox
394.002 151.099 p0_0
gsave
1.000 0.000 0.000 setrgbcolor
fill
grestore
stroke
grestore
gsave
453.4 352.8 73.12 44.1 clipbox
333.466 273.921 p0_0
gsave
1.000 0.000 0.000 setrgbcolor
fill
grestore
stroke
grestore
gsave
453.4 352.8 73.12 44.1 clipbox
412.331 228.635 p0_0
gsave
1.000 0.000 0.000 setrgbcolor
fill
grestore
stroke
grestore
gsave
453.4 352.8 73.12 44.1 clipbox
315.339 147.361 p0_0
gsave
1.000 0.000 0.000 setrgbcolor
fill
grestore
stroke
grestore
gsave
453.4 352.8 73.12 44.1 clipbox
174.5 235.212 p0_0
gsave
1.000 0.000 0.000 setrgbcolor
fill
grestore
stroke
grestore
gsave
453.4 352.8 73.12 44.1 clipbox
424.838 186.977 p0_0
gsave
1.000 0.000 0.000 setrgbcolor
fill
grestore
stroke
grestore
gsave
453.4 352.8 73.12 44.1 clipbox
111.479 152.855 p0_0
gsave
1.000 0.000 0.000 setrgbcolor
fill
grestore
stroke
grestore
gsave
453.4 352.8 73.12 44.1 clipbox
431.476 163.182 p0_0
gsave
1.000 0.000 0.000 setrgbcolor
fill
grestore
stroke
grestore
gsave
453.4 352.8 73.12 44.1 clipbox
343.453 215.224 p0_0
gsave
1.000 0.000 0.000 setrgbcolor
fill
grestore
stroke
grestore
gsave
453.4 352.8 73.12 44.1 clipbox
231.634 250.367 p0_0
gsave
1.000 0.000 0.000 setrgbcolor
fill
grestore
stroke
grestore
gsave
453.4 352.8 73.12 44.1 clipbox
378.944 269.1 p0_0
gsave
1.000 0.000 0.000 setrgbcolor
fill
grestore
stroke
grestore
gsave
453.4 352.8 73.12 44.1 clipbox
170.096 239.507 p0_0
gsave
1.000 0.000 0.000 setrgbcolor
fill
grestore
stroke
grestore
gsave
453.4 352.8 73.12 44.1 clipbox
376.398 262.957 p0_0
gsave
1.000 0.000 0.000 setrgbcolor
fill
grestore
stroke
grestore
gsave
453.4 352.8 73.12 44.1 clipbox
399.244 225.01 p0_0
gsave
1.000 0.000 0.000 setrgbcolor
fill
grestore
stroke
grestore
gsave
453.4 352.8 73.12 44.1 clipbox
243.335 188.27 p0_0
gsave
1.000 0.000 0.000 setrgbcolor
fill
grestore
stroke
grestore
gsave
453.4 352.8 73.12 44.1 clipbox
323.802 333.487 p0_0
gsave
1.000 0.000 0.000 setrgbcolor
fill
grestore
stroke
grestore
gsave
453.4 352.8 73.12 44.1 clipbox
413.19 289.134 p0_0
gsave
1.000 0.000 0.000 setrgbcolor
fill
grestore
stroke
grestore
gsave
453.4 352.8 73.12 44.1 clipbox
311.693 200.887 p0_0
gsave
1.000 0.000 0.000 setrgbcolor
fill
grestore
stroke
grestore
gsave
453.4 352.8 73.12 44.1 clipbox
285.974 293.727 p0_0
gsave
1.000 0.000 0.000 setrgbcolor
fill
grestore
stroke
grestore
gsave
453.4 352.8 73.12 44.1 clipbox
302.353 333.467 p0_0
gsave
1.000 0.000 0.000 setrgbcolor
fill
grestore
stroke
grestore
gsave
453.4 352.8 73.12 44.1 clipbox
393.895 151.079 p0_0
gsave
1.000 0.000 0.000 setrgbcolor
fill
grestore
stroke
grestore
gsave
453.4 352.8 73.12 44.1 clipbox
324.294 102.445 p0_0
gsave
1.000 0.000 0.000 setrgbcolor
fill
grestore
stroke
grestore
gsave
453.4 352.8 73.12 44.1 clipbox
348.758 228.072 p0_0
gsave
1.000 0.000 0.000 setrgbcolor
fill
grestore
stroke
grestore
gsave
453.4 352.8 73.12 44.1 clipbox
324.226 332.496 p0_0
gsave
1.000 0.000 0.000 setrgbcolor
fill
grestore
stroke
grestore
gsave
453.4 352.8 73.12 44.1 clipbox
328.721 255.868 p0_0
gsave
1.000 0.000 0.000 setrgbcolor
fill
grestore
stroke
grestore
gsave
453.4 352.8 73.12 44.1 clipbox
343.93 284.486 p0_0
gsave
1.000 0.000 0.000 setrgbcolor
fill
grestore
stroke
grestore
gsave
453.4 352.8 73.12 44.1 clipbox
388.499 270.291 p0_0
gsave
1.000 0.000 0.000 setrgbcolor
fill
grestore
stroke
grestore
gsave
453.4 352.8 73.12 44.1 clipbox
295.616 218.055 p0_0
gsave
1.000 0.000 0.000 setrgbcolor
fill
grestore
stroke
grestore
gsave
453.4 352.8 73.12 44.1 clipbox
337.419 190.207 p0_0
gsave
1.000 0.000 0.000 setrgbcolor
fill
grestore
stroke
grestore
gsave
453.4 352.8 73.12 44.1 clipbox
341.787 247.573 p0_0
gsave
1.000 0.000 0.000 setrgbcolor
fill
grestore
stroke
grestore
gsave
453.4 352.8 73.12 44.1 clipbox
320.353 213.566 p0_0
gsave
1.000 0.000 0.000 setrgbcolor
fill
grestore
stroke
grestore
gsave
453.4 352.8 73.12 44.1 clipbox
298.416 295.323 p0_0
gsave
1.000 0.000 0.000 setrgbcolor
fill
grestore
stroke
grestore
gsave
453.4 352.8 73.12 44.1 clipbox
351.781 128.254 p0_0
gsave
1.000 0.000 0.000 setrgbcolor
fill
grestore
stroke
grestore
gsave
453.4 352.8 73.12 44.1 clipbox
385.685 116.38 p0_0
gsave
1.000 0.000 0.000 setrgbcolor
fill
grestore
stroke
grestore
gsave
453.4 352.8 73.12 44.1 clipbox
295.785 186.583 p0_0
gsave
1.000 0.000 0.000 setrgbcolor
fill
grestore
stroke
grestore
gsave
453.4 352.8 73.12 44.1 clipbox
206.321 196.368 p0_0
gsave
1.000 0.000 0.000 setrgbcolor
fill
grestore
stroke
grestore
0.500 setlinewidth
gsave
/o {
gsave
newpath
translate
0.5 setlinewidth
1 setlinejoin
0 setlinecap
0 0 m
0 4 l
gsave
0.000 setgray
fill
grestore
stroke
grestore
} bind def
73.125 44.1 o
grestore
gsave
/o {
gsave
newpath
translate
0.5 setlinewidth
1 setlinejoin
0 setlinecap
0 0 m
0 -4 l
gsave
0.000 setgray
fill
grestore
stroke
grestore
} bind def
73.125 396.9 o
grestore
/DejaVuSans findfont
12.000 scalefont
setfont
gsave
70.289062 30.975000 translate
0.000000 rotate
0.000000 0.000000 m /five glyphshow
grestore
gsave
/o {
gsave
newpath
translate
0.5 setlinewidth
1 setlinejoin
0 setlinecap
0 0 m
0 4 l
gsave
0.000 setgray
fill
grestore
stroke
grestore
} bind def
163.8 44.1 o
grestore
gsave
/o {
gsave
newpath
translate
0.5 setlinewidth
1 setlinejoin
0 setlinecap
0 0 m
0 -4 l
gsave
0.000 setgray
fill
grestore
stroke
grestore
} bind def
163.8 396.9 o
grestore
gsave
157.214063 30.975000 translate
0.000000 rotate
0.000000 0.000000 m /one glyphshow
7.634766 0.000000 m /zero glyphshow
grestore
gsave
/o {
gsave
newpath
translate
0.5 setlinewidth
1 setlinejoin
0 setlinecap
0 0 m
0 4 l
gsave
0.000 setgray
fill
grestore
stroke
grestore
} bind def
254.475 44.1 o
grestore
gsave
/o {
gsave
newpath
translate
0.5 setlinewidth
1 setlinejoin
0 setlinecap
0 0 m
0 -4 l
gsave
0.000 setgray
fill
grestore
stroke
grestore
} bind def
254.475 396.9 o
grestore
gsave
248.014063 30.975000 translate
0.000000 rotate
0.000000 0.000000 m /one glyphshow
7.634766 0.000000 m /five glyphshow
grestore
gsave
/o {
gsave
newpath
translate
0.5 setlinewidth
1 setlinejoin
0 setlinecap
0 0 m
0 4 l
gsave
0.000 setgray
fill
grestore
stroke
grestore
} bind def
345.15 44.1 o
grestore
gsave
/o {
gsave
newpath
translate
0.5 setlinewidth
1 setlinejoin
0 setlinecap
0 0 m
0 -4 l
gsave
0.000 setgray
fill
grestore
stroke
grestore
} bind def
345.15 396.9 o
grestore
gsave
338.345313 30.975000 translate
0.000000 rotate
0.000000 0.000000 m /two glyphshow
7.634766 0.000000 m /zero glyphshow
grestore
gsave
/o {
gsave
newpath
translate
0.5 setlinewidth
1 setlinejoin
0 setlinecap
0 0 m
0 4 l
gsave
0.000 setgray
fill
grestore
stroke
grestore
} bind def
435.825 44.1 o
grestore
gsave
/o {
gsave
newpath
translate
0.5 setlinewidth
1 setlinejoin
0 setlinecap
0 0 m
0 -4 l
gsave
0.000 setgray
fill
grestore
stroke
grestore
} bind def
435.825 396.9 o
grestore
gsave
429.145313 30.975000 translate
0.000000 rotate
0.000000 0.000000 m /two glyphshow
7.634766 0.000000 m /five glyphshow
grestore
gsave
/o {
gsave
newpath
translate
0.5 setlinewidth
1 setlinejoin
0 setlinecap
0 0 m
0 4 l
gsave
0.000 setgray
fill
grestore
stroke
grestore
} bind def
526.5 44.1 o
grestore
gsave
/o {
gsave
newpath
translate
0.5 setlinewidth
1 setlinejoin
0 setlinecap
0 0 m
0 -4 l
gsave
0.000 setgray
fill
grestore
stroke
grestore
} bind def
526.5 396.9 o
grestore
gsave
519.718750 30.975000 translate
0.000000 rotate
0.000000 0.000000 m /three glyphshow
7.634766 0.000000 m /zero glyphshow
grestore
gsave
/o {
gsave
newpath
translate
0.5 setlinewidth
1 setlinejoin
0 setlinecap
0 0 m
4 0 l
gsave
0.000 setgray
fill
grestore
stroke
grestore
} bind def
73.125 44.1 o
grestore
gsave
/o {
gsave
newpath
translate
0.5 setlinewidth
1 setlinejoin
0 setlinecap
0 0 m
-4 0 l
gsave
0.000 setgray
fill
grestore
stroke
grestore
} bind def
526.5 44.1 o
grestore
gsave
63.078125 40.787500 translate
0.000000 rotate
0.000000 0.000000 m /zero glyphshow
grestore
gsave
/o {
gsave
newpath
translate
0.5 setlinewidth
1 setlinejoin
0 setlinecap
0 0 m
4 0 l
gsave
0.000 setgray
fill
grestore
stroke
grestore
} bind def
73.125 102.9 o
grestore
gsave
/o {
gsave
newpath
translate
0.5 setlinewidth
1 setlinejoin
0 setlinecap
0 0 m
-4 0 l
gsave
0.000 setgray
fill
grestore
stroke
grestore
} bind def
526.5 102.9 o
grestore
gsave
63.453125 99.587500 translate
0.000000 rotate
0.000000 0.000000 m /five glyphshow
grestore
gsave
/o {
gsave
newpath
translate
0.5 setlinewidth
1 setlinejoin
0 setlinecap
0 0 m
4 0 l
gsave
0.000 setgray
fill
grestore
stroke
grestore
} bind def
73.125 161.7 o
grestore
gsave
/o {
gsave
newpath
translate
0.5 setlinewidth
1 setlinejoin
0 setlinecap
0 0 m
-4 0 l
gsave
0.000 setgray
fill
grestore
stroke
grestore
} bind def
526.5 161.7 o
grestore
gsave
55.953125 158.387500 translate
0.000000 rotate
0.000000 0.000000 m /one glyphshow
7.634766 0.000000 m /zero glyphshow
grestore
gsave
/o {
gsave
newpath
translate
0.5 setlinewidth
1 setlinejoin
0 setlinecap
0 0 m
4 0 l
gsave
0.000 setgray
fill
grestore
stroke
grestore
} bind def
73.125 220.5 o
grestore
gsave
/o {
gsave
newpath
translate
0.5 setlinewidth
1 setlinejoin
0 setlinecap
0 0 m
-4 0 l
gsave
0.000 setgray
fill
grestore
stroke
grestore
} bind def
526.5 220.5 o
grestore
gsave
56.203125 217.187500 translate
0.000000 rotate
0.000000 0.000000 m /one glyphshow
7.634766 0.000000 m /five glyphshow
grestore
gsave
/o {
gsave
newpath
translate
0.5 setlinewidth
1 setlinejoin
0 setlinecap
0 0 m
4 0 l
gsave
0.000 setgray
fill
grestore
stroke
grestore
} bind def
73.125 279.3 o
grestore
gsave
/o {
gsave
newpath
translate
0.5 setlinewidth
1 setlinejoin
0 setlinecap
0 0 m
-4 0 l
gsave
0.000 setgray
fill
grestore
stroke
grestore
} bind def
526.5 279.3 o
grestore
gsave
55.515625 275.987500 translate
0.000000 rotate
0.000000 0.000000 m /two glyphshow
7.634766 0.000000 m /zero glyphshow
grestore
gsave
/o {
gsave
newpath
translate
0.5 setlinewidth
1 setlinejoin
0 setlinecap
0 0 m
4 0 l
gsave
0.000 setgray
fill
grestore
stroke
grestore
} bind def
73.125 338.1 o
grestore
gsave
/o {
gsave
newpath
translate
0.5 setlinewidth
1 setlinejoin
0 setlinecap
0 0 m
-4 0 l
gsave
0.000 setgray
fill
grestore
stroke
grestore
} bind def
526.5 338.1 o
grestore
gsave
55.765625 334.787500 translate
0.000000 rotate
0.000000 0.000000 m /two glyphshow
7.634766 0.000000 m /five glyphshow
grestore
gsave
/o {
gsave
newpath
translate
0.5 setlinewidth
1 setlinejoin
0 setlinecap
0 0 m
4 0 l
gsave
0.000 setgray
fill
grestore
stroke
grestore
} bind def
73.125 396.9 o
grestore
gsave
/o {
gsave
newpath
translate
0.5 setlinewidth
1 setlinejoin
0 setlinecap
0 0 m
-4 0 l
gsave
0.000 setgray
fill
grestore
stroke
grestore
} bind def
526.5 396.9 o
grestore
gsave
55.562500 393.587500 translate
0.000000 rotate
0.000000 0.000000 m /three glyphshow
7.634766 0.000000 m /zero glyphshow
grestore
1.000 setlinewidth
gsave
73.125 396.9 m
526.5 396.9 l
stroke
grestore
gsave
526.5 44.1 m
526.5 396.9 l
stroke
grestore
gsave
73.125 44.1 m
526.5 44.1 l
stroke
grestore
gsave
73.125 44.1 m
73.125 396.9 l
stroke
grestore

end
showpage
